﻿<Cube xmlns:xsd="http://www.w3.org/2001/XMLSchema" xmlns:xsi="http://www.w3.org/2001/XMLSchema-instance" xmlns:ddl2="http://schemas.microsoft.com/analysisservices/2003/engine/2" xmlns:ddl2_2="http://schemas.microsoft.com/analysisservices/2003/engine/2/2" xmlns:ddl100_100="http://schemas.microsoft.com/analysisservices/2008/engine/100/100" xmlns:ddl200="http://schemas.microsoft.com/analysisservices/2010/engine/200" xmlns:ddl200_200="http://schemas.microsoft.com/analysisservices/2010/engine/200/200" xmlns:ddl300="http://schemas.microsoft.com/analysisservices/2011/engine/300" xmlns:ddl300_300="http://schemas.microsoft.com/analysisservices/2011/engine/300/300" xmlns:dwd="http://schemas.microsoft.com/DataWarehouse/Designer/1.0" dwd:design-time-name="6967d0f0-83ab-4fe1-af5f-5e03c025a3ec" xmlns="http://schemas.microsoft.com/analysisservices/2003/engine">
  <ID>Brilliance-Auto</ID>
  <Name>Brilliance-Auto-Регистрация</Name>
  <CreatedTimestamp>0001-01-01T00:00:00Z</CreatedTimestamp>
  <LastSchemaUpdate>0001-01-01T00:00:00Z</LastSchemaUpdate>
  <Annotations>
    <Annotation>
      <Name>http://schemas.microsoft.com/DataWarehouse/Designer/1.0:DiagramLayout</Name>
      <Value>
        <dds xmlns="">
          <diagram fontclsid="{0BE35203-8F91-11CE-9DE3-00AA004BB851}" mouseiconclsid="{0BE35204-8F91-11CE-9DE3-00AA004BB851}" defaultlayout="MSDDS.Rectilinear" defaultlineroute="MSDDS.Rectilinear" version="7" nextobject="58" scale="100" pagebreakanchorx="0" pagebreakanchory="0" pagebreaksizex="0" pagebreaksizey="0" scrollleft="556" scrolltop="-2200" gridx="150" gridy="150" marginx="5000" marginy="5000" zoom="75" x="20929" y="16642" backcolor="15334399" defaultpersistence="2" PrintPageNumbersMode="3" PrintMarginTop="0" PrintMarginBottom="635" PrintMarginLeft="0" PrintMarginRight="0" marqueeselectionmode="0" mousepointer="0" snaptogrid="0" autotypeannotation="1" showscrollbars="1" viewpagebreaks="0" donotforceconnectorsbehindshapes="1" backpictureclsid="{00000000-0000-0000-0000-000000000000}">
            <font>
              <ddsxmlobjectstreamwrapper binary="01cc0000900144420100065461686f6d61" />
            </font>
            <mouseicon>
              <ddsxmlobjectstreamwrapper binary="6c74000000000000" />
            </mouseicon>
          </diagram>
          <layoutmanager>
            <ddsxmlobj />
          </layoutmanager>
          <ddscontrol controlprogid="DdsShapes.DdsObjectManagedBridge.3" tooltip="DimGeography" left="8860" top="5000" logicalid="29" controlid="1" masterid="0" hint1="0" hint2="0" width="3545" height="5000" noresize="0" nomove="0" nodefaultattachpoints="0" autodrag="1" usedefaultiddshape="1" selectable="1" showselectionhandles="1" allownudging="1" isannotation="0" dontautolayout="0" groupcollapsed="0" tabstop="1" visible="1" snaptogrid="0">
            <control>
              <ddsxmlobjectstreaminitwrapper binary="00080000d90d000088130000" />
            </control>
            <layoutobject>
              <ddsxmlobj>
                <property name="LogicalObject" value="dbo_DimGeography" vartype="8" />
              </ddsxmlobj>
            </layoutobject>
            <shape groupshapeid="0" groupnode="0" />
          </ddscontrol>
          <ddscontrol controlprogid="DdsShapes.DdsObjectManagedBridge.3" tooltip="DimProdYear" left="14077" top="3148" logicalid="30" controlid="2" masterid="0" hint1="0" hint2="0" width="4022" height="3149" noresize="0" nomove="0" nodefaultattachpoints="0" autodrag="1" usedefaultiddshape="1" selectable="1" showselectionhandles="1" allownudging="1" isannotation="0" dontautolayout="0" groupcollapsed="0" tabstop="1" visible="1" snaptogrid="0">
            <control>
              <ddsxmlobjectstreaminitwrapper binary="00080000b60f00004d0c0000" />
            </control>
            <layoutobject>
              <ddsxmlobj>
                <property name="LogicalObject" value="dbo_DimProdYear" vartype="8" />
              </ddsxmlobj>
            </layoutobject>
            <shape groupshapeid="0" groupnode="0" />
          </ddscontrol>
          <ddscontrol controlprogid="DdsShapes.DdsObjectManagedBridge.3" tooltip="vUpdatingDateReg" left="12780" top="7500" logicalid="31" controlid="3" masterid="0" hint1="0" hint2="0" width="4260" height="5000" noresize="0" nomove="0" nodefaultattachpoints="0" autodrag="1" usedefaultiddshape="1" selectable="1" showselectionhandles="1" allownudging="1" isannotation="0" dontautolayout="0" groupcollapsed="0" tabstop="1" visible="1" snaptogrid="0">
            <control>
              <ddsxmlobjectstreaminitwrapper binary="00080000a410000088130000" />
            </control>
            <layoutobject>
              <ddsxmlobj>
                <property name="LogicalObject" value="dbo_vUpdatingDateReg" vartype="8" />
              </ddsxmlobj>
            </layoutobject>
            <shape groupshapeid="0" groupnode="0" />
          </ddscontrol>
          <ddscontrol controlprogid="DdsShapes.DdsObjectManagedBridge.3" tooltip="DimEuroClass" left="4100" top="4086" logicalid="32" controlid="4" masterid="0" hint1="0" hint2="0" width="4101" height="2725" noresize="0" nomove="0" nodefaultattachpoints="0" autodrag="1" usedefaultiddshape="1" selectable="1" showselectionhandles="1" allownudging="1" isannotation="0" dontautolayout="0" groupcollapsed="0" tabstop="1" visible="1" snaptogrid="0">
            <control>
              <ddsxmlobjectstreaminitwrapper binary="0008000005100000a50a0000" />
            </control>
            <layoutobject>
              <ddsxmlobj>
                <property name="LogicalObject" value="dbo_DimEuroClass" vartype="8" />
              </ddsxmlobj>
            </layoutobject>
            <shape groupshapeid="0" groupnode="0" />
          </ddscontrol>
          <ddscontrol controlprogid="DdsShapes.DdsObjectManagedBridge.3" tooltip="vCalendarShort" left="4260" top="10000" logicalid="33" controlid="5" masterid="0" hint1="0" hint2="0" width="4260" height="5000" noresize="0" nomove="0" nodefaultattachpoints="0" autodrag="1" usedefaultiddshape="1" selectable="1" showselectionhandles="1" allownudging="1" isannotation="0" dontautolayout="0" groupcollapsed="0" tabstop="1" visible="1" snaptogrid="0">
            <control>
              <ddsxmlobjectstreaminitwrapper binary="00080000a410000088130000" />
            </control>
            <layoutobject>
              <ddsxmlobj>
                <property name="LogicalObject" value="dbo_vCalendarShort" vartype="8" />
              </ddsxmlobj>
            </layoutobject>
            <shape groupshapeid="0" groupnode="0" />
          </ddscontrol>
          <ddscontrol controlprogid="DdsShapes.DdsObjectManagedBridge.3" tooltip="DimDateDetail" left="19170" top="0" logicalid="34" controlid="6" masterid="0" hint1="0" hint2="0" width="4260" height="5000" noresize="0" nomove="0" nodefaultattachpoints="0" autodrag="1" usedefaultiddshape="1" selectable="1" showselectionhandles="1" allownudging="1" isannotation="0" dontautolayout="0" groupcollapsed="0" tabstop="1" visible="1" snaptogrid="0">
            <control>
              <ddsxmlobjectstreaminitwrapper binary="00080000a410000088130000" />
            </control>
            <layoutobject>
              <ddsxmlobj>
                <property name="LogicalObject" value="dbo_DimDateDetail" vartype="8" />
              </ddsxmlobj>
            </layoutobject>
            <shape groupshapeid="0" groupnode="0" />
          </ddscontrol>
          <ddscontrol controlprogid="MSDDS.Polyline" left="4341" top="4700" logicalid="35" controlid="7" masterid="0" hint1="0" hint2="0" width="18909" height="5800" noresize="0" nomove="0" nodefaultattachpoints="1" autodrag="0" usedefaultiddshape="0" selectable="1" showselectionhandles="0" allownudging="1" isannotation="0" dontautolayout="0" groupcollapsed="0" tabstop="1" visible="1" snaptogrid="0">
            <control>
              <ddsxmlobj>
                <polyline endtypedst="6" endtypesrc="3" usercolor="0" linestyle="0" linerender="1" customendtypedstid="0" customendtypesrcid="0" adornsvisible="1" />
              </ddsxmlobj>
            </control>
            <layoutobject>
              <ddsxmlobj>
                <property name="LogicalObject" value="dataSet.Relations[DimDateDetail-vCalendarShort]" vartype="8" />
                <property name="Virtual" value="0" vartype="11" />
                <property name="VisibleAP" value="0" vartype="3" />
              </ddsxmlobj>
            </layoutobject>
            <connector lineroutestyle="MSDDS.Rectilinear" sourceid="5" destid="6" sourceattachpoint="0" destattachpoint="13" segmenteditmode="0" bendpointeditmode="0" bendpointvisibility="0" relatedid="0" virtual="0">
              <point x="4740" y="10000" />
              <point x="4740" y="7500" />
              <point x="22950" y="7500" />
              <point x="22950" y="5000" />
            </connector>
          </ddscontrol>
          <ddscontrol controlprogid="DdsShapes.DdsObjectManagedBridge.3" tooltip="DimOrigin" left="8995" top="1362" logicalid="36" controlid="8" masterid="0" hint1="0" hint2="0" width="3598" height="2725" noresize="0" nomove="0" nodefaultattachpoints="0" autodrag="1" usedefaultiddshape="1" selectable="1" showselectionhandles="1" allownudging="1" isannotation="0" dontautolayout="0" groupcollapsed="0" tabstop="1" visible="1" snaptogrid="0">
            <control>
              <ddsxmlobjectstreaminitwrapper binary="000800000e0e0000a50a0000" />
            </control>
            <layoutobject>
              <ddsxmlobj>
                <property name="LogicalObject" value="dbo_DimOrigin" vartype="8" />
              </ddsxmlobj>
            </layoutobject>
            <shape groupshapeid="0" groupnode="0" />
          </ddscontrol>
          <ddscontrol controlprogid="DdsShapes.DdsObjectManagedBridge.3" tooltip="DimCountry" left="9000" top="10359" logicalid="37" controlid="9" masterid="0" hint1="0" hint2="0" width="3000" height="2302" noresize="0" nomove="0" nodefaultattachpoints="0" autodrag="1" usedefaultiddshape="1" selectable="1" showselectionhandles="1" allownudging="1" isannotation="0" dontautolayout="0" groupcollapsed="0" tabstop="1" visible="1" snaptogrid="0">
            <control>
              <ddsxmlobjectstreaminitwrapper binary="00080000b80b0000fe080000" />
            </control>
            <layoutobject>
              <ddsxmlobj>
                <property name="LogicalObject" value="dbo_DimCountry" vartype="8" />
              </ddsxmlobj>
            </layoutobject>
            <shape groupshapeid="0" groupnode="0" />
          </ddscontrol>
          <ddscontrol controlprogid="DdsShapes.DdsObjectManagedBridge.3" tooltip="DimModel" left="17464" top="7500" logicalid="38" controlid="10" masterid="0" hint1="0" hint2="0" width="4366" height="5000" noresize="0" nomove="0" nodefaultattachpoints="0" autodrag="1" usedefaultiddshape="1" selectable="1" showselectionhandles="1" allownudging="1" isannotation="0" dontautolayout="0" groupcollapsed="0" tabstop="1" visible="1" snaptogrid="0">
            <control>
              <ddsxmlobjectstreaminitwrapper binary="000800000e11000088130000" />
            </control>
            <layoutobject>
              <ddsxmlobj>
                <property name="LogicalObject" value="dbo_DimModel" vartype="8" />
              </ddsxmlobj>
            </layoutobject>
            <shape groupshapeid="0" groupnode="0" />
          </ddscontrol>
          <ddscontrol controlprogid="MSDDS.Polyline" left="11700" top="10561" logicalid="39" controlid="11" masterid="0" hint1="0" hint2="0" width="6064" height="1939" noresize="0" nomove="0" nodefaultattachpoints="1" autodrag="0" usedefaultiddshape="0" selectable="1" showselectionhandles="0" allownudging="1" isannotation="0" dontautolayout="0" groupcollapsed="0" tabstop="1" visible="1" snaptogrid="0">
            <control>
              <ddsxmlobj>
                <polyline endtypedst="6" endtypesrc="3" usercolor="0" linestyle="0" linerender="1" customendtypedstid="0" customendtypesrcid="0" adornsvisible="1" />
              </ddsxmlobj>
            </control>
            <layoutobject>
              <ddsxmlobj>
                <property name="LogicalObject" value="dataSet.Relations[FK_DimModel_DimCountry]" vartype="8" />
                <property name="Virtual" value="0" vartype="11" />
                <property name="VisibleAP" value="0" vartype="3" />
              </ddsxmlobj>
            </layoutobject>
            <connector lineroutestyle="MSDDS.Rectilinear" sourceid="9" destid="10" sourceattachpoint="11" destattachpoint="30" segmenteditmode="0" bendpointeditmode="0" bendpointvisibility="0" relatedid="0" virtual="0">
              <point x="12000" y="10960" />
              <point x="14732" y="10960" />
              <point x="14732" y="12200" />
              <point x="17464" y="12200" />
            </connector>
          </ddscontrol>
          <ddscontrol controlprogid="MSDDS.Polyline" left="12293" top="1225" logicalid="40" controlid="12" masterid="0" hint1="0" hint2="0" width="5471" height="7975" noresize="0" nomove="0" nodefaultattachpoints="1" autodrag="0" usedefaultiddshape="0" selectable="1" showselectionhandles="0" allownudging="1" isannotation="0" dontautolayout="0" groupcollapsed="0" tabstop="1" visible="1" snaptogrid="0">
            <control>
              <ddsxmlobj>
                <polyline endtypedst="6" endtypesrc="3" usercolor="0" linestyle="0" linerender="1" customendtypedstid="0" customendtypesrcid="0" adornsvisible="1" />
              </ddsxmlobj>
            </control>
            <layoutobject>
              <ddsxmlobj>
                <property name="LogicalObject" value="dataSet.Relations[FK_DimModel_DimOrigin]" vartype="8" />
                <property name="Virtual" value="0" vartype="11" />
                <property name="VisibleAP" value="0" vartype="3" />
              </ddsxmlobj>
            </layoutobject>
            <connector lineroutestyle="MSDDS.Rectilinear" sourceid="8" destid="10" sourceattachpoint="15" destattachpoint="18" segmenteditmode="0" bendpointeditmode="0" bendpointvisibility="0" relatedid="0" virtual="0">
              <point x="12593" y="1624" />
              <point x="15028" y="1624" />
              <point x="15028" y="8900" />
              <point x="17464" y="8900" />
            </connector>
          </ddscontrol>
          <ddscontrol controlprogid="DdsShapes.DdsObjectManagedBridge.3" tooltip="DimOwnerType" left="13014" top="0" logicalid="41" controlid="13" masterid="0" hint1="0" hint2="0" width="4339" height="2725" noresize="0" nomove="0" nodefaultattachpoints="0" autodrag="1" usedefaultiddshape="1" selectable="1" showselectionhandles="1" allownudging="1" isannotation="0" dontautolayout="0" groupcollapsed="0" tabstop="1" visible="1" snaptogrid="0">
            <control>
              <ddsxmlobjectstreaminitwrapper binary="00080000f3100000a50a0000" />
            </control>
            <layoutobject>
              <ddsxmlobj>
                <property name="LogicalObject" value="dbo_DimOwnerType" vartype="8" />
              </ddsxmlobj>
            </layoutobject>
            <shape groupshapeid="0" groupnode="0" />
          </ddscontrol>
          <ddscontrol controlprogid="DdsShapes.DdsObjectManagedBridge.3" tooltip="DimBodyType" left="0" top="12258" logicalid="42" controlid="14" masterid="0" hint1="0" hint2="0" width="4128" height="2725" noresize="0" nomove="0" nodefaultattachpoints="0" autodrag="1" usedefaultiddshape="1" selectable="1" showselectionhandles="1" allownudging="1" isannotation="0" dontautolayout="0" groupcollapsed="0" tabstop="1" visible="1" snaptogrid="0">
            <control>
              <ddsxmlobjectstreaminitwrapper binary="0008000020100000a50a0000" />
            </control>
            <layoutobject>
              <ddsxmlobj>
                <property name="LogicalObject" value="dbo_DimBodyType" vartype="8" />
              </ddsxmlobj>
            </layoutobject>
            <shape groupshapeid="0" groupnode="0" />
          </ddscontrol>
          <ddscontrol controlprogid="DdsShapes.DdsObjectManagedBridge.3" tooltip="DimRegistrationType" left="22617" top="5448" logicalid="43" controlid="15" masterid="0" hint1="0" hint2="0" width="5027" height="2725" noresize="0" nomove="0" nodefaultattachpoints="0" autodrag="1" usedefaultiddshape="1" selectable="1" showselectionhandles="1" allownudging="1" isannotation="0" dontautolayout="0" groupcollapsed="0" tabstop="1" visible="1" snaptogrid="0">
            <control>
              <ddsxmlobjectstreaminitwrapper binary="00080000a3130000a50a0000" />
            </control>
            <layoutobject>
              <ddsxmlobj>
                <property name="LogicalObject" value="dbo_DimRegistrationType" vartype="8" />
              </ddsxmlobj>
            </layoutobject>
            <shape groupshapeid="0" groupnode="0" />
          </ddscontrol>
          <ddscontrol controlprogid="DdsShapes.DdsObjectManagedBridge.3" tooltip="DimFuelType" left="0" top="8172" logicalid="44" controlid="16" masterid="0" hint1="0" hint2="0" width="4022" height="2725" noresize="0" nomove="0" nodefaultattachpoints="0" autodrag="1" usedefaultiddshape="1" selectable="1" showselectionhandles="1" allownudging="1" isannotation="0" dontautolayout="0" groupcollapsed="0" tabstop="1" visible="1" snaptogrid="0">
            <control>
              <ddsxmlobjectstreaminitwrapper binary="00080000b60f0000a50a0000" />
            </control>
            <layoutobject>
              <ddsxmlobj>
                <property name="LogicalObject" value="dbo_DimFuelType" vartype="8" />
              </ddsxmlobj>
            </layoutobject>
            <shape groupshapeid="0" groupnode="0" />
          </ddscontrol>
          <ddscontrol controlprogid="DdsShapes.DdsObjectManagedBridge.3" tooltip="vBrillianceAutoRegistration" left="0" top="0" logicalid="45" controlid="17" masterid="0" hint1="0" hint2="0" width="4075" height="5000" noresize="0" nomove="0" nodefaultattachpoints="0" autodrag="1" usedefaultiddshape="1" selectable="1" showselectionhandles="1" allownudging="1" isannotation="0" dontautolayout="0" groupcollapsed="0" tabstop="1" visible="1" snaptogrid="0">
            <control>
              <ddsxmlobjectstreaminitwrapper binary="00080000eb0f000088130000" />
            </control>
            <layoutobject>
              <ddsxmlobj>
                <property name="LogicalObject" value="dbo_vBrillianceAutoRegistration" vartype="8" />
              </ddsxmlobj>
            </layoutobject>
            <shape groupshapeid="0" groupnode="0" />
          </ddscontrol>
          <ddscontrol controlprogid="MSDDS.Polyline" left="15" top="4700" logicalid="46" controlid="18" masterid="0" hint1="0" hint2="0" width="1222" height="8058" noresize="0" nomove="0" nodefaultattachpoints="1" autodrag="0" usedefaultiddshape="0" selectable="1" showselectionhandles="0" allownudging="1" isannotation="0" dontautolayout="0" groupcollapsed="0" tabstop="1" visible="1" snaptogrid="0">
            <control>
              <ddsxmlobj>
                <polyline endtypedst="6" endtypesrc="3" usercolor="0" linestyle="0" linerender="1" customendtypedstid="0" customendtypesrcid="0" adornsvisible="1" />
              </ddsxmlobj>
            </control>
            <layoutobject>
              <ddsxmlobj>
                <property name="LogicalObject" value="dataSet.Relations[vBrillianceAutoRegistration-DimBodyType]" vartype="8" />
                <property name="Virtual" value="0" vartype="11" />
                <property name="VisibleAP" value="0" vartype="3" />
              </ddsxmlobj>
            </layoutobject>
            <connector lineroutestyle="MSDDS.Rectilinear" sourceid="14" destid="17" sourceattachpoint="0" destattachpoint="3" segmenteditmode="0" bendpointeditmode="0" bendpointvisibility="0" relatedid="0" virtual="0">
              <point x="414" y="12258" />
              <point x="414" y="8629" />
              <point x="937" y="8629" />
              <point x="937" y="5000" />
            </connector>
          </ddscontrol>
          <ddscontrol controlprogid="MSDDS.Polyline" left="3601" top="3850" logicalid="47" controlid="19" masterid="0" hint1="0" hint2="0" width="799" height="898" noresize="0" nomove="0" nodefaultattachpoints="1" autodrag="0" usedefaultiddshape="0" selectable="1" showselectionhandles="0" allownudging="1" isannotation="0" dontautolayout="0" groupcollapsed="0" tabstop="1" visible="1" snaptogrid="0">
            <control>
              <ddsxmlobj>
                <polyline endtypedst="6" endtypesrc="3" usercolor="0" linestyle="0" linerender="1" customendtypedstid="0" customendtypesrcid="0" adornsvisible="1" />
              </ddsxmlobj>
            </control>
            <layoutobject>
              <ddsxmlobj>
                <property name="LogicalObject" value="dataSet.Relations[vBrillianceAutoRegistration-DimEuroClass]" vartype="8" />
                <property name="Virtual" value="0" vartype="11" />
                <property name="VisibleAP" value="0" vartype="3" />
              </ddsxmlobj>
            </layoutobject>
            <connector lineroutestyle="MSDDS.Rectilinear" sourceid="4" destid="17" sourceattachpoint="14" destattachpoint="29" segmenteditmode="0" bendpointeditmode="0" bendpointvisibility="0" relatedid="0" virtual="0">
              <point x="4100" y="4348" />
              <point x="4088" y="4348" />
              <point x="4088" y="4150" />
              <point x="4075" y="4150" />
            </connector>
          </ddscontrol>
          <ddscontrol controlprogid="MSDDS.Polyline" left="-38" top="4700" logicalid="48" controlid="20" masterid="0" hint1="0" hint2="0" width="799" height="3972" noresize="0" nomove="0" nodefaultattachpoints="1" autodrag="0" usedefaultiddshape="0" selectable="1" showselectionhandles="0" allownudging="1" isannotation="0" dontautolayout="0" groupcollapsed="0" tabstop="1" visible="1" snaptogrid="0">
            <control>
              <ddsxmlobj>
                <polyline endtypedst="6" endtypesrc="3" usercolor="0" linestyle="0" linerender="1" customendtypedstid="0" customendtypesrcid="0" adornsvisible="1" />
              </ddsxmlobj>
            </control>
            <layoutobject>
              <ddsxmlobj>
                <property name="LogicalObject" value="dataSet.Relations[vBrillianceAutoRegistration-DimFuelType]" vartype="8" />
                <property name="Virtual" value="0" vartype="11" />
                <property name="VisibleAP" value="0" vartype="3" />
              </ddsxmlobj>
            </layoutobject>
            <connector lineroutestyle="MSDDS.Rectilinear" sourceid="16" destid="17" sourceattachpoint="0" destattachpoint="1" segmenteditmode="0" bendpointeditmode="0" bendpointvisibility="0" relatedid="0" virtual="0">
              <point x="361" y="8172" />
              <point x="361" y="6586" />
              <point x="387" y="6586" />
              <point x="387" y="5000" />
            </connector>
          </ddscontrol>
          <ddscontrol controlprogid="MSDDS.Polyline" left="3775" top="4400" logicalid="49" controlid="21" masterid="0" hint1="0" hint2="0" width="5385" height="1300" noresize="0" nomove="0" nodefaultattachpoints="1" autodrag="0" usedefaultiddshape="0" selectable="1" showselectionhandles="0" allownudging="1" isannotation="0" dontautolayout="0" groupcollapsed="0" tabstop="1" visible="1" snaptogrid="0">
            <control>
              <ddsxmlobj>
                <polyline endtypedst="6" endtypesrc="3" usercolor="0" linestyle="0" linerender="1" customendtypedstid="0" customendtypesrcid="0" adornsvisible="1" />
              </ddsxmlobj>
            </control>
            <layoutobject>
              <ddsxmlobj>
                <property name="LogicalObject" value="dataSet.Relations[vBrillianceAutoRegistration-DimGeography]" vartype="8" />
                <property name="Virtual" value="0" vartype="11" />
                <property name="VisibleAP" value="0" vartype="3" />
              </ddsxmlobj>
            </layoutobject>
            <connector lineroutestyle="MSDDS.Rectilinear" sourceid="1" destid="17" sourceattachpoint="14" destattachpoint="31" segmenteditmode="0" bendpointeditmode="0" bendpointvisibility="0" relatedid="0" virtual="0">
              <point x="8860" y="5300" />
              <point x="6468" y="5300" />
              <point x="6468" y="4700" />
              <point x="4075" y="4700" />
            </connector>
          </ddscontrol>
          <ddscontrol controlprogid="MSDDS.Polyline" left="3775" top="2200" logicalid="50" controlid="22" masterid="0" hint1="0" hint2="0" width="13989" height="6550" noresize="0" nomove="0" nodefaultattachpoints="1" autodrag="0" usedefaultiddshape="0" selectable="1" showselectionhandles="0" allownudging="1" isannotation="0" dontautolayout="0" groupcollapsed="0" tabstop="1" visible="1" snaptogrid="0">
            <control>
              <ddsxmlobj>
                <polyline endtypedst="6" endtypesrc="3" usercolor="0" linestyle="0" linerender="1" customendtypedstid="0" customendtypesrcid="0" adornsvisible="1" />
              </ddsxmlobj>
            </control>
            <layoutobject>
              <ddsxmlobj>
                <property name="LogicalObject" value="dataSet.Relations[vBrillianceAutoRegistration-DimModel]" vartype="8" />
                <property name="Virtual" value="0" vartype="11" />
                <property name="VisibleAP" value="0" vartype="3" />
              </ddsxmlobj>
            </layoutobject>
            <connector lineroutestyle="MSDDS.Rectilinear" sourceid="10" destid="17" sourceattachpoint="16" destattachpoint="23" segmenteditmode="0" bendpointeditmode="0" bendpointvisibility="0" relatedid="0" virtual="0">
              <point x="17464" y="8350" />
              <point x="10770" y="8350" />
              <point x="10770" y="2500" />
              <point x="4075" y="2500" />
            </connector>
          </ddscontrol>
          <ddscontrol controlprogid="MSDDS.Polyline" left="3775" top="1100" logicalid="51" controlid="23" masterid="0" hint1="0" hint2="0" width="5520" height="924" noresize="0" nomove="0" nodefaultattachpoints="1" autodrag="0" usedefaultiddshape="0" selectable="1" showselectionhandles="0" allownudging="1" isannotation="0" dontautolayout="0" groupcollapsed="0" tabstop="1" visible="1" snaptogrid="0">
            <control>
              <ddsxmlobj>
                <polyline endtypedst="6" endtypesrc="3" usercolor="0" linestyle="0" linerender="1" customendtypedstid="0" customendtypesrcid="0" adornsvisible="1" />
              </ddsxmlobj>
            </control>
            <layoutobject>
              <ddsxmlobj>
                <property name="LogicalObject" value="dataSet.Relations[vBrillianceAutoRegistration-DimOrigin]" vartype="8" />
                <property name="Virtual" value="0" vartype="11" />
                <property name="VisibleAP" value="0" vartype="3" />
              </ddsxmlobj>
            </layoutobject>
            <connector lineroutestyle="MSDDS.Rectilinear" sourceid="8" destid="17" sourceattachpoint="14" destattachpoint="19" segmenteditmode="0" bendpointeditmode="0" bendpointvisibility="0" relatedid="0" virtual="0">
              <point x="8995" y="1624" />
              <point x="6535" y="1624" />
              <point x="6535" y="1400" />
              <point x="4075" y="1400" />
            </connector>
          </ddscontrol>
          <ddscontrol controlprogid="MSDDS.Polyline" left="3775" top="-137" logicalid="52" controlid="24" masterid="0" hint1="0" hint2="0" width="9539" height="799" noresize="0" nomove="0" nodefaultattachpoints="1" autodrag="0" usedefaultiddshape="0" selectable="1" showselectionhandles="0" allownudging="1" isannotation="0" dontautolayout="0" groupcollapsed="0" tabstop="1" visible="1" snaptogrid="0">
            <control>
              <ddsxmlobj>
                <polyline endtypedst="6" endtypesrc="3" usercolor="0" linestyle="0" linerender="1" customendtypedstid="0" customendtypesrcid="0" adornsvisible="1" />
              </ddsxmlobj>
            </control>
            <layoutobject>
              <ddsxmlobj>
                <property name="LogicalObject" value="dataSet.Relations[vBrillianceAutoRegistration-DimOwnerType]" vartype="8" />
                <property name="Virtual" value="0" vartype="11" />
                <property name="VisibleAP" value="0" vartype="3" />
              </ddsxmlobj>
            </layoutobject>
            <connector lineroutestyle="MSDDS.Rectilinear" sourceid="13" destid="17" sourceattachpoint="14" destattachpoint="15" segmenteditmode="0" bendpointeditmode="0" bendpointvisibility="0" relatedid="0" virtual="0">
              <point x="13014" y="262" />
              <point x="8545" y="262" />
              <point x="8545" y="300" />
              <point x="4075" y="300" />
            </connector>
          </ddscontrol>
          <ddscontrol controlprogid="MSDDS.Polyline" left="3775" top="2750" logicalid="53" controlid="25" masterid="0" hint1="0" hint2="0" width="10602" height="1272" noresize="0" nomove="0" nodefaultattachpoints="1" autodrag="0" usedefaultiddshape="0" selectable="1" showselectionhandles="0" allownudging="1" isannotation="0" dontautolayout="0" groupcollapsed="0" tabstop="1" visible="1" snaptogrid="0">
            <control>
              <ddsxmlobj>
                <polyline endtypedst="6" endtypesrc="3" usercolor="0" linestyle="0" linerender="1" customendtypedstid="0" customendtypesrcid="0" adornsvisible="1" />
              </ddsxmlobj>
            </control>
            <layoutobject>
              <ddsxmlobj>
                <property name="LogicalObject" value="dataSet.Relations[vBrillianceAutoRegistration-DimProdYear]" vartype="8" />
                <property name="Virtual" value="0" vartype="11" />
                <property name="VisibleAP" value="0" vartype="3" />
              </ddsxmlobj>
            </layoutobject>
            <connector lineroutestyle="MSDDS.Rectilinear" sourceid="2" destid="17" sourceattachpoint="14" destattachpoint="25" segmenteditmode="0" bendpointeditmode="0" bendpointvisibility="0" relatedid="0" virtual="0">
              <point x="14077" y="3622" />
              <point x="9076" y="3622" />
              <point x="9076" y="3050" />
              <point x="4075" y="3050" />
            </connector>
          </ddscontrol>
          <ddscontrol controlprogid="MSDDS.Polyline" left="3775" top="3300" logicalid="54" controlid="26" masterid="0" hint1="0" hint2="0" width="9305" height="4900" noresize="0" nomove="0" nodefaultattachpoints="1" autodrag="0" usedefaultiddshape="0" selectable="1" showselectionhandles="0" allownudging="1" isannotation="0" dontautolayout="0" groupcollapsed="0" tabstop="1" visible="1" snaptogrid="0">
            <control>
              <ddsxmlobj>
                <polyline endtypedst="6" endtypesrc="3" usercolor="0" linestyle="0" linerender="1" customendtypedstid="0" customendtypesrcid="0" adornsvisible="1" />
              </ddsxmlobj>
            </control>
            <layoutobject>
              <ddsxmlobj>
                <property name="LogicalObject" value="dataSet.Relations[vBrillianceAutoRegistration-vUpdatingDateReg]" vartype="8" />
                <property name="Virtual" value="0" vartype="11" />
                <property name="VisibleAP" value="0" vartype="3" />
              </ddsxmlobj>
            </layoutobject>
            <connector lineroutestyle="MSDDS.Rectilinear" sourceid="3" destid="17" sourceattachpoint="14" destattachpoint="27" segmenteditmode="0" bendpointeditmode="0" bendpointvisibility="0" relatedid="0" virtual="0">
              <point x="12780" y="7800" />
              <point x="8428" y="7800" />
              <point x="8428" y="3600" />
              <point x="4075" y="3600" />
            </connector>
          </ddscontrol>
          <ddscontrol controlprogid="MSDDS.Polyline" left="3775" top="-99" logicalid="55" controlid="27" masterid="0" hint1="0" hint2="0" width="15695" height="799" noresize="0" nomove="0" nodefaultattachpoints="1" autodrag="0" usedefaultiddshape="0" selectable="1" showselectionhandles="0" allownudging="1" isannotation="0" dontautolayout="0" groupcollapsed="0" tabstop="1" visible="1" snaptogrid="0">
            <control>
              <ddsxmlobj>
                <polyline endtypedst="6" endtypesrc="3" usercolor="0" linestyle="0" linerender="1" customendtypedstid="0" customendtypesrcid="0" adornsvisible="1" />
              </ddsxmlobj>
            </control>
            <layoutobject>
              <ddsxmlobj>
                <property name="LogicalObject" value="dataSet.Relations[vBrillianceAutoRegistration-DimDateDetail]" vartype="8" />
                <property name="Virtual" value="0" vartype="11" />
                <property name="VisibleAP" value="0" vartype="3" />
              </ddsxmlobj>
            </layoutobject>
            <connector lineroutestyle="MSDDS.Rectilinear" sourceid="6" destid="17" sourceattachpoint="14" destattachpoint="15" segmenteditmode="0" bendpointeditmode="0" bendpointvisibility="0" relatedid="0" virtual="0">
              <point x="19170" y="300" />
              <point x="4075" y="300" />
            </connector>
          </ddscontrol>
          <ddscontrol controlprogid="MSDDS.Polyline" left="3775" top="1650" logicalid="56" controlid="28" masterid="0" hint1="0" hint2="0" width="19142" height="4460" noresize="0" nomove="0" nodefaultattachpoints="1" autodrag="0" usedefaultiddshape="0" selectable="1" showselectionhandles="0" allownudging="1" isannotation="0" dontautolayout="0" groupcollapsed="0" tabstop="1" visible="1" snaptogrid="0">
            <control>
              <ddsxmlobj>
                <polyline endtypedst="6" endtypesrc="3" usercolor="0" linestyle="0" linerender="1" customendtypedstid="0" customendtypesrcid="0" adornsvisible="1" />
              </ddsxmlobj>
            </control>
            <layoutobject>
              <ddsxmlobj>
                <property name="LogicalObject" value="dataSet.Relations[vBrillianceAutoRegistration-DimRegistrationType]" vartype="8" />
                <property name="Virtual" value="0" vartype="11" />
                <property name="VisibleAP" value="0" vartype="3" />
              </ddsxmlobj>
            </layoutobject>
            <connector lineroutestyle="MSDDS.Rectilinear" sourceid="15" destid="17" sourceattachpoint="18" destattachpoint="21" segmenteditmode="0" bendpointeditmode="0" bendpointvisibility="0" relatedid="0" virtual="0">
              <point x="22617" y="5710" />
              <point x="13346" y="5710" />
              <point x="13346" y="1950" />
              <point x="4075" y="1950" />
            </connector>
          </ddscontrol>
        </dds>
      </Value>
    </Annotation>
    <Annotation>
      <Name>http://schemas.microsoft.com/DataWarehouse/Designer/1.0:ShowFriendlyNames</Name>
      <Value>true</Value>
    </Annotation>
    <Annotation>
      <Name>http://schemas.microsoft.com/DataWarehouse/Designer/1.0:ShowRelationshipNames</Name>
      <Value>false</Value>
    </Annotation>
    <Annotation>
      <Name>http://schemas.microsoft.com/DataWarehouse/Designer/1.0:UseDiagramDefaultLayout</Name>
      <Value>true</Value>
    </Annotation>
    <Annotation>
      <Name>http://schemas.microsoft.com/DataWarehouse/Designer/1.0:DiagramViewPortLeft</Name>
      <Value>556</Value>
    </Annotation>
    <Annotation>
      <Name>http://schemas.microsoft.com/DataWarehouse/Designer/1.0:DiagramViewPortTop</Name>
      <Value>-2200</Value>
    </Annotation>
    <Annotation>
      <Name>http://schemas.microsoft.com/DataWarehouse/Designer/1.0:DiagramBoundingLeft</Name>
      <Value>0</Value>
    </Annotation>
    <Annotation>
      <Name>http://schemas.microsoft.com/DataWarehouse/Designer/1.0:DiagramBoundingTop</Name>
      <Value>0</Value>
    </Annotation>
    <Annotation>
      <Name>http://schemas.microsoft.com/DataWarehouse/Designer/1.0:DiagramZoom</Name>
      <Value>75</Value>
    </Annotation>
  </Annotations>
  <LastProcessed>0001-01-01T00:00:00Z</LastProcessed>
  <State>Unprocessed</State>
  <Dimensions>
    <Dimension dwd:design-time-name="a0b61f7d-6311-4daf-b1a5-6b5db885311c">
      <ID>География</ID>
      <Name>География</Name>
      <DimensionID>География</DimensionID>
      <Attributes>
        <Attribute dwd:design-time-name="5addb4e7-f0ff-4218-9fef-837aed2275e5">
          <AttributeID>Geography Key</AttributeID>
        </Attribute>
        <Attribute dwd:design-time-name="c7f1474f-14f9-4dd4-aba3-8fab45f1efb7">
          <AttributeID>Area Ru Short Name</AttributeID>
        </Attribute>
        <Attribute dwd:design-time-name="72edeccc-ed2f-4c7c-9e70-d2205bb8f887">
          <AttributeID>Region Ru</AttributeID>
        </Attribute>
        <Attribute dwd:design-time-name="8e0c138f-e3b7-441c-9a1f-3e14539e0a63">
          <AttributeID>Province Ru</AttributeID>
        </Attribute>
      </Attributes>
      <Hierarchies>
        <Hierarchy dwd:design-time-name="cf5194fa-1c73-4974-af2c-53135dee23cc">
          <HierarchyID>Hierarchy</HierarchyID>
        </Hierarchy>
        <Hierarchy dwd:design-time-name="240bbafd-201e-4af8-b3bd-7249583b680f">
          <HierarchyID>Hierarchy 1</HierarchyID>
        </Hierarchy>
      </Hierarchies>
    </Dimension>
    <Dimension dwd:design-time-name="99a572b5-be86-4930-82ad-461b090036d3">
      <ID>Год выпуска</ID>
      <Name>Год выпуска</Name>
      <DimensionID>Год выпуска</DimensionID>
      <Attributes>
        <Attribute dwd:design-time-name="b7492e4a-56ba-40d0-a8c9-5a7d3946d3d0">
          <AttributeID>Prod Year Key</AttributeID>
        </Attribute>
      </Attributes>
    </Dimension>
    <Dimension dwd:design-time-name="7ffffe41-04ae-47c5-a22b-f37b7b760a2e">
      <ID>Еврокласс</ID>
      <Name>Еврокласс</Name>
      <DimensionID>Еврокласс</DimensionID>
      <Attributes>
        <Attribute dwd:design-time-name="6ee47092-0cb3-43e8-a38d-2d5fefabd6d4">
          <AttributeID>Euro Class Key</AttributeID>
        </Attribute>
      </Attributes>
    </Dimension>
    <Dimension dwd:design-time-name="fb4ae2e0-2623-4614-96a7-a43f4e898310">
      <ID>Календарь</ID>
      <Name>Календарь</Name>
      <DimensionID>Календарь</DimensionID>
      <Attributes>
        <Attribute dwd:design-time-name="703f7f06-766b-49ad-a5a6-529582608db7">
          <AttributeID>Date Key</AttributeID>
        </Attribute>
        <Attribute dwd:design-time-name="f1c45a13-4529-48e4-8eca-05fab47e3a53">
          <AttributeID>Calendar Year</AttributeID>
        </Attribute>
        <Attribute dwd:design-time-name="64d1c747-3c4d-498b-a9b3-4c1ca64c9e96">
          <AttributeID>Month Of Year</AttributeID>
        </Attribute>
      </Attributes>
      <Hierarchies>
        <Hierarchy dwd:design-time-name="3d7de88f-4c8d-4adb-9e43-dc787515f7f5">
          <HierarchyID>Hierarchy</HierarchyID>
        </Hierarchy>
      </Hierarchies>
    </Dimension>
    <Dimension dwd:design-time-name="903f6832-9e53-42a8-bf76-17f678f09b3d">
      <ID>Место производства</ID>
      <Name>Место производства</Name>
      <DimensionID>Место производства</DimensionID>
      <Attributes>
        <Attribute dwd:design-time-name="57dd6bac-ba94-4aa4-b9a9-0d632c9f91fc">
          <AttributeID>Origin Key</AttributeID>
        </Attribute>
      </Attributes>
    </Dimension>
    <Dimension dwd:design-time-name="0cf25250-36c8-4b47-ac7b-64c1d5a11ee4">
      <ID>Модели</ID>
      <Name>Модели</Name>
      <DimensionID>Модели</DimensionID>
      <Attributes>
        <Attribute dwd:design-time-name="0e4e47a2-f6fb-4392-bcf0-56861926602d">
          <AttributeID>Model Key</AttributeID>
        </Attribute>
        <Attribute dwd:design-time-name="4407384d-3dd4-4add-900c-b4dd6117ecc3">
          <AttributeID>Origin Key</AttributeID>
        </Attribute>
        <Attribute dwd:design-time-name="79facd53-1ef1-4938-aeef-b9be45976aa4">
          <AttributeID>Country Key</AttributeID>
        </Attribute>
        <Attribute dwd:design-time-name="2af2c58f-1454-4469-9998-63a72e3c9e4b">
          <AttributeID>Brand</AttributeID>
        </Attribute>
        <Attribute dwd:design-time-name="ada7cafd-6e71-42b5-afb4-9f49db735a09">
          <AttributeID>Model</AttributeID>
        </Attribute>
        <Attribute dwd:design-time-name="9bc813af-fe4a-4031-8d5d-2e1d7b0dc760">
          <AttributeID>Brand Model</AttributeID>
        </Attribute>
        <Attribute dwd:design-time-name="568d1537-249b-4f82-a660-ceafbb3e4316">
          <AttributeID>Segment Autostat</AttributeID>
        </Attribute>
        <Attribute dwd:design-time-name="e7ab1458-0b86-478c-9b9d-d4bc0b3b2738">
          <AttributeID>Subsegment Autostat</AttributeID>
        </Attribute>
      </Attributes>
      <Hierarchies>
        <Hierarchy dwd:design-time-name="bbb9b937-3dc4-4262-8246-402fd057d048">
          <HierarchyID>Hierarchy</HierarchyID>
        </Hierarchy>
      </Hierarchies>
    </Dimension>
    <Dimension dwd:design-time-name="9c96d64f-c2e1-4521-b55e-6e13b34338e0">
      <ID>Сегменты</ID>
      <Name>Сегменты</Name>
      <DimensionID>Сегменты</DimensionID>
      <Attributes>
        <Attribute dwd:design-time-name="de7ff46b-dd66-4e38-b406-6cb078ec154c">
          <AttributeID>Model Key</AttributeID>
        </Attribute>
        <Attribute dwd:design-time-name="245fb664-a703-430c-aa44-1e95a88194c7">
          <AttributeID>Brand Origin Key</AttributeID>
        </Attribute>
        <Attribute dwd:design-time-name="50960b69-bf26-4de6-bd37-13bae9bbca35">
          <AttributeID>Brand Country Key</AttributeID>
        </Attribute>
        <Attribute dwd:design-time-name="45b22c2e-24db-424c-b9f0-47a65031b675">
          <AttributeID>Segment Autostat</AttributeID>
        </Attribute>
        <Attribute dwd:design-time-name="1a2aa082-4428-47d2-8240-176ef5ee999a">
          <AttributeID>Subsegment Autostat</AttributeID>
        </Attribute>
      </Attributes>
      <Hierarchies>
        <Hierarchy dwd:design-time-name="cf82a515-7b4c-4a58-92f1-b760c9be68e6">
          <HierarchyID>Hierarchy</HierarchyID>
        </Hierarchy>
      </Hierarchies>
    </Dimension>
    <Dimension dwd:design-time-name="d7d66f04-3359-4c17-8782-351391d4f36a">
      <ID>Тип владельца</ID>
      <Name>Тип владельца</Name>
      <DimensionID>Тип владельца</DimensionID>
      <Attributes>
        <Attribute dwd:design-time-name="8b7eb211-bab2-42ff-b3e6-f44e72c6539b">
          <AttributeID>Owner Type Key</AttributeID>
        </Attribute>
      </Attributes>
    </Dimension>
    <Dimension dwd:design-time-name="b5a29ff8-cc21-48fd-9d18-92be70ea976b">
      <ID>Тип кузова</ID>
      <Name>Тип кузова</Name>
      <DimensionID>Тип кузова</DimensionID>
      <Attributes>
        <Attribute dwd:design-time-name="a38b771b-2c0a-4625-9ec6-c2ab11965023">
          <AttributeID>Body Type Key</AttributeID>
        </Attribute>
      </Attributes>
    </Dimension>
    <Dimension dwd:design-time-name="102b9b5f-7b34-4598-a1d8-cc5510b15fba">
      <ID>Тип регистрации</ID>
      <Name>Тип регистрации</Name>
      <DimensionID>Тип регистрации</DimensionID>
      <Attributes>
        <Attribute dwd:design-time-name="619afa3e-e3d2-4de3-9382-256b17132716">
          <AttributeID>Registration Type Key</AttributeID>
        </Attribute>
      </Attributes>
    </Dimension>
    <Dimension dwd:design-time-name="56ba46f1-6f3c-4b6f-a855-e19f527f1202">
      <ID>Тип топлива</ID>
      <Name>Тип топлива</Name>
      <DimensionID>Тип топлива</DimensionID>
      <Attributes>
        <Attribute dwd:design-time-name="8330ab3d-b74f-4519-b76e-9bd74b9167a0">
          <AttributeID>Fuel Type Key</AttributeID>
        </Attribute>
      </Attributes>
    </Dimension>
    <Dimension dwd:design-time-name="c7aeed85-4ed5-4569-8ca8-91c317164114">
      <ID>Тип ТС</ID>
      <Name>Тип ТС</Name>
      <DimensionID>Тип ТС</DimensionID>
      <Attributes>
        <Attribute dwd:design-time-name="276c2fa0-88c8-4df9-9c6e-057990c5f9b2">
          <AttributeID>Model Key</AttributeID>
        </Attribute>
        <Attribute dwd:design-time-name="e63893a8-8132-48b4-add0-7fb6a19cca6e">
          <AttributeID>Brand Origin Key</AttributeID>
        </Attribute>
        <Attribute dwd:design-time-name="7d444fb3-a661-4a62-9828-bc7d9a913957">
          <AttributeID>Brand Country Key</AttributeID>
        </Attribute>
        <Attribute dwd:design-time-name="93de54c1-2ee8-4587-b4c1-fe8c99c2e12d">
          <AttributeID>Type Vehicle Code</AttributeID>
        </Attribute>
      </Attributes>
    </Dimension>
  </Dimensions>
  <CubePermissions>
    <CubePermission dwd:design-time-name="e12857d6-acbd-41e9-8a35-1e2179979d70">
      <ID>CubePermission</ID>
      <Name>CubePermission</Name>
      <CreatedTimestamp>0001-01-01T00:00:00Z</CreatedTimestamp>
      <LastSchemaUpdate>0001-01-01T00:00:00Z</LastSchemaUpdate>
      <RoleID>Role</RoleID>
      <Read>Allowed</Read>
      <ReadSourceData>None</ReadSourceData>
    </CubePermission>
  </CubePermissions>
  <MeasureGroups>
    <MeasureGroup dwd:design-time-name="57508446-78fe-4295-aed3-f2426efa55d7">
      <ID>v Brilliance Auto Registration</ID>
      <Name>Регистрация</Name>
      <CreatedTimestamp>0001-01-01T00:00:00Z</CreatedTimestamp>
      <LastSchemaUpdate>0001-01-01T00:00:00Z</LastSchemaUpdate>
      <LastProcessed>0001-01-01T00:00:00Z</LastProcessed>
      <State>Unprocessed</State>
      <Measures>
        <Measure dwd:design-time-name="d39f33c6-239a-41f3-b392-6c7959252bc1">
          <ID>Quantity</ID>
          <Name>Количество</Name>
          <Source dwd:design-time-name="b5d3e1c8-40eb-40e0-902a-a7e6dc28ac4f">
            <DataType>Integer</DataType>
            <Source xsi:type="ColumnBinding" dwd:design-time-name="6eff74a6-e354-40de-babe-092403fd3f8c">
              <TableID>dbo_vBrillianceAutoRegistration</TableID>
              <ColumnID>Quantity</ColumnID>
            </Source>
          </Source>
        </Measure>
      </Measures>
      <StorageMode>Molap</StorageMode>
      <StorageLocation>F:\OLAP\</StorageLocation>
      <ProcessingMode>Regular</ProcessingMode>
      <Dimensions>
        <Dimension xsi:type="RegularMeasureGroupDimension" dwd:design-time-name="c8221cbc-6964-4a8d-8a23-1bcfd92d8835">
          <CubeDimensionID>Тип кузова</CubeDimensionID>
          <Attributes>
            <Attribute dwd:design-time-name="139fd85c-5a71-4f32-88c0-b294aeab7944">
              <AttributeID>Body Type Key</AttributeID>
              <KeyColumns>
                <KeyColumn dwd:design-time-name="bf9821a6-00a9-4ba0-a530-12f890d29852">
                  <DataType>SmallInt</DataType>
                  <Source xsi:type="ColumnBinding" dwd:design-time-name="1c447543-5855-4182-b43c-f27453d53df5">
                    <TableID>dbo_vBrillianceAutoRegistration</TableID>
                    <ColumnID>BodyTypeKey</ColumnID>
                  </Source>
                </KeyColumn>
              </KeyColumns>
              <Type>Granularity</Type>
            </Attribute>
          </Attributes>
        </Dimension>
        <Dimension xsi:type="RegularMeasureGroupDimension" dwd:design-time-name="8f139346-af2d-4527-bc24-03152de656e2">
          <CubeDimensionID>Еврокласс</CubeDimensionID>
          <Attributes>
            <Attribute dwd:design-time-name="758dccb3-498d-4fee-a172-25ff34d4dcb8">
              <AttributeID>Euro Class Key</AttributeID>
              <KeyColumns>
                <KeyColumn dwd:design-time-name="bf2fcab1-e4f9-42ad-954f-b867fc87c912">
                  <DataType>SmallInt</DataType>
                  <Source xsi:type="ColumnBinding" dwd:design-time-name="f333f3df-fb5e-4442-b7db-a73cc5eaa814">
                    <TableID>dbo_vBrillianceAutoRegistration</TableID>
                    <ColumnID>EuroClassKey</ColumnID>
                  </Source>
                </KeyColumn>
              </KeyColumns>
              <Type>Granularity</Type>
            </Attribute>
          </Attributes>
        </Dimension>
        <Dimension xsi:type="RegularMeasureGroupDimension" dwd:design-time-name="10242b61-3e83-4e09-a008-1025f63dd1c8">
          <CubeDimensionID>Тип топлива</CubeDimensionID>
          <Attributes>
            <Attribute dwd:design-time-name="b3bcfe21-b3b5-45a8-b07e-1ce2ebf5260d">
              <AttributeID>Fuel Type Key</AttributeID>
              <KeyColumns>
                <KeyColumn dwd:design-time-name="c45fe21e-38d5-444f-bce6-273ea08871b2">
                  <DataType>SmallInt</DataType>
                  <Source xsi:type="ColumnBinding" dwd:design-time-name="4c3b70a5-464c-4b01-82ae-80c6c02f5d8a">
                    <TableID>dbo_vBrillianceAutoRegistration</TableID>
                    <ColumnID>FuelTypeKey</ColumnID>
                  </Source>
                </KeyColumn>
              </KeyColumns>
              <Type>Granularity</Type>
            </Attribute>
          </Attributes>
        </Dimension>
        <Dimension xsi:type="RegularMeasureGroupDimension" dwd:design-time-name="752bb9ff-6b46-4bdd-a900-6e3495048f7e">
          <CubeDimensionID>География</CubeDimensionID>
          <Attributes>
            <Attribute dwd:design-time-name="cc4343bd-33e6-438b-8829-553530f7d88b">
              <AttributeID>Geography Key</AttributeID>
              <KeyColumns>
                <KeyColumn dwd:design-time-name="74c96003-2774-4caf-8c0b-144922d1539a">
                  <DataType>Integer</DataType>
                  <Source xsi:type="ColumnBinding" dwd:design-time-name="db472342-dbeb-47a5-8a1e-9aac8ea0845a">
                    <TableID>dbo_vBrillianceAutoRegistration</TableID>
                    <ColumnID>GeographyKey</ColumnID>
                  </Source>
                </KeyColumn>
              </KeyColumns>
              <Type>Granularity</Type>
            </Attribute>
          </Attributes>
        </Dimension>
        <Dimension xsi:type="RegularMeasureGroupDimension" dwd:design-time-name="5af57ce0-e9b8-40cf-844f-c651f21237e2">
          <CubeDimensionID>Модели</CubeDimensionID>
          <Attributes>
            <Attribute dwd:design-time-name="b20e1f53-75ae-410e-bca2-4f89b88c3fa7">
              <AttributeID>Model Key</AttributeID>
              <KeyColumns>
                <KeyColumn dwd:design-time-name="e00d92bc-7225-43bf-be53-c9f71996f699">
                  <DataType>Integer</DataType>
                  <Source xsi:type="ColumnBinding" dwd:design-time-name="7f128712-e9f2-4439-bc8a-4943e4c3dca1">
                    <TableID>dbo_vBrillianceAutoRegistration</TableID>
                    <ColumnID>ModelKey</ColumnID>
                  </Source>
                </KeyColumn>
              </KeyColumns>
              <Type>Granularity</Type>
            </Attribute>
          </Attributes>
        </Dimension>
        <Dimension xsi:type="RegularMeasureGroupDimension" dwd:design-time-name="46499c7b-ef57-49af-b3c5-25c64fba3c6c">
          <CubeDimensionID>Место производства</CubeDimensionID>
          <Attributes>
            <Attribute dwd:design-time-name="3f0c034d-0cf3-43e8-b647-323c4e07243d">
              <AttributeID>Origin Key</AttributeID>
              <KeyColumns>
                <KeyColumn dwd:design-time-name="12dd73d3-cd7b-4329-893e-3ba30a21657a">
                  <DataType>SmallInt</DataType>
                  <Source xsi:type="ColumnBinding" dwd:design-time-name="642d7ba4-f342-4fbb-8a50-ca9390d296da">
                    <TableID>dbo_vBrillianceAutoRegistration</TableID>
                    <ColumnID>OriginKey</ColumnID>
                  </Source>
                </KeyColumn>
              </KeyColumns>
              <Type>Granularity</Type>
            </Attribute>
          </Attributes>
        </Dimension>
        <Dimension xsi:type="RegularMeasureGroupDimension" dwd:design-time-name="dd21ea46-3a8c-4826-9bf7-6fbc620ce8af">
          <CubeDimensionID>Тип владельца</CubeDimensionID>
          <Attributes>
            <Attribute dwd:design-time-name="850976f7-8788-4a5c-87bd-b8e3581a3176">
              <AttributeID>Owner Type Key</AttributeID>
              <KeyColumns>
                <KeyColumn dwd:design-time-name="0e6f1316-ce86-4c6b-85b2-eada5f21fe45">
                  <DataType>SmallInt</DataType>
                  <Source xsi:type="ColumnBinding" dwd:design-time-name="7e67710d-f5d1-4b42-83b2-8f44ddb31893">
                    <TableID>dbo_vBrillianceAutoRegistration</TableID>
                    <ColumnID>OwnerTypeKey</ColumnID>
                  </Source>
                </KeyColumn>
              </KeyColumns>
              <Type>Granularity</Type>
            </Attribute>
          </Attributes>
        </Dimension>
        <Dimension xsi:type="RegularMeasureGroupDimension" dwd:design-time-name="6b5ae696-f2b5-431c-b51d-cea09387d38c">
          <CubeDimensionID>Год выпуска</CubeDimensionID>
          <Attributes>
            <Attribute dwd:design-time-name="6e341c7c-5163-4bb0-aa41-cd60e28b99bd">
              <AttributeID>Prod Year Key</AttributeID>
              <KeyColumns>
                <KeyColumn dwd:design-time-name="1f778ada-726f-4174-9e6b-eab5f5e1263a">
                  <DataType>Integer</DataType>
                  <Source xsi:type="ColumnBinding" dwd:design-time-name="befdab02-5e94-418a-b8ac-5123d7ca38b0">
                    <TableID>dbo_vBrillianceAutoRegistration</TableID>
                    <ColumnID>ProdYearKey</ColumnID>
                  </Source>
                </KeyColumn>
              </KeyColumns>
              <Type>Granularity</Type>
            </Attribute>
          </Attributes>
        </Dimension>
        <Dimension xsi:type="RegularMeasureGroupDimension" dwd:design-time-name="e056518d-7ac0-4f8b-92fd-f474770f39b8">
          <CubeDimensionID>Календарь</CubeDimensionID>
          <Attributes>
            <Attribute dwd:design-time-name="6716bd97-6e60-498c-af9e-34717db4aac9">
              <AttributeID>Date Key</AttributeID>
              <KeyColumns>
                <KeyColumn dwd:design-time-name="7b5df448-33d4-45f9-9049-61f2d55c059c">
                  <DataType>Integer</DataType>
                  <Source xsi:type="ColumnBinding" dwd:design-time-name="99626cc3-d343-42e2-92da-f0627572f6b0">
                    <TableID>dbo_vBrillianceAutoRegistration</TableID>
                    <ColumnID>RegistrationDateKey</ColumnID>
                  </Source>
                </KeyColumn>
              </KeyColumns>
              <Type>Granularity</Type>
            </Attribute>
          </Attributes>
        </Dimension>
        <Dimension xsi:type="RegularMeasureGroupDimension" dwd:design-time-name="c4df1af4-2693-48c9-b5fb-487e33f8de69">
          <CubeDimensionID>Тип регистрации</CubeDimensionID>
          <Attributes>
            <Attribute dwd:design-time-name="e83ec288-7e60-4412-8498-ccb80dbcb5a3">
              <AttributeID>Registration Type Key</AttributeID>
              <KeyColumns>
                <KeyColumn dwd:design-time-name="909a59b9-c8d3-4f7a-ac14-98fb68bb7f27">
                  <DataType>SmallInt</DataType>
                  <Source xsi:type="ColumnBinding" dwd:design-time-name="3f32a054-3a49-4640-8ffb-d172245a6547">
                    <TableID>dbo_vBrillianceAutoRegistration</TableID>
                    <ColumnID>RegistrationTypeKey</ColumnID>
                  </Source>
                </KeyColumn>
              </KeyColumns>
              <Type>Granularity</Type>
            </Attribute>
          </Attributes>
        </Dimension>
        <Dimension xsi:type="RegularMeasureGroupDimension" dwd:design-time-name="6f41c072-aedc-4998-8d85-c35eac4a789b">
          <CubeDimensionID>Сегменты</CubeDimensionID>
          <Attributes>
            <Attribute dwd:design-time-name="da427d6b-c121-4e06-af95-041a2110b76d">
              <AttributeID>Model Key</AttributeID>
              <KeyColumns>
                <KeyColumn dwd:design-time-name="0391cdca-e5dc-4c67-a5bf-22680c62014c">
                  <DataType>Integer</DataType>
                  <Source xsi:type="ColumnBinding" dwd:design-time-name="3188abe8-0942-46a4-a96f-2f5e449f3ddd">
                    <TableID>dbo_vBrillianceAutoRegistration</TableID>
                    <ColumnID>ModelKey</ColumnID>
                  </Source>
                </KeyColumn>
              </KeyColumns>
              <Type>Granularity</Type>
            </Attribute>
          </Attributes>
        </Dimension>
        <Dimension xsi:type="RegularMeasureGroupDimension" dwd:design-time-name="a3b3171e-5e1b-4263-87d0-0bdab6ac0470">
          <CubeDimensionID>Тип ТС</CubeDimensionID>
          <Attributes>
            <Attribute dwd:design-time-name="6a17a7b5-0ec3-4089-9c1d-b4c5a3684260">
              <AttributeID>Model Key</AttributeID>
              <KeyColumns>
                <KeyColumn dwd:design-time-name="86c21de8-f4c3-44e9-b6b4-46bae433c915">
                  <DataType>Integer</DataType>
                  <Source xsi:type="ColumnBinding" dwd:design-time-name="cb5eccc3-3494-4fb4-9295-ef22592f331f">
                    <TableID>dbo_vBrillianceAutoRegistration</TableID>
                    <ColumnID>ModelKey</ColumnID>
                  </Source>
                </KeyColumn>
              </KeyColumns>
              <Type>Granularity</Type>
            </Attribute>
          </Attributes>
        </Dimension>
      </Dimensions>
      <Partitions />
    </MeasureGroup>
  </MeasureGroups>
  <Source dwd:design-time-name="03abc3b3-27b7-4368-b001-08da9f490cd2">
    <DataSourceViewID>Autostat DW New</DataSourceViewID>
  </Source>
  <MdxScripts>
    <MdxScript dwd:design-time-name="2cc8b8d7-61b1-4aba-871c-9667f53b58f8">
      <ID>MdxScript</ID>
      <Name>MdxScript</Name>
      <CreatedTimestamp>0001-01-01T00:00:00Z</CreatedTimestamp>
      <LastSchemaUpdate>0001-01-01T00:00:00Z</LastSchemaUpdate>
      <Commands>
        <Command>
          <Text>/*
The CALCULATE command controls the aggregation of leaf cells in the cube.
If the CALCULATE command is deleted or modified, the data within the cube is affected.
You should edit this command only if you manually specify how the cube is aggregated.
*/
CALCULATE; 
CREATE MEMBER CURRENTCUBE.[Measures].[Кол-во АППГ]
 AS (ParallelPeriod ([Календарь].[Год-Месяц].[Год] , 1, [Календарь].[Год-Месяц].CurrentMember), [Measures].[Количество]), 
VISIBLE = 1 ,  ASSOCIATED_MEASURE_GROUP = 'Регистрация'  ; 
CREATE MEMBER CURRENTCUBE.[Measures].[Кол-во с НГ]
 AS Aggregate(
        PeriodsToDate(
            [Календарь].[Год-Месяц].[Год], 
            [Календарь].[Год-Месяц].CurrentMember)
,	[Measures].[Количество]), 
VISIBLE = 1 ,  ASSOCIATED_MEASURE_GROUP = 'Регистрация'  ; 
CREATE MEMBER CURRENTCUBE.[Measures].[Кол-во с НГ АППГ]
 AS Aggregate(
        PeriodsToDate(
            [Календарь].[Год-Месяц].[Год], 
            ParallelPeriod( [Календарь].[Год-Месяц].[Год], 1, [Календарь].[Год-Месяц].CurrentMember))
,	[Measures].[Количество]), 
VISIBLE = 1 ,  ASSOCIATED_MEASURE_GROUP = 'Регистрация'  ; 
CREATE MEMBER CURRENTCUBE.[Measures].[Разница АППГ]
 AS [Measures].[Количество] - [Measures].[Кол-во АППГ], 
VISIBLE = 1 ,  ASSOCIATED_MEASURE_GROUP = 'Регистрация'  ; 
CREATE MEMBER CURRENTCUBE.[Measures].[Разница НГ АППГ]
 AS [Measures].[Кол-во с НГ] - [Measures].[Кол-во с НГ АППГ], 
VISIBLE = 1 ,  ASSOCIATED_MEASURE_GROUP = 'Регистрация'  ; 
CREATE MEMBER CURRENTCUBE.[Measures].[% за год]
 AS Round(([Календарь].[Год-Месяц].CurrentMember, [Measures].[Количество])/([Календарь].[Год-Месяц].CurrentMember.Parent, [Measures].[Количество])*100), 
VISIBLE = 1 ,  ASSOCIATED_MEASURE_GROUP = 'Регистрация'  ; 
CREATE MEMBER CURRENTCUBE.[Measures].[% за год АППГ]
 AS Round(([Календарь].[Год-Месяц].CurrentMember.Lag(12), [Measures].[Количество])/([Календарь].[Год-Месяц].CurrentMember.Lag(12).Parent, [Measures].[Количество])*100), 
VISIBLE = 1 ,  ASSOCIATED_MEASURE_GROUP = 'Регистрация'  ; 
CREATE MEMBER CURRENTCUBE.[Measures].[% АППГ]
 AS Round([Measures].[Количество]/(ParallelPeriod ([Календарь].[Год-Месяц].[Год] , 1, [Календарь].[Год-Месяц].CurrentMember), [Measures].[Количество])*100), 
VISIBLE = 1 ,  ASSOCIATED_MEASURE_GROUP = 'Регистрация'  ; 
CREATE MEMBER CURRENTCUBE.[Measures].[% НГ АППГ]
 AS Round(([Measures].[Кол-во с НГ]/[Measures].[Кол-во с НГ АППГ])*100), 
VISIBLE = 1 ,  ASSOCIATED_MEASURE_GROUP = 'Регистрация'  ; </Text>
        </Command>
      </Commands>
    </MdxScript>
  </MdxScripts>
  <StorageLocation>F:\OLAP\</StorageLocation>
</Cube>