﻿<Cube xmlns:xsd="http://www.w3.org/2001/XMLSchema" xmlns:xsi="http://www.w3.org/2001/XMLSchema-instance" xmlns:ddl2="http://schemas.microsoft.com/analysisservices/2003/engine/2" xmlns:ddl2_2="http://schemas.microsoft.com/analysisservices/2003/engine/2/2" xmlns:ddl100_100="http://schemas.microsoft.com/analysisservices/2008/engine/100/100" xmlns:ddl200="http://schemas.microsoft.com/analysisservices/2010/engine/200" xmlns:ddl200_200="http://schemas.microsoft.com/analysisservices/2010/engine/200/200" xmlns:ddl300="http://schemas.microsoft.com/analysisservices/2011/engine/300" xmlns:ddl300_300="http://schemas.microsoft.com/analysisservices/2011/engine/300/300" xmlns:ddl400="http://schemas.microsoft.com/analysisservices/2012/engine/400" xmlns:ddl400_400="http://schemas.microsoft.com/analysisservices/2012/engine/400/400" xmlns:dwd="http://schemas.microsoft.com/DataWarehouse/Designer/1.0" dwd:design-time-name="e7864572-2121-4147-b1ca-e6fbfd46f362" xmlns="http://schemas.microsoft.com/analysisservices/2003/engine">
  <ID>AEB</ID>
  <Name>AEB</Name>
  <CreatedTimestamp>0001-01-01T00:00:00Z</CreatedTimestamp>
  <LastSchemaUpdate>0001-01-01T00:00:00Z</LastSchemaUpdate>
  <Annotations>
    <Annotation>
      <Name>http://schemas.microsoft.com/DataWarehouse/Designer/1.0:DiagramLayout</Name>
      <Value>
        <dds xmlns="">
          <diagram fontclsid="{0BE35203-8F91-11CE-9DE3-00AA004BB851}" mouseiconclsid="{0BE35204-8F91-11CE-9DE3-00AA004BB851}" defaultlayout="MSDDS.Rectilinear" defaultlineroute="MSDDS.Rectilinear" version="7" nextobject="61" scale="100" pagebreakanchorx="0" pagebreakanchory="0" pagebreaksizex="0" pagebreaksizey="0" scrollleft="-1975" scrolltop="-2783" gridx="150" gridy="150" marginx="5000" marginy="5000" zoom="75" x="19817" y="12753" backcolor="15334399" defaultpersistence="2" PrintPageNumbersMode="3" PrintMarginTop="0" PrintMarginBottom="635" PrintMarginLeft="0" PrintMarginRight="0" marqueeselectionmode="0" mousepointer="0" snaptogrid="0" autotypeannotation="1" showscrollbars="1" viewpagebreaks="0" donotforceconnectorsbehindshapes="1" backpictureclsid="{00000000-0000-0000-0000-000000000000}">
            <font>
              <ddsxmlobjectstreamwrapper binary="01cc0000900144420100065461686f6d61" />
            </font>
            <mouseicon>
              <ddsxmlobjectstreamwrapper binary="6c74000000000000" />
            </mouseicon>
          </diagram>
          <layoutmanager>
            <ddsxmlobj />
          </layoutmanager>
          <ddscontrol controlprogid="DdsShapes.DdsObjectManagedBridge.3" tooltip="DimGeographyAeb" left="8930" top="6627" logicalid="26" controlid="1" masterid="0" hint1="0" hint2="0" width="3572" height="4419" noresize="0" nomove="0" nodefaultattachpoints="0" autodrag="1" usedefaultiddshape="1" selectable="1" showselectionhandles="1" allownudging="1" isannotation="0" dontautolayout="0" groupcollapsed="0" tabstop="1" visible="1" snaptogrid="0">
            <control>
              <ddsxmlobjectstreaminitwrapper binary="00080000f40d000043110000" />
            </control>
            <layoutobject>
              <ddsxmlobj>
                <property name="LogicalObject" value="dbo_DimGeographyAeb" vartype="8" />
              </ddsxmlobj>
            </layoutobject>
            <shape groupshapeid="0" groupnode="0" />
          </ddscontrol>
          <ddscontrol controlprogid="DdsShapes.DdsObjectManagedBridge.3" tooltip="DimDateDetail" left="14791" top="2817" logicalid="27" controlid="2" masterid="0" hint1="0" hint2="0" width="4260" height="5000" noresize="0" nomove="0" nodefaultattachpoints="0" autodrag="1" usedefaultiddshape="1" selectable="1" showselectionhandles="1" allownudging="1" isannotation="0" dontautolayout="0" groupcollapsed="0" tabstop="1" visible="1" snaptogrid="0">
            <control>
              <ddsxmlobjectstreaminitwrapper binary="00080000a410000088130000" />
            </control>
            <layoutobject>
              <ddsxmlobj>
                <property name="LogicalObject" value="dbo_DimDateDetail" vartype="8" />
              </ddsxmlobj>
            </layoutobject>
            <shape groupshapeid="0" groupnode="0" />
          </ddscontrol>
          <ddscontrol controlprogid="DdsShapes.DdsObjectManagedBridge.3" tooltip="CalendarAEB" left="17860" top="8765" logicalid="28" controlid="3" masterid="0" hint1="0" hint2="0" width="4260" height="5000" noresize="0" nomove="0" nodefaultattachpoints="0" autodrag="1" usedefaultiddshape="1" selectable="1" showselectionhandles="1" allownudging="1" isannotation="0" dontautolayout="0" groupcollapsed="0" tabstop="1" visible="1" snaptogrid="0">
            <control>
              <ddsxmlobjectstreaminitwrapper binary="00080000a410000088130000" />
            </control>
            <layoutobject>
              <ddsxmlobj>
                <property name="LogicalObject" value="CalendarAEB" vartype="8" />
              </ddsxmlobj>
            </layoutobject>
            <shape groupshapeid="0" groupnode="0" />
          </ddscontrol>
          <ddscontrol controlprogid="MSDDS.Polyline" left="13385" top="5567" logicalid="29" controlid="4" masterid="0" hint1="0" hint2="0" width="4775" height="3898" noresize="0" nomove="0" nodefaultattachpoints="1" autodrag="0" usedefaultiddshape="0" selectable="1" showselectionhandles="0" allownudging="1" isannotation="0" dontautolayout="0" groupcollapsed="0" tabstop="1" visible="1" snaptogrid="0">
            <control>
              <ddsxmlobj>
                <polyline endtypedst="6" endtypesrc="3" usercolor="0" linestyle="0" linerender="1" customendtypedstid="0" customendtypesrcid="0" adornsvisible="1" />
              </ddsxmlobj>
            </control>
            <layoutobject>
              <ddsxmlobj>
                <property name="LogicalObject" value="dataSet.Relations[DimDateDetail-CalendarAEB]" vartype="8" />
                <property name="Virtual" value="0" vartype="11" />
                <property name="VisibleAP" value="0" vartype="3" />
              </ddsxmlobj>
            </layoutobject>
            <connector lineroutestyle="MSDDS.Rectilinear" sourceid="3" destid="2" sourceattachpoint="14" destattachpoint="24" segmenteditmode="0" bendpointeditmode="0" bendpointvisibility="0" relatedid="0" virtual="0">
              <point x="17860" y="9065" />
              <point x="13685" y="9065" />
              <point x="13685" y="5867" />
              <point x="14791" y="5867" />
            </connector>
          </ddscontrol>
          <ddscontrol controlprogid="DdsShapes.DdsObjectManagedBridge.3" tooltip="DimBrandAeb" left="4500" top="3148" logicalid="30" controlid="5" masterid="0" hint1="0" hint2="0" width="3000" height="3149" noresize="0" nomove="0" nodefaultattachpoints="0" autodrag="1" usedefaultiddshape="1" selectable="1" showselectionhandles="1" allownudging="1" isannotation="0" dontautolayout="0" groupcollapsed="0" tabstop="1" visible="1" snaptogrid="0">
            <control>
              <ddsxmlobjectstreaminitwrapper binary="00080000b80b00004d0c0000" />
            </control>
            <layoutobject>
              <ddsxmlobj>
                <property name="LogicalObject" value="dbo_DimBrandAeb" vartype="8" />
              </ddsxmlobj>
            </layoutobject>
            <shape groupshapeid="0" groupnode="0" />
          </ddscontrol>
          <ddscontrol controlprogid="DdsShapes.DdsObjectManagedBridge.3" tooltip="DimModelAeb" left="13183" top="15730" logicalid="31" controlid="6" masterid="0" hint1="0" hint2="0" width="4366" height="5000" noresize="0" nomove="0" nodefaultattachpoints="0" autodrag="1" usedefaultiddshape="1" selectable="1" showselectionhandles="1" allownudging="1" isannotation="0" dontautolayout="0" groupcollapsed="0" tabstop="1" visible="1" snaptogrid="0">
            <control>
              <ddsxmlobjectstreaminitwrapper binary="000800000e11000088130000" />
            </control>
            <layoutobject>
              <ddsxmlobj>
                <property name="LogicalObject" value="dbo_DimModelAeb" vartype="8" />
              </ddsxmlobj>
            </layoutobject>
            <shape groupshapeid="0" groupnode="0" />
          </ddscontrol>
          <ddscontrol controlprogid="DdsShapes.DdsObjectManagedBridge.3" tooltip="FactAebGR" left="3704" top="-1940" logicalid="33" controlid="8" masterid="0" hint1="0" hint2="0" width="3000" height="2725" noresize="0" nomove="0" nodefaultattachpoints="0" autodrag="1" usedefaultiddshape="1" selectable="1" showselectionhandles="1" allownudging="1" isannotation="0" dontautolayout="0" groupcollapsed="0" tabstop="1" visible="1" snaptogrid="0">
            <control>
              <ddsxmlobjectstreaminitwrapper binary="00080000b80b0000a50a0000" />
            </control>
            <layoutobject>
              <ddsxmlobj>
                <property name="LogicalObject" value="dbo_FactAebGR" vartype="8" />
              </ddsxmlobj>
            </layoutobject>
            <shape groupshapeid="0" groupnode="0" />
          </ddscontrol>
          <ddscontrol controlprogid="DdsShapes.DdsObjectManagedBridge.3" tooltip="FactAebPrice" left="2434" top="4312" logicalid="36" controlid="11" masterid="0" hint1="0" hint2="0" width="3000" height="2725" noresize="0" nomove="0" nodefaultattachpoints="0" autodrag="1" usedefaultiddshape="1" selectable="1" showselectionhandles="1" allownudging="1" isannotation="0" dontautolayout="0" groupcollapsed="0" tabstop="1" visible="1" snaptogrid="0">
            <control>
              <ddsxmlobjectstreaminitwrapper binary="00080000b80b0000a50a0000" />
            </control>
            <layoutobject>
              <ddsxmlobj>
                <property name="LogicalObject" value="dbo_FactAebPrice" vartype="8" />
              </ddsxmlobj>
            </layoutobject>
            <shape groupshapeid="0" groupnode="0" />
          </ddscontrol>
          <ddscontrol controlprogid="DdsShapes.DdsObjectManagedBridge.3" tooltip="FactAebRegional" left="11166" top="-1834" logicalid="39" controlid="14" masterid="0" hint1="0" hint2="0" width="3572" height="3149" noresize="0" nomove="0" nodefaultattachpoints="0" autodrag="1" usedefaultiddshape="1" selectable="1" showselectionhandles="1" allownudging="1" isannotation="0" dontautolayout="0" groupcollapsed="0" tabstop="1" visible="1" snaptogrid="0">
            <control>
              <ddsxmlobjectstreaminitwrapper binary="00080000f40d00004d0c0000" />
            </control>
            <layoutobject>
              <ddsxmlobj>
                <property name="LogicalObject" value="dbo_FactAebRegional" vartype="8" />
              </ddsxmlobj>
            </layoutobject>
            <shape groupshapeid="0" groupnode="0" />
          </ddscontrol>
          <ddscontrol controlprogid="DdsShapes.DdsObjectManagedBridge.3" tooltip="FactAebRegionalDetail" left="-670" top="9922" logicalid="43" controlid="18" masterid="0" hint1="0" hint2="0" width="3969" height="3149" noresize="0" nomove="0" nodefaultattachpoints="0" autodrag="1" usedefaultiddshape="1" selectable="1" showselectionhandles="1" allownudging="1" isannotation="0" dontautolayout="0" groupcollapsed="0" tabstop="1" visible="1" snaptogrid="0">
            <control>
              <ddsxmlobjectstreaminitwrapper binary="00080000810f00004d0c0000" />
            </control>
            <layoutobject>
              <ddsxmlobj>
                <property name="LogicalObject" value="dbo_FactAebRegionalDetail" vartype="8" />
              </ddsxmlobj>
            </layoutobject>
            <shape groupshapeid="0" groupnode="0" />
          </ddscontrol>
          <ddscontrol controlprogid="DdsShapes.DdsObjectManagedBridge.3" tooltip="DimOrigin" left="8132" top="11588" logicalid="47" controlid="22" masterid="0" hint1="0" hint2="0" width="4092" height="2787" noresize="0" nomove="0" nodefaultattachpoints="0" autodrag="1" usedefaultiddshape="1" selectable="1" showselectionhandles="1" allownudging="1" isannotation="0" dontautolayout="0" groupcollapsed="0" tabstop="1" visible="1" snaptogrid="0">
            <control>
              <ddsxmlobjectstreaminitwrapper binary="00080000fc0f0000e30a0000" />
            </control>
            <layoutobject>
              <ddsxmlobj>
                <property name="LogicalObject" value="dbo_DimOrigin" vartype="8" />
              </ddsxmlobj>
            </layoutobject>
            <shape groupshapeid="0" groupnode="0" />
          </ddscontrol>
          <ddscontrol controlprogid="DdsShapes.DdsObjectManagedBridge.3" tooltip="vFactAebPrice" left="-988" top="141" logicalid="50" controlid="25" masterid="0" hint1="0" hint2="0" width="3352" height="2787" noresize="0" nomove="0" nodefaultattachpoints="0" autodrag="1" usedefaultiddshape="1" selectable="1" showselectionhandles="1" allownudging="1" isannotation="0" dontautolayout="0" groupcollapsed="0" tabstop="1" visible="1" snaptogrid="0">
            <control>
              <ddsxmlobjectstreaminitwrapper binary="00080000180d0000e30a0000" />
            </control>
            <layoutobject>
              <ddsxmlobj>
                <property name="LogicalObject" value="dbo_vFactAebPrice" vartype="8" />
              </ddsxmlobj>
            </layoutobject>
            <shape groupshapeid="0" groupnode="0" />
          </ddscontrol>
          <ddscontrol controlprogid="MSDDS.Polyline" left="2999" top="12296" logicalid="52" controlid="27" masterid="0" hint1="0" hint2="0" width="10484" height="4134" noresize="0" nomove="0" nodefaultattachpoints="1" autodrag="0" usedefaultiddshape="0" selectable="1" showselectionhandles="0" allownudging="1" isannotation="0" dontautolayout="0" groupcollapsed="0" tabstop="1" visible="1" snaptogrid="0">
            <control>
              <ddsxmlobj>
                <polyline endtypedst="6" endtypesrc="3" usercolor="0" linestyle="0" linerender="1" customendtypedstid="0" customendtypesrcid="0" adornsvisible="1" />
              </ddsxmlobj>
            </control>
            <layoutobject>
              <ddsxmlobj>
                <property name="LogicalObject" value="dataSet.Relations[FK_FactAebRegionalDetail_DimModelAeb]" vartype="8" />
                <property name="Virtual" value="0" vartype="11" />
                <property name="VisibleAP" value="0" vartype="3" />
              </ddsxmlobj>
            </layoutobject>
            <connector lineroutestyle="MSDDS.Rectilinear" sourceid="6" destid="18" sourceattachpoint="14" destattachpoint="23" segmenteditmode="0" bendpointeditmode="0" bendpointvisibility="0" relatedid="0" virtual="0">
              <point x="13183" y="16030" />
              <point x="8241" y="16030" />
              <point x="8241" y="12596" />
              <point x="3299" y="12596" />
            </connector>
          </ddscontrol>
          <ddscontrol controlprogid="MSDDS.Polyline" left="2999" top="10087" logicalid="53" controlid="28" masterid="0" hint1="0" hint2="0" width="6231" height="799" noresize="0" nomove="0" nodefaultattachpoints="1" autodrag="0" usedefaultiddshape="0" selectable="1" showselectionhandles="0" allownudging="1" isannotation="0" dontautolayout="0" groupcollapsed="0" tabstop="1" visible="1" snaptogrid="0">
            <control>
              <ddsxmlobj>
                <polyline endtypedst="6" endtypesrc="3" usercolor="0" linestyle="0" linerender="1" customendtypedstid="0" customendtypesrcid="0" adornsvisible="1" />
              </ddsxmlobj>
            </control>
            <layoutobject>
              <ddsxmlobj>
                <property name="LogicalObject" value="dataSet.Relations[FK_FactAebRegionalDetail_DimGeographyAeb]" vartype="8" />
                <property name="Virtual" value="0" vartype="11" />
                <property name="VisibleAP" value="0" vartype="3" />
              </ddsxmlobj>
            </layoutobject>
            <connector lineroutestyle="MSDDS.Rectilinear" sourceid="1" destid="18" sourceattachpoint="26" destattachpoint="15" segmenteditmode="0" bendpointeditmode="0" bendpointvisibility="0" relatedid="0" virtual="0">
              <point x="8930" y="10486" />
              <point x="6115" y="10486" />
              <point x="6115" y="10396" />
              <point x="3299" y="10396" />
            </connector>
          </ddscontrol>
          <ddscontrol controlprogid="MSDDS.Polyline" left="10867" top="1015" logicalid="54" controlid="29" masterid="0" hint1="0" hint2="0" width="799" height="6112" noresize="0" nomove="0" nodefaultattachpoints="1" autodrag="0" usedefaultiddshape="0" selectable="1" showselectionhandles="0" allownudging="1" isannotation="0" dontautolayout="0" groupcollapsed="0" tabstop="1" visible="1" snaptogrid="0">
            <control>
              <ddsxmlobj>
                <polyline endtypedst="6" endtypesrc="3" usercolor="0" linestyle="0" linerender="1" customendtypedstid="0" customendtypesrcid="0" adornsvisible="1" />
              </ddsxmlobj>
            </control>
            <layoutobject>
              <ddsxmlobj>
                <property name="LogicalObject" value="dataSet.Relations[FK_FactAebRegional_DimGeographyAeb]" vartype="8" />
                <property name="Virtual" value="0" vartype="11" />
                <property name="VisibleAP" value="0" vartype="3" />
              </ddsxmlobj>
            </layoutobject>
            <connector lineroutestyle="MSDDS.Rectilinear" sourceid="1" destid="14" sourceattachpoint="8" destattachpoint="1" segmenteditmode="0" bendpointeditmode="0" bendpointvisibility="0" relatedid="0" virtual="0">
              <point x="11266" y="6627" />
              <point x="11266" y="3971" />
              <point x="11302" y="3971" />
              <point x="11302" y="1315" />
            </connector>
          </ddscontrol>
          <ddscontrol controlprogid="MSDDS.Polyline" left="7200" top="540" logicalid="55" controlid="30" masterid="0" hint1="0" hint2="0" width="4266" height="3482" noresize="0" nomove="0" nodefaultattachpoints="1" autodrag="0" usedefaultiddshape="0" selectable="1" showselectionhandles="0" allownudging="1" isannotation="0" dontautolayout="0" groupcollapsed="0" tabstop="1" visible="1" snaptogrid="0">
            <control>
              <ddsxmlobj>
                <polyline endtypedst="6" endtypesrc="3" usercolor="0" linestyle="0" linerender="1" customendtypedstid="0" customendtypesrcid="0" adornsvisible="1" />
              </ddsxmlobj>
            </control>
            <layoutobject>
              <ddsxmlobj>
                <property name="LogicalObject" value="dataSet.Relations[FK_FactAebRegional_DimBrandAeb]" vartype="8" />
                <property name="Virtual" value="0" vartype="11" />
                <property name="VisibleAP" value="0" vartype="3" />
              </ddsxmlobj>
            </layoutobject>
            <connector lineroutestyle="MSDDS.Rectilinear" sourceid="5" destid="14" sourceattachpoint="11" destattachpoint="22" segmenteditmode="0" bendpointeditmode="0" bendpointvisibility="0" relatedid="0" virtual="0">
              <point x="7500" y="3622" />
              <point x="9333" y="3622" />
              <point x="9333" y="840" />
              <point x="11166" y="840" />
            </connector>
          </ddscontrol>
          <ddscontrol controlprogid="MSDDS.Polyline" left="4734" top="6737" logicalid="56" controlid="31" masterid="0" hint1="0" hint2="0" width="9932" height="9493" noresize="0" nomove="0" nodefaultattachpoints="1" autodrag="0" usedefaultiddshape="0" selectable="1" showselectionhandles="0" allownudging="1" isannotation="0" dontautolayout="0" groupcollapsed="0" tabstop="1" visible="1" snaptogrid="0">
            <control>
              <ddsxmlobj>
                <polyline endtypedst="6" endtypesrc="3" usercolor="0" linestyle="0" linerender="1" customendtypedstid="0" customendtypesrcid="0" adornsvisible="1" />
              </ddsxmlobj>
            </control>
            <layoutobject>
              <ddsxmlobj>
                <property name="LogicalObject" value="dataSet.Relations[FK_FactAebPrice_DimModelAeb]" vartype="8" />
                <property name="Virtual" value="0" vartype="11" />
                <property name="VisibleAP" value="0" vartype="3" />
              </ddsxmlobj>
            </layoutobject>
            <connector lineroutestyle="MSDDS.Rectilinear" sourceid="6" destid="11" sourceattachpoint="2" destattachpoint="9" segmenteditmode="0" bendpointeditmode="0" bendpointvisibility="0" relatedid="0" virtual="0">
              <point x="14266" y="15730" />
              <point x="14266" y="11384" />
              <point x="5034" y="11384" />
              <point x="5034" y="7037" />
            </connector>
          </ddscontrol>
          <ddscontrol controlprogid="MSDDS.Polyline" left="6004" top="485" logicalid="57" controlid="32" masterid="0" hint1="0" hint2="0" width="9762" height="15745" noresize="0" nomove="0" nodefaultattachpoints="1" autodrag="0" usedefaultiddshape="0" selectable="1" showselectionhandles="0" allownudging="1" isannotation="0" dontautolayout="0" groupcollapsed="0" tabstop="1" visible="1" snaptogrid="0">
            <control>
              <ddsxmlobj>
                <polyline endtypedst="6" endtypesrc="3" usercolor="0" linestyle="0" linerender="1" customendtypedstid="0" customendtypesrcid="0" adornsvisible="1" />
              </ddsxmlobj>
            </control>
            <layoutobject>
              <ddsxmlobj>
                <property name="LogicalObject" value="dataSet.Relations[FK_FactAebGR_DimModelAeb]" vartype="8" />
                <property name="Virtual" value="0" vartype="11" />
                <property name="VisibleAP" value="0" vartype="3" />
              </ddsxmlobj>
            </layoutobject>
            <connector lineroutestyle="MSDDS.Rectilinear" sourceid="6" destid="8" sourceattachpoint="6" destattachpoint="9" segmenteditmode="0" bendpointeditmode="0" bendpointvisibility="0" relatedid="0" virtual="0">
              <point x="15366" y="15730" />
              <point x="15366" y="8258" />
              <point x="6304" y="8258" />
              <point x="6304" y="785" />
            </connector>
          </ddscontrol>
          <ddscontrol controlprogid="MSDDS.Polyline" left="6151" top="5798" logicalid="58" controlid="33" masterid="0" hint1="0" hint2="0" width="8965" height="10232" noresize="0" nomove="0" nodefaultattachpoints="1" autodrag="0" usedefaultiddshape="0" selectable="1" showselectionhandles="0" allownudging="1" isannotation="0" dontautolayout="0" groupcollapsed="0" tabstop="1" visible="1" snaptogrid="0">
            <control>
              <ddsxmlobj>
                <polyline endtypedst="6" endtypesrc="3" usercolor="0" linestyle="0" linerender="1" customendtypedstid="0" customendtypesrcid="0" adornsvisible="1" />
              </ddsxmlobj>
            </control>
            <layoutobject>
              <ddsxmlobj>
                <property name="LogicalObject" value="dataSet.Relations[FK_DimModelAeb_DimBrandAeb]" vartype="8" />
                <property name="Virtual" value="0" vartype="11" />
                <property name="VisibleAP" value="0" vartype="3" />
              </ddsxmlobj>
            </layoutobject>
            <connector lineroutestyle="MSDDS.Rectilinear" sourceid="5" destid="6" sourceattachpoint="7" destattachpoint="4" segmenteditmode="0" bendpointeditmode="0" bendpointvisibility="0" relatedid="0" virtual="0">
              <point x="6550" y="6297" />
              <point x="6550" y="11013" />
              <point x="14816" y="11013" />
              <point x="14816" y="15730" />
            </connector>
          </ddscontrol>
          <ddscontrol controlprogid="MSDDS.Polyline" left="11429" top="13876" logicalid="59" controlid="34" masterid="0" hint1="0" hint2="0" width="2587" height="2154" noresize="0" nomove="0" nodefaultattachpoints="1" autodrag="0" usedefaultiddshape="0" selectable="1" showselectionhandles="0" allownudging="1" isannotation="0" dontautolayout="0" groupcollapsed="0" tabstop="1" visible="1" snaptogrid="0">
            <control>
              <ddsxmlobj>
                <polyline endtypedst="6" endtypesrc="3" usercolor="0" linestyle="0" linerender="1" customendtypedstid="0" customendtypesrcid="0" adornsvisible="1" />
              </ddsxmlobj>
            </control>
            <layoutobject>
              <ddsxmlobj>
                <property name="LogicalObject" value="dataSet.Relations[FK_DimModelAeb_DimOrigin]" vartype="8" />
                <property name="Virtual" value="0" vartype="11" />
                <property name="VisibleAP" value="0" vartype="3" />
              </ddsxmlobj>
            </layoutobject>
            <connector lineroutestyle="MSDDS.Rectilinear" sourceid="22" destid="6" sourceattachpoint="13" destattachpoint="0" segmenteditmode="0" bendpointeditmode="0" bendpointvisibility="0" relatedid="0" virtual="0">
              <point x="11828" y="14375" />
              <point x="11828" y="15052" />
              <point x="13716" y="15052" />
              <point x="13716" y="15730" />
            </connector>
          </ddscontrol>
          <ddscontrol controlprogid="MSDDS.Polyline" left="6800" top="5997" logicalid="60" controlid="35" masterid="0" hint1="0" hint2="0" width="2128" height="6091" noresize="0" nomove="0" nodefaultattachpoints="1" autodrag="0" usedefaultiddshape="0" selectable="1" showselectionhandles="0" allownudging="1" isannotation="0" dontautolayout="0" groupcollapsed="0" tabstop="1" visible="1" snaptogrid="0">
            <control>
              <ddsxmlobj>
                <polyline endtypedst="6" endtypesrc="3" usercolor="0" linestyle="0" linerender="1" customendtypedstid="0" customendtypesrcid="0" adornsvisible="1" />
              </ddsxmlobj>
            </control>
            <layoutobject>
              <ddsxmlobj>
                <property name="LogicalObject" value="dataSet.Relations[FK_DimBrandAeb_DimOrigin]" vartype="8" />
                <property name="Virtual" value="0" vartype="11" />
                <property name="VisibleAP" value="0" vartype="3" />
              </ddsxmlobj>
            </layoutobject>
            <connector lineroutestyle="MSDDS.Rectilinear" sourceid="22" destid="5" sourceattachpoint="0" destattachpoint="9" segmenteditmode="0" bendpointeditmode="0" bendpointvisibility="0" relatedid="0" virtual="0">
              <point x="8528" y="11588" />
              <point x="8528" y="8943" />
              <point x="7100" y="8943" />
              <point x="7100" y="6297" />
            </connector>
          </ddscontrol>
        </dds>
      </Value>
    </Annotation>
    <Annotation>
      <Name>http://schemas.microsoft.com/DataWarehouse/Designer/1.0:ShowFriendlyNames</Name>
      <Value>true</Value>
    </Annotation>
    <Annotation>
      <Name>http://schemas.microsoft.com/DataWarehouse/Designer/1.0:ShowRelationshipNames</Name>
      <Value>false</Value>
    </Annotation>
    <Annotation>
      <Name>http://schemas.microsoft.com/DataWarehouse/Designer/1.0:UseDiagramDefaultLayout</Name>
      <Value>true</Value>
    </Annotation>
    <Annotation>
      <Name>http://schemas.microsoft.com/DataWarehouse/Designer/1.0:DiagramViewPortLeft</Name>
      <Value>-1975</Value>
    </Annotation>
    <Annotation>
      <Name>http://schemas.microsoft.com/DataWarehouse/Designer/1.0:DiagramViewPortTop</Name>
      <Value>-2783</Value>
    </Annotation>
    <Annotation>
      <Name>http://schemas.microsoft.com/DataWarehouse/Designer/1.0:DiagramBoundingLeft</Name>
      <Value>-988</Value>
    </Annotation>
    <Annotation>
      <Name>http://schemas.microsoft.com/DataWarehouse/Designer/1.0:DiagramBoundingTop</Name>
      <Value>-1940</Value>
    </Annotation>
    <Annotation>
      <Name>http://schemas.microsoft.com/DataWarehouse/Designer/1.0:DiagramZoom</Name>
      <Value>75</Value>
    </Annotation>
  </Annotations>
  <LastProcessed>0001-01-01T00:00:00Z</LastProcessed>
  <State>Unprocessed</State>
  <Dimensions>
    <Dimension dwd:design-time-name="6bbe7f56-fb8e-4bcb-9126-0a1d2f6e1b42">
      <ID>География AEB</ID>
      <Name>География</Name>
      <DimensionID>География Aeb</DimensionID>
      <Attributes>
        <Attribute dwd:design-time-name="3b64a4db-ddd4-4c49-b331-6225d96e0882">
          <AttributeID>Geography Aeb Key</AttributeID>
        </Attribute>
        <Attribute dwd:design-time-name="2a982f81-7a89-4dc3-95ea-ca2bc97bf66e">
          <AttributeID>Area Ru Short Name</AttributeID>
        </Attribute>
        <Attribute dwd:design-time-name="8c7f4bc6-a628-41ad-a1b8-d9f49373cc5b">
          <AttributeID>Region Ru</AttributeID>
        </Attribute>
        <Attribute dwd:design-time-name="a789d191-d76a-459f-af60-2c4196938604">
          <AttributeID>City</AttributeID>
        </Attribute>
      </Attributes>
      <Hierarchies>
        <Hierarchy dwd:design-time-name="24385887-bf41-4c12-bf67-4fdeace54b50">
          <HierarchyID>Hierarchy</HierarchyID>
        </Hierarchy>
      </Hierarchies>
    </Dimension>
    <Dimension dwd:design-time-name="2c0ce197-93ae-45b6-980f-ed85804d8d8a">
      <ID>Календарь AEB</ID>
      <Name>Период</Name>
      <DimensionID>Календарь AEB</DimensionID>
      <Attributes>
        <Attribute dwd:design-time-name="f975fa7f-87ea-4efe-a539-b16e529fa17d">
          <AttributeID>Date Key</AttributeID>
        </Attribute>
        <Attribute dwd:design-time-name="66f0697d-a3fb-4557-bb76-19bd1f9e738c">
          <AttributeID>Calendar Year</AttributeID>
        </Attribute>
        <Attribute dwd:design-time-name="511ba510-fa18-4ed0-9656-391b44136ab1">
          <AttributeID>Month Of Year</AttributeID>
        </Attribute>
      </Attributes>
      <Hierarchies>
        <Hierarchy dwd:design-time-name="70eb99e6-6c9b-4480-8219-f8c6852297fd">
          <HierarchyID>Hierarchy</HierarchyID>
        </Hierarchy>
      </Hierarchies>
    </Dimension>
    <Dimension dwd:design-time-name="ebcf498b-4585-471f-891c-271373d9176f">
      <ID>Марки AEB</ID>
      <Name>Regional Марка</Name>
      <DimensionID>Марки AEB</DimensionID>
      <Attributes>
        <Attribute dwd:design-time-name="b4ddb8c3-8c11-48fd-a0b8-b0d0db179573">
          <AttributeID>Brand Aeb Key</AttributeID>
        </Attribute>
        <Attribute dwd:design-time-name="f8f08385-c7e3-4821-bbe3-695307e26094">
          <AttributeID>Brand</AttributeID>
        </Attribute>
        <Attribute dwd:design-time-name="75940aec-83f3-4322-8fb1-77446709ce87">
          <AttributeID>Brand Korr</AttributeID>
        </Attribute>
      </Attributes>
      <Hierarchies>
        <Hierarchy dwd:design-time-name="4019cb4d-416b-4c20-893c-e49e258ca8f7">
          <HierarchyID>Hierarchy</HierarchyID>
        </Hierarchy>
        <Hierarchy dwd:design-time-name="f6ed154e-51ca-44b0-811c-42dd4f8e3184">
          <HierarchyID>Hierarchy 1</HierarchyID>
        </Hierarchy>
      </Hierarchies>
    </Dimension>
    <Dimension dwd:design-time-name="0cf4176c-9b7a-4a5e-99a4-ba7a07fb46d9">
      <ID>Сегмент Autostat AEB</ID>
      <Name>Сегмент Autostat</Name>
      <DimensionID>Сегмент Autostat AEB</DimensionID>
      <Attributes>
        <Attribute dwd:design-time-name="998e2c1c-3d3a-4f2a-a6e0-64276dd2f857">
          <AttributeID>Model Aeb Key</AttributeID>
        </Attribute>
        <Attribute dwd:design-time-name="c1bacd14-1732-4f91-8fb6-1a9520e647e3">
          <AttributeID>Segment Autostat</AttributeID>
        </Attribute>
        <Attribute dwd:design-time-name="a2a08b31-d23e-4045-a1ea-c86f6137bf93">
          <AttributeID>Subsegment Autostat</AttributeID>
        </Attribute>
      </Attributes>
      <Hierarchies>
        <Hierarchy dwd:design-time-name="2def710d-4921-4c00-b899-cc2325979c83">
          <HierarchyID>Hierarchy</HierarchyID>
        </Hierarchy>
      </Hierarchies>
    </Dimension>
    <Dimension dwd:design-time-name="b5ea6e09-53af-4f28-b5b6-764c5dc6ed9b">
      <ID>Модель AEB</ID>
      <Name>Модель</Name>
      <DimensionID>Модель AEB</DimensionID>
      <Attributes>
        <Attribute dwd:design-time-name="859c9271-01de-47cd-bace-24581f559354">
          <AttributeID>Model Aeb Key</AttributeID>
        </Attribute>
        <Attribute dwd:design-time-name="8a2efc0c-8ae1-45a5-b834-257e0c0369bc">
          <AttributeID>Brand Korr</AttributeID>
        </Attribute>
        <Attribute dwd:design-time-name="6710daf1-4983-43ed-94d3-014011e2c153">
          <AttributeID>Model Korr</AttributeID>
        </Attribute>
        <Attribute dwd:design-time-name="caf0f13d-f8a4-49c0-a226-453b57d4020a">
          <AttributeID>Brand</AttributeID>
        </Attribute>
        <Attribute dwd:design-time-name="5d7bdd13-90a1-490c-89a7-8c5c0c7a7682">
          <AttributeID>Model</AttributeID>
        </Attribute>
        <Attribute dwd:design-time-name="89784ea6-efd1-4aac-bd43-f4eb31bb563a">
          <AttributeID>Brand Model</AttributeID>
        </Attribute>
      </Attributes>
      <Hierarchies>
        <Hierarchy dwd:design-time-name="629542d1-fa1f-4c9e-bd4b-c41ce44a5eb2">
          <HierarchyID>Hierarchy</HierarchyID>
          <Visible>false</Visible>
        </Hierarchy>
        <Hierarchy dwd:design-time-name="1fe92511-46c3-47c4-a825-dfcc82c2386b">
          <HierarchyID>Hierarchy 1</HierarchyID>
        </Hierarchy>
        <Hierarchy dwd:design-time-name="6534b66b-c722-458a-a552-ce3868c38d1b">
          <HierarchyID>Hierarchy 2</HierarchyID>
        </Hierarchy>
      </Hierarchies>
    </Dimension>
    <Dimension dwd:design-time-name="bd8fa2be-d976-4464-b158-6a427919447a">
      <ID>Тип ТС AEB</ID>
      <Name>Тип ТС</Name>
      <DimensionID>Тип ТС AEB</DimensionID>
      <Attributes>
        <Attribute dwd:design-time-name="8639272a-fed6-4269-a5e8-97fdcc1674ec">
          <AttributeID>Model Aeb Key</AttributeID>
        </Attribute>
        <Attribute dwd:design-time-name="bef3d149-3fd1-4850-b6b7-f43b6bf6d08f">
          <AttributeID>Origin Key</AttributeID>
        </Attribute>
        <Attribute dwd:design-time-name="8273aaa4-200d-4567-8215-df9104f1d283">
          <AttributeID>Brand Aeb Key</AttributeID>
        </Attribute>
        <Attribute dwd:design-time-name="057868f6-040a-42fb-9db7-400561b94f03">
          <AttributeID>Type Vehicle Code</AttributeID>
        </Attribute>
      </Attributes>
    </Dimension>
    <Dimension dwd:design-time-name="bf652ab6-75db-4e9d-8af2-18d9295d6e2a">
      <ID>Производство AEB</ID>
      <Name>Производство</Name>
      <DimensionID>Производство AEB</DimensionID>
      <Attributes>
        <Attribute dwd:design-time-name="8796bd01-391d-4d5c-b15a-2c6ebe5a489e">
          <AttributeID>Model Aeb Key</AttributeID>
        </Attribute>
        <Attribute dwd:design-time-name="7739cf1b-ebcf-41d9-b011-379d9beab206">
          <AttributeID>Origin Key</AttributeID>
        </Attribute>
      </Attributes>
    </Dimension>
  </Dimensions>
  <CubePermissions>
    <CubePermission dwd:design-time-name="0fb5c72a-7192-4b63-9861-00e253641986">
      <ID>CubePermission</ID>
      <Name>CubePermission</Name>
      <CreatedTimestamp>0001-01-01T00:00:00Z</CreatedTimestamp>
      <LastSchemaUpdate>0001-01-01T00:00:00Z</LastSchemaUpdate>
      <RoleID>Role</RoleID>
      <ReadSourceData>None</ReadSourceData>
      <DimensionPermissions>
        <DimensionPermission dwd:design-time-name="2fb4eeb5-b806-484a-8ab5-d19ace3e9147">
          <CubeDimensionID>Measures</CubeDimensionID>
          <Read>Allowed</Read>
          <AttributePermissions>
            <AttributePermission dwd:design-time-name="6ed832b8-a709-4453-86d9-97c4500744ed">
              <AttributeID>Measures</AttributeID>
              <AllowedSet>{[Measures].[General количество], [Measures].[Price Dealer], [Measures].[Model Count], [Measures].[vPrice Dealer], [Measures].[vModel Count]}</AllowedSet>
            </AttributePermission>
          </AttributePermissions>
        </DimensionPermission>
        <DimensionPermission dwd:design-time-name="fdfc3816-9aae-4d3e-ba51-a89c568b918b">
          <CubeDimensionID>Марки AEB</CubeDimensionID>
          <Read>Allowed</Read>
          <AttributePermissions>
            <AttributePermission dwd:design-time-name="b74fedc5-84e9-48a3-88db-b6c6d70a4c40">
              <AttributeID>Brand Aeb Key</AttributeID>
              <DeniedSet>{}</DeniedSet>
            </AttributePermission>
            <AttributePermission dwd:design-time-name="f8b69509-35e6-4d7b-bc2b-c5a809b05006">
              <AttributeID>Brand</AttributeID>
              <AllowedSet>{}</AllowedSet>
              <DeniedSet>{}</DeniedSet>
            </AttributePermission>
          </AttributePermissions>
        </DimensionPermission>
        <DimensionPermission dwd:design-time-name="a5f9f3a9-a821-4a40-ba9f-f63207cb9ecd">
          <CubeDimensionID>География AEB</CubeDimensionID>
          <Read>Allowed</Read>
          <AttributePermissions>
            <AttributePermission dwd:design-time-name="1ba80740-ae48-4a2b-8413-57c150c103fe">
              <AttributeID>Geography Aeb Key</AttributeID>
              <AllowedSet>{}</AllowedSet>
              <DeniedSet>{}</DeniedSet>
            </AttributePermission>
            <AttributePermission dwd:design-time-name="14bde52b-6d72-4902-b996-708281d09b1e">
              <AttributeID>Area Ru Short Name</AttributeID>
              <AllowedSet>{}</AllowedSet>
            </AttributePermission>
          </AttributePermissions>
        </DimensionPermission>
      </DimensionPermissions>
    </CubePermission>
    <CubePermission dwd:design-time-name="4ea7615f-51ef-4e81-9560-f45381c61a19">
      <ID>CubePermission 1</ID>
      <Name>CubePermission 1</Name>
      <CreatedTimestamp>0001-01-01T00:00:00Z</CreatedTimestamp>
      <LastSchemaUpdate>0001-01-01T00:00:00Z</LastSchemaUpdate>
      <RoleID>Clients</RoleID>
      <Read>Allowed</Read>
      <ReadSourceData>None</ReadSourceData>
    </CubePermission>
  </CubePermissions>
  <MeasureGroups>
    <MeasureGroup dwd:design-time-name="cf9dd8b3-c1d1-4307-a007-6dd7919415a4">
      <ID>Fact Aeb GR</ID>
      <Name>General</Name>
      <CreatedTimestamp>0001-01-01T00:00:00Z</CreatedTimestamp>
      <LastSchemaUpdate>0001-01-01T00:00:00Z</LastSchemaUpdate>
      <LastProcessed>0001-01-01T00:00:00Z</LastProcessed>
      <State>Unprocessed</State>
      <Measures>
        <Measure dwd:design-time-name="67eec8a8-b3b5-4e26-b5b2-257fb2387c17">
          <ID>Quantity</ID>
          <Name>General количество</Name>
          <Source dwd:design-time-name="702bab8c-51e7-4aa1-875f-712011b7f33f">
            <DataType>Integer</DataType>
            <Source xsi:type="ColumnBinding" dwd:design-time-name="923d2e61-1851-4c67-b08a-47d9db0f74bb">
              <TableID>dbo_FactAebGR</TableID>
              <ColumnID>Quantity</ColumnID>
            </Source>
          </Source>
        </Measure>
      </Measures>
      <StorageMode>Molap</StorageMode>
      <StorageLocation>F:\OLAP\</StorageLocation>
      <ProcessingMode>Regular</ProcessingMode>
      <Dimensions>
        <Dimension xsi:type="RegularMeasureGroupDimension" dwd:design-time-name="6eef0f85-b7f4-4ca8-a0cb-2dfb63751e52">
          <CubeDimensionID>Сегмент Autostat AEB</CubeDimensionID>
          <Attributes>
            <Attribute dwd:design-time-name="c506872f-f010-40fd-afb5-cba9654d7799">
              <AttributeID>Model Aeb Key</AttributeID>
              <KeyColumns>
                <KeyColumn dwd:design-time-name="44cba5e9-fd7c-4d88-9c27-a0a8ae1038ad">
                  <DataType>Integer</DataType>
                  <Source xsi:type="ColumnBinding" dwd:design-time-name="f8aa01ef-103c-46ef-9378-63614f409d79">
                    <TableID>dbo_FactAebGR</TableID>
                    <ColumnID>ModelAebKey</ColumnID>
                  </Source>
                </KeyColumn>
              </KeyColumns>
              <Type>Granularity</Type>
            </Attribute>
          </Attributes>
        </Dimension>
        <Dimension xsi:type="RegularMeasureGroupDimension" dwd:design-time-name="d9981ab5-9eaa-45da-9798-b8d5b867d47b">
          <CubeDimensionID>Календарь AEB</CubeDimensionID>
          <Attributes>
            <Attribute dwd:design-time-name="f03c6ac7-87f3-4efc-946e-f86f2df1d1eb">
              <AttributeID>Date Key</AttributeID>
              <KeyColumns>
                <KeyColumn dwd:design-time-name="ebd26b53-fdb8-49ac-8019-2f490bb49fbf">
                  <DataType>Integer</DataType>
                  <Source xsi:type="ColumnBinding" dwd:design-time-name="df76433b-d65a-4c0f-9e7e-4957dc87d0a7">
                    <TableID>dbo_FactAebGR</TableID>
                    <ColumnID>DateSliceKey</ColumnID>
                  </Source>
                </KeyColumn>
              </KeyColumns>
              <Type>Granularity</Type>
            </Attribute>
          </Attributes>
        </Dimension>
        <Dimension xsi:type="RegularMeasureGroupDimension" dwd:design-time-name="73b44c34-fe87-4ac7-a0de-cc556e4326ab">
          <CubeDimensionID>Модель AEB</CubeDimensionID>
          <Attributes>
            <Attribute dwd:design-time-name="56818291-fc3b-42c5-a453-773fbab0511c">
              <AttributeID>Model Aeb Key</AttributeID>
              <KeyColumns>
                <KeyColumn dwd:design-time-name="29b7005c-747b-40c4-9a03-22360120966c">
                  <DataType>Integer</DataType>
                  <Source xsi:type="ColumnBinding" dwd:design-time-name="ca0902ac-8f45-4888-80b8-e24a06a143b7">
                    <TableID>dbo_FactAebGR</TableID>
                    <ColumnID>ModelAebKey</ColumnID>
                  </Source>
                </KeyColumn>
              </KeyColumns>
              <Type>Granularity</Type>
            </Attribute>
          </Attributes>
        </Dimension>
        <Dimension xsi:type="RegularMeasureGroupDimension" dwd:design-time-name="f7f668c1-ad68-437b-84ca-645db6486f3c">
          <CubeDimensionID>Тип ТС AEB</CubeDimensionID>
          <Attributes>
            <Attribute dwd:design-time-name="ffe75c6f-feb2-4cd2-8c92-f88c5b4bf85e">
              <AttributeID>Model Aeb Key</AttributeID>
              <KeyColumns>
                <KeyColumn dwd:design-time-name="5a22dc11-efcd-460f-83b2-5d4b2079430a">
                  <DataType>Integer</DataType>
                  <Source xsi:type="ColumnBinding" dwd:design-time-name="47ca85fe-38f6-495f-88f9-942b366d2e92">
                    <TableID>dbo_FactAebGR</TableID>
                    <ColumnID>ModelAebKey</ColumnID>
                  </Source>
                </KeyColumn>
              </KeyColumns>
              <Type>Granularity</Type>
            </Attribute>
          </Attributes>
        </Dimension>
        <Dimension xsi:type="RegularMeasureGroupDimension" dwd:design-time-name="3c04511a-a110-4d4e-a35a-812379500f23">
          <CubeDimensionID>Производство AEB</CubeDimensionID>
          <Attributes>
            <Attribute dwd:design-time-name="6baee73d-57d2-4ec7-8b14-a44e2675711c">
              <AttributeID>Model Aeb Key</AttributeID>
              <KeyColumns>
                <KeyColumn dwd:design-time-name="28119d3d-b373-43f9-9378-2169ac0d6e3a">
                  <DataType>Integer</DataType>
                  <Source xsi:type="ColumnBinding" dwd:design-time-name="eabe6113-6382-40dd-a8ca-18f6f1faa65a">
                    <TableID>dbo_FactAebGR</TableID>
                    <ColumnID>ModelAebKey</ColumnID>
                  </Source>
                </KeyColumn>
              </KeyColumns>
              <Type>Granularity</Type>
            </Attribute>
          </Attributes>
        </Dimension>
      </Dimensions>
      <Partitions />
    </MeasureGroup>
    <MeasureGroup dwd:design-time-name="78caf4a8-13be-4034-9edd-c66886cfaca1">
      <ID>Fact Aeb Price</ID>
      <Name>Price</Name>
      <CreatedTimestamp>0001-01-01T00:00:00Z</CreatedTimestamp>
      <LastSchemaUpdate>0001-01-01T00:00:00Z</LastSchemaUpdate>
      <LastProcessed>0001-01-01T00:00:00Z</LastProcessed>
      <State>Unprocessed</State>
      <Measures>
        <Measure dwd:design-time-name="ee40eb6e-aff7-4d03-946d-5ca372a47e4f">
          <ID>Price Dealer</ID>
          <Name>Price Dealer</Name>
          <Source dwd:design-time-name="6531181a-5e80-41b7-bf94-2d92e6634824">
            <DataType>BigInt</DataType>
            <Source xsi:type="ColumnBinding" dwd:design-time-name="ba1ad37e-af80-4c18-b5a6-1d5cfff85520">
              <TableID>dbo_FactAebPrice</TableID>
              <ColumnID>PriceDealer</ColumnID>
            </Source>
          </Source>
        </Measure>
        <Measure dwd:design-time-name="b01cf6a0-757a-4148-98fc-7b4029453c52">
          <ID>Model Aeb Key Count</ID>
          <Name>Model Count</Name>
          <AggregateFunction>Count</AggregateFunction>
          <DataType>Integer</DataType>
          <Source dwd:design-time-name="bd3ab2bf-9991-4289-8a73-d99d88b3d7af">
            <DataType>Integer</DataType>
            <Source xsi:type="ColumnBinding" dwd:design-time-name="84ca52e6-e7ee-4a90-8e79-4e6ddf03b796">
              <TableID>dbo_FactAebPrice</TableID>
              <ColumnID>ModelAebKey</ColumnID>
            </Source>
          </Source>
        </Measure>
      </Measures>
      <StorageMode>Molap</StorageMode>
      <StorageLocation>F:\OLAP\</StorageLocation>
      <ProcessingMode>Regular</ProcessingMode>
      <Dimensions>
        <Dimension xsi:type="RegularMeasureGroupDimension" dwd:design-time-name="6160d955-c2f8-4395-bb16-b8d6f7390d6b">
          <CubeDimensionID>Календарь AEB</CubeDimensionID>
          <Attributes>
            <Attribute dwd:design-time-name="fd579068-ca9b-4e03-b450-305573792ad7">
              <AttributeID>Date Key</AttributeID>
              <KeyColumns>
                <KeyColumn dwd:design-time-name="288ae0c6-ea07-4563-ba49-25c25cf25196">
                  <DataType>Integer</DataType>
                  <Source xsi:type="ColumnBinding" dwd:design-time-name="8c4fca85-5198-4a22-88b6-feee4efa8188">
                    <TableID>dbo_FactAebPrice</TableID>
                    <ColumnID>DateSliceKey</ColumnID>
                  </Source>
                </KeyColumn>
              </KeyColumns>
              <Type>Granularity</Type>
            </Attribute>
          </Attributes>
        </Dimension>
        <Dimension xsi:type="RegularMeasureGroupDimension" dwd:design-time-name="8c115902-6f5b-42c9-8829-ded80778cc35">
          <CubeDimensionID>Сегмент Autostat AEB</CubeDimensionID>
          <Attributes>
            <Attribute dwd:design-time-name="89bc6028-e6c3-4eed-bdb3-3b66a8477fbb">
              <AttributeID>Model Aeb Key</AttributeID>
              <KeyColumns>
                <KeyColumn dwd:design-time-name="ab3722c5-24ec-4ef9-8181-7e2ca4ba70e1">
                  <DataType>Integer</DataType>
                  <Source xsi:type="ColumnBinding" dwd:design-time-name="129cc102-f968-47ee-b9dd-4dc5a9f8a8be">
                    <TableID>dbo_FactAebPrice</TableID>
                    <ColumnID>ModelAebKey</ColumnID>
                  </Source>
                </KeyColumn>
              </KeyColumns>
              <Type>Granularity</Type>
            </Attribute>
          </Attributes>
        </Dimension>
        <Dimension xsi:type="RegularMeasureGroupDimension" dwd:design-time-name="58bdc2ef-e9d6-450d-9773-f524d316159d">
          <CubeDimensionID>Модель AEB</CubeDimensionID>
          <Attributes>
            <Attribute dwd:design-time-name="9ae0ccac-60e2-4add-baac-35f1faa8dc9e">
              <AttributeID>Model Aeb Key</AttributeID>
              <KeyColumns>
                <KeyColumn dwd:design-time-name="b19218a7-b2c7-47f1-8ea1-c828bdaf9ac7">
                  <DataType>Integer</DataType>
                  <Source xsi:type="ColumnBinding" dwd:design-time-name="3e58c199-9a45-4a15-83cd-357fac431d2b">
                    <TableID>dbo_FactAebPrice</TableID>
                    <ColumnID>ModelAebKey</ColumnID>
                  </Source>
                </KeyColumn>
              </KeyColumns>
              <Type>Granularity</Type>
            </Attribute>
          </Attributes>
        </Dimension>
        <Dimension xsi:type="RegularMeasureGroupDimension" dwd:design-time-name="c8685d91-4858-4fdf-90df-e260134c9ead">
          <CubeDimensionID>Тип ТС AEB</CubeDimensionID>
          <Attributes>
            <Attribute dwd:design-time-name="7862d3c0-e854-4fd5-aba1-3659197d8305">
              <AttributeID>Model Aeb Key</AttributeID>
              <KeyColumns>
                <KeyColumn dwd:design-time-name="45664bff-a486-443b-95cc-825fd9b84dc2">
                  <DataType>Integer</DataType>
                  <Source xsi:type="ColumnBinding" dwd:design-time-name="5bcfa101-8250-49ad-b59c-8684d179f85a">
                    <TableID>dbo_FactAebPrice</TableID>
                    <ColumnID>ModelAebKey</ColumnID>
                  </Source>
                </KeyColumn>
              </KeyColumns>
              <Type>Granularity</Type>
            </Attribute>
          </Attributes>
        </Dimension>
        <Dimension xsi:type="RegularMeasureGroupDimension" dwd:design-time-name="b248d495-31e8-4cfe-827b-c70800d51631">
          <CubeDimensionID>Производство AEB</CubeDimensionID>
          <Attributes>
            <Attribute dwd:design-time-name="acad5ad0-b33b-45c5-aba0-d05dd7fc574e">
              <AttributeID>Model Aeb Key</AttributeID>
              <KeyColumns>
                <KeyColumn dwd:design-time-name="caa7605a-3dce-48ac-84e1-0c579a09b3b6">
                  <DataType>Integer</DataType>
                  <Source xsi:type="ColumnBinding" dwd:design-time-name="64eac389-9818-49bb-8777-bcccd4785351">
                    <TableID>dbo_FactAebPrice</TableID>
                    <ColumnID>ModelAebKey</ColumnID>
                  </Source>
                </KeyColumn>
              </KeyColumns>
              <Type>Granularity</Type>
            </Attribute>
          </Attributes>
        </Dimension>
      </Dimensions>
      <Partitions />
    </MeasureGroup>
    <MeasureGroup dwd:design-time-name="4c29c58e-bb8f-411d-bc0e-0e06ad6b016f">
      <ID>Fact Aeb Regional</ID>
      <Name>Regional</Name>
      <CreatedTimestamp>0001-01-01T00:00:00Z</CreatedTimestamp>
      <LastSchemaUpdate>0001-01-01T00:00:00Z</LastSchemaUpdate>
      <LastProcessed>0001-01-01T00:00:00Z</LastProcessed>
      <State>Unprocessed</State>
      <Measures>
        <Measure dwd:design-time-name="73ffee0f-3f31-43e6-80b9-a1b74088eb32">
          <ID>Quantity 1</ID>
          <Name>Regional количество</Name>
          <Source dwd:design-time-name="dc8c876e-4d7e-4265-a299-87d34eae9fbc">
            <DataType>Integer</DataType>
            <Source xsi:type="ColumnBinding" dwd:design-time-name="1bb11cdf-1fde-415c-8fda-159afcd213d4">
              <TableID>dbo_FactAebRegional</TableID>
              <ColumnID>Quantity</ColumnID>
            </Source>
          </Source>
        </Measure>
      </Measures>
      <StorageMode>Molap</StorageMode>
      <StorageLocation>F:\OLAP\</StorageLocation>
      <ProcessingMode>Regular</ProcessingMode>
      <Dimensions>
        <Dimension xsi:type="RegularMeasureGroupDimension" dwd:design-time-name="c90d6c7e-278d-459f-a592-849ec219d471">
          <CubeDimensionID>Календарь AEB</CubeDimensionID>
          <Attributes>
            <Attribute dwd:design-time-name="ea30349d-3e38-4f00-a8be-f169acccf392">
              <AttributeID>Date Key</AttributeID>
              <KeyColumns>
                <KeyColumn dwd:design-time-name="1bbe980d-1817-4707-9510-869239d335f3">
                  <DataType>Integer</DataType>
                  <Source xsi:type="ColumnBinding" dwd:design-time-name="8db9b9b2-e018-4421-8231-5afd95c2be17">
                    <TableID>dbo_FactAebRegional</TableID>
                    <ColumnID>DateSliceKey</ColumnID>
                  </Source>
                </KeyColumn>
              </KeyColumns>
              <Type>Granularity</Type>
            </Attribute>
          </Attributes>
        </Dimension>
        <Dimension xsi:type="RegularMeasureGroupDimension" dwd:design-time-name="29fa91e6-b2c7-473f-b70f-dfc88cbb2b2a">
          <CubeDimensionID>География AEB</CubeDimensionID>
          <Attributes>
            <Attribute dwd:design-time-name="1cdf1e7a-4728-4349-8089-3f291170fa12">
              <AttributeID>Geography Aeb Key</AttributeID>
              <KeyColumns>
                <KeyColumn dwd:design-time-name="0886e07f-9a47-4495-b8ff-78594cc6a5b6">
                  <DataType>Integer</DataType>
                  <Source xsi:type="ColumnBinding" dwd:design-time-name="de4ca335-4f24-48f5-b7a4-6df9997ff134">
                    <TableID>dbo_FactAebRegional</TableID>
                    <ColumnID>GeographyAebKey</ColumnID>
                  </Source>
                </KeyColumn>
              </KeyColumns>
              <Type>Granularity</Type>
            </Attribute>
          </Attributes>
        </Dimension>
        <Dimension xsi:type="RegularMeasureGroupDimension" dwd:design-time-name="9f136879-9a4f-44c4-a71d-5729b58931f2">
          <CubeDimensionID>Марки AEB</CubeDimensionID>
          <Attributes>
            <Attribute dwd:design-time-name="a418efcb-8f0a-4589-b706-0ed978cb03e8">
              <AttributeID>Brand Aeb Key</AttributeID>
              <KeyColumns>
                <KeyColumn dwd:design-time-name="154718b9-4b4a-4c71-972a-5ee40504b84e">
                  <DataType>Integer</DataType>
                  <Source xsi:type="ColumnBinding" dwd:design-time-name="23fdd050-fa84-4e24-9bf3-3a407dc58e68">
                    <TableID>dbo_FactAebRegional</TableID>
                    <ColumnID>BrandAebKey</ColumnID>
                  </Source>
                </KeyColumn>
              </KeyColumns>
              <Type>Granularity</Type>
            </Attribute>
          </Attributes>
        </Dimension>
      </Dimensions>
      <Partitions />
    </MeasureGroup>
    <MeasureGroup dwd:design-time-name="ba393c89-489f-4c99-bf87-8d1534a09d55">
      <ID>Fact Aeb Regional Detail</ID>
      <Name>Regional Detail</Name>
      <CreatedTimestamp>0001-01-01T00:00:00Z</CreatedTimestamp>
      <LastSchemaUpdate>0001-01-01T00:00:00Z</LastSchemaUpdate>
      <LastProcessed>0001-01-01T00:00:00Z</LastProcessed>
      <State>Unprocessed</State>
      <Measures>
        <Measure dwd:design-time-name="2a4853d9-a9da-43c5-9975-1b098c691faf">
          <ID>Quantity 2</ID>
          <Name>Reg Det количество</Name>
          <Source dwd:design-time-name="cf5c89f9-b66c-4b39-ba60-69343bbc3675">
            <DataType>Integer</DataType>
            <Source xsi:type="ColumnBinding" dwd:design-time-name="6058f283-ea00-4a0d-a1c1-37c70f3f822f">
              <TableID>dbo_FactAebRegionalDetail</TableID>
              <ColumnID>Quantity</ColumnID>
            </Source>
          </Source>
        </Measure>
      </Measures>
      <StorageMode>Molap</StorageMode>
      <StorageLocation>F:\OLAP\</StorageLocation>
      <ProcessingMode>Regular</ProcessingMode>
      <Dimensions>
        <Dimension xsi:type="RegularMeasureGroupDimension" dwd:design-time-name="efb7dbd5-5ac2-4838-a5e1-72015a9edc92">
          <CubeDimensionID>Сегмент Autostat AEB</CubeDimensionID>
          <Attributes>
            <Attribute dwd:design-time-name="6e8c13ae-e0d6-49ba-9167-536a12fbd542">
              <AttributeID>Model Aeb Key</AttributeID>
              <KeyColumns>
                <KeyColumn dwd:design-time-name="883b5263-db7f-4ff9-ba35-9cdd3dd327cb">
                  <DataType>Integer</DataType>
                  <Source xsi:type="ColumnBinding" dwd:design-time-name="22c24065-0ca8-460e-b290-7557c8f4ce50">
                    <TableID>dbo_FactAebRegionalDetail</TableID>
                    <ColumnID>ModelAebKey</ColumnID>
                  </Source>
                </KeyColumn>
              </KeyColumns>
              <Type>Granularity</Type>
            </Attribute>
          </Attributes>
        </Dimension>
        <Dimension xsi:type="RegularMeasureGroupDimension" dwd:design-time-name="c10fae61-a704-4d21-81fc-654526c71854">
          <CubeDimensionID>География AEB</CubeDimensionID>
          <Attributes>
            <Attribute dwd:design-time-name="6d138874-a8c0-4848-b3d5-40e49af8a332">
              <AttributeID>Geography Aeb Key</AttributeID>
              <KeyColumns>
                <KeyColumn dwd:design-time-name="d5a69196-14af-4705-a176-a09aa648ef09">
                  <DataType>Integer</DataType>
                  <Source xsi:type="ColumnBinding" dwd:design-time-name="56a1508a-6b88-412f-a256-f6a226ace915">
                    <TableID>dbo_FactAebRegionalDetail</TableID>
                    <ColumnID>GeographyAebKey</ColumnID>
                  </Source>
                </KeyColumn>
              </KeyColumns>
              <Type>Granularity</Type>
            </Attribute>
          </Attributes>
        </Dimension>
        <Dimension xsi:type="RegularMeasureGroupDimension" dwd:design-time-name="aa2e4695-0775-4bea-837e-5abe5032026d">
          <CubeDimensionID>Календарь AEB</CubeDimensionID>
          <Attributes>
            <Attribute dwd:design-time-name="4339c751-e53c-4058-ae8c-4a6b3f8089c7">
              <AttributeID>Date Key</AttributeID>
              <KeyColumns>
                <KeyColumn dwd:design-time-name="73a514dd-c61d-459f-b018-91737046d7b7">
                  <DataType>Integer</DataType>
                  <Source xsi:type="ColumnBinding" dwd:design-time-name="794aedf8-d206-40fc-830d-a9f0650f19e0">
                    <TableID>dbo_FactAebRegionalDetail</TableID>
                    <ColumnID>DateSliceKey</ColumnID>
                  </Source>
                </KeyColumn>
              </KeyColumns>
              <Type>Granularity</Type>
            </Attribute>
          </Attributes>
        </Dimension>
        <Dimension xsi:type="RegularMeasureGroupDimension" dwd:design-time-name="1ac0e4ad-bbc8-4846-8dad-2cbcf2f03b92">
          <CubeDimensionID>Модель AEB</CubeDimensionID>
          <Attributes>
            <Attribute dwd:design-time-name="ed7e8d00-1144-43f8-bb1b-ca52a0c47e16">
              <AttributeID>Model Aeb Key</AttributeID>
              <KeyColumns>
                <KeyColumn dwd:design-time-name="f55228d5-0f8e-4852-b2da-855315fc8491">
                  <DataType>Integer</DataType>
                  <Source xsi:type="ColumnBinding" dwd:design-time-name="99e5aac0-bae7-4ae3-a967-1ca7693c5c61">
                    <TableID>dbo_FactAebRegionalDetail</TableID>
                    <ColumnID>ModelAebKey</ColumnID>
                  </Source>
                </KeyColumn>
              </KeyColumns>
              <Type>Granularity</Type>
            </Attribute>
          </Attributes>
        </Dimension>
        <Dimension xsi:type="RegularMeasureGroupDimension" dwd:design-time-name="d341f5b8-bd41-4c01-82eb-f881065c48c6">
          <CubeDimensionID>Тип ТС AEB</CubeDimensionID>
          <Attributes>
            <Attribute dwd:design-time-name="864a77b8-f3d2-4f63-a49a-5764e4a0846e">
              <AttributeID>Model Aeb Key</AttributeID>
              <KeyColumns>
                <KeyColumn dwd:design-time-name="f597e3e8-753d-422e-8eed-2bc709c646cd">
                  <DataType>Integer</DataType>
                  <Source xsi:type="ColumnBinding" dwd:design-time-name="1c5d5e33-9bd1-4653-b5d0-99b48083da15">
                    <TableID>dbo_FactAebRegionalDetail</TableID>
                    <ColumnID>ModelAebKey</ColumnID>
                  </Source>
                </KeyColumn>
              </KeyColumns>
              <Type>Granularity</Type>
            </Attribute>
          </Attributes>
        </Dimension>
        <Dimension xsi:type="RegularMeasureGroupDimension" dwd:design-time-name="79fe897d-6250-470e-b628-cff41c38dab6">
          <CubeDimensionID>Производство AEB</CubeDimensionID>
          <Attributes>
            <Attribute dwd:design-time-name="36092ce7-9c5d-4166-9c0d-78c9b780427f">
              <AttributeID>Model Aeb Key</AttributeID>
              <KeyColumns>
                <KeyColumn dwd:design-time-name="53e93989-c1b4-47c9-95d4-90b15897ad20">
                  <DataType>Integer</DataType>
                  <Source xsi:type="ColumnBinding" dwd:design-time-name="57c0df80-df49-446e-8677-7e3d4810f607">
                    <TableID>dbo_FactAebRegionalDetail</TableID>
                    <ColumnID>ModelAebKey</ColumnID>
                  </Source>
                </KeyColumn>
              </KeyColumns>
              <Type>Granularity</Type>
            </Attribute>
          </Attributes>
        </Dimension>
      </Dimensions>
      <Partitions />
    </MeasureGroup>
    <MeasureGroup dwd:design-time-name="2a825b37-2791-4985-8233-f4b34f3368dc">
      <ID>Price</ID>
      <Name>Price Dealer Count</Name>
      <CreatedTimestamp>0001-01-01T00:00:00Z</CreatedTimestamp>
      <LastSchemaUpdate>0001-01-01T00:00:00Z</LastSchemaUpdate>
      <LastProcessed>0001-01-01T00:00:00Z</LastProcessed>
      <State>Unprocessed</State>
      <Measures>
        <Measure dwd:design-time-name="d647a4f5-8cb4-4f9b-8ade-959c02c71be5">
          <ID>Price Dealer Distinct Count</ID>
          <Name>Price Dealer Count</Name>
          <AggregateFunction>DistinctCount</AggregateFunction>
          <DataType>Integer</DataType>
          <Source dwd:design-time-name="62f429a0-a4c1-44b9-a177-4416575d525e">
            <DataType>Integer</DataType>
            <Source xsi:type="ColumnBinding" dwd:design-time-name="cb865963-6ae3-4eed-b944-5e4d3c555825">
              <TableID>dbo_FactAebPrice</TableID>
              <ColumnID>PriceDealer</ColumnID>
            </Source>
          </Source>
        </Measure>
      </Measures>
      <StorageMode>Molap</StorageMode>
      <StorageLocation>F:\OLAP\</StorageLocation>
      <ProcessingMode>Regular</ProcessingMode>
      <Dimensions>
        <Dimension xsi:type="RegularMeasureGroupDimension" dwd:design-time-name="09949849-72df-437a-8ad5-07d9a6cdfdd0">
          <CubeDimensionID>Календарь AEB</CubeDimensionID>
          <Attributes>
            <Attribute dwd:design-time-name="c43f2425-b1a7-473d-bcd6-0ffaf9374871">
              <AttributeID>Date Key</AttributeID>
              <KeyColumns>
                <KeyColumn dwd:design-time-name="e236024d-800b-40ee-99c8-6d04d1144d2c">
                  <DataType>Integer</DataType>
                  <Source xsi:type="ColumnBinding" dwd:design-time-name="e8ee90a9-4802-47b7-a6fa-1909ee6338f8">
                    <TableID>dbo_FactAebPrice</TableID>
                    <ColumnID>DateSliceKey</ColumnID>
                  </Source>
                </KeyColumn>
              </KeyColumns>
              <Type>Granularity</Type>
            </Attribute>
          </Attributes>
        </Dimension>
        <Dimension xsi:type="RegularMeasureGroupDimension" dwd:design-time-name="76a7a679-6d74-4065-b053-a72ca2e8e9fb">
          <CubeDimensionID>Сегмент Autostat AEB</CubeDimensionID>
          <Attributes>
            <Attribute dwd:design-time-name="a6a5cfc8-8fe5-4754-bf88-4b092747f637">
              <AttributeID>Model Aeb Key</AttributeID>
              <KeyColumns>
                <KeyColumn dwd:design-time-name="5e02a908-0cb6-4392-ab30-7dfdb02fd10b">
                  <DataType>Integer</DataType>
                  <Source xsi:type="ColumnBinding" dwd:design-time-name="636c260e-35ad-4a9f-95eb-44d32ab5e835">
                    <TableID>dbo_FactAebPrice</TableID>
                    <ColumnID>ModelAebKey</ColumnID>
                  </Source>
                </KeyColumn>
              </KeyColumns>
              <Type>Granularity</Type>
            </Attribute>
          </Attributes>
        </Dimension>
        <Dimension xsi:type="RegularMeasureGroupDimension" dwd:design-time-name="6d666a9a-bd3d-491b-bca4-978eb662fbe2">
          <CubeDimensionID>Модель AEB</CubeDimensionID>
          <Attributes>
            <Attribute dwd:design-time-name="6d13e906-3368-40f4-a8be-bfc0a0d85107">
              <AttributeID>Model Aeb Key</AttributeID>
              <KeyColumns>
                <KeyColumn dwd:design-time-name="8444cf3d-1b57-450e-b0b4-d42ec95b7805">
                  <DataType>Integer</DataType>
                  <Source xsi:type="ColumnBinding" dwd:design-time-name="30a904d8-f15b-4216-a0c9-773e7f1cf417">
                    <TableID>dbo_FactAebPrice</TableID>
                    <ColumnID>ModelAebKey</ColumnID>
                  </Source>
                </KeyColumn>
              </KeyColumns>
              <Type>Granularity</Type>
            </Attribute>
          </Attributes>
        </Dimension>
        <Dimension xsi:type="RegularMeasureGroupDimension" dwd:design-time-name="b8d63b59-d2c5-406c-a6a7-2b7289db13d1">
          <CubeDimensionID>Тип ТС AEB</CubeDimensionID>
          <Attributes>
            <Attribute dwd:design-time-name="98778813-f171-43d0-a49b-6a8f102c6668">
              <AttributeID>Model Aeb Key</AttributeID>
              <KeyColumns>
                <KeyColumn dwd:design-time-name="487517bc-9b36-446e-9aa1-df5dedcc5831">
                  <DataType>Integer</DataType>
                  <Source xsi:type="ColumnBinding" dwd:design-time-name="101bde07-76c8-45b5-b40d-2ea676b7c998">
                    <TableID>dbo_FactAebPrice</TableID>
                    <ColumnID>ModelAebKey</ColumnID>
                  </Source>
                </KeyColumn>
              </KeyColumns>
              <Type>Granularity</Type>
            </Attribute>
          </Attributes>
        </Dimension>
        <Dimension xsi:type="RegularMeasureGroupDimension" dwd:design-time-name="1911243e-5a83-4d4b-8059-2229f7f95c3b">
          <CubeDimensionID>Производство AEB</CubeDimensionID>
          <Attributes>
            <Attribute dwd:design-time-name="4e64bed3-f26b-4ba0-a350-84c91ce130aa">
              <AttributeID>Model Aeb Key</AttributeID>
              <KeyColumns>
                <KeyColumn dwd:design-time-name="77d2c8f8-ca48-4916-aa3a-556860bdb3a8">
                  <DataType>Integer</DataType>
                  <Source xsi:type="ColumnBinding" dwd:design-time-name="1e7b41ba-cfb7-4c4f-ae95-ad26c6f06e53">
                    <TableID>dbo_FactAebPrice</TableID>
                    <ColumnID>ModelAebKey</ColumnID>
                  </Source>
                </KeyColumn>
              </KeyColumns>
              <Type>Granularity</Type>
            </Attribute>
          </Attributes>
        </Dimension>
      </Dimensions>
      <Partitions />
    </MeasureGroup>
    <MeasureGroup dwd:design-time-name="d15d372c-5d69-4aee-9714-0d3e19737082">
      <ID>v Fact Aeb Price</ID>
      <Name>vPrice</Name>
      <CreatedTimestamp>0001-01-01T00:00:00Z</CreatedTimestamp>
      <LastSchemaUpdate>0001-01-01T00:00:00Z</LastSchemaUpdate>
      <LastProcessed>0001-01-01T00:00:00Z</LastProcessed>
      <State>Unprocessed</State>
      <Measures>
        <Measure dwd:design-time-name="38e665fb-da4a-47c5-be50-be316740fc11">
          <ID>Price Dealer - v Fact Aeb Price</ID>
          <Name>vPrice Dealer</Name>
          <Source dwd:design-time-name="2558b033-3169-4730-8cd4-8673ec977bf6">
            <DataType>BigInt</DataType>
            <Source xsi:type="ColumnBinding" dwd:design-time-name="d59b7509-424a-4513-8a0c-bcbf946f9575">
              <TableID>dbo_vFactAebPrice</TableID>
              <ColumnID>PriceDealer</ColumnID>
            </Source>
          </Source>
        </Measure>
      </Measures>
      <StorageMode>Molap</StorageMode>
      <StorageLocation>F:\OLAP\</StorageLocation>
      <ProcessingMode>Regular</ProcessingMode>
      <Dimensions>
        <Dimension xsi:type="RegularMeasureGroupDimension" dwd:design-time-name="69be03ef-25c5-4309-aac6-4fe42e8683d1">
          <CubeDimensionID>Календарь AEB</CubeDimensionID>
          <Attributes>
            <Attribute dwd:design-time-name="d90ca764-2c46-4f44-9c23-a2451e9b43fe">
              <AttributeID>Date Key</AttributeID>
              <KeyColumns>
                <KeyColumn dwd:design-time-name="645c11ce-f263-4245-9c4d-a309b1378ae2">
                  <DataType>Integer</DataType>
                  <Source xsi:type="ColumnBinding" dwd:design-time-name="1871bea8-0ec8-4589-8f2c-d3af86ce9b22">
                    <TableID>dbo_vFactAebPrice</TableID>
                    <ColumnID>DateSliceKey</ColumnID>
                  </Source>
                </KeyColumn>
              </KeyColumns>
              <Type>Granularity</Type>
            </Attribute>
          </Attributes>
        </Dimension>
        <Dimension xsi:type="RegularMeasureGroupDimension" dwd:design-time-name="5ef4bf71-b587-42f9-ba53-9c3f3774db19">
          <CubeDimensionID>Сегмент Autostat AEB</CubeDimensionID>
          <Attributes>
            <Attribute dwd:design-time-name="e24fabeb-72d3-4c7e-8941-fee64c35235f">
              <AttributeID>Model Aeb Key</AttributeID>
              <KeyColumns>
                <KeyColumn dwd:design-time-name="9cb1bec9-456e-4a40-b187-3ce0509c7be1">
                  <DataType>Integer</DataType>
                  <Source xsi:type="ColumnBinding" dwd:design-time-name="958d2e57-d8e8-4afb-a9d5-95eea801b56b">
                    <TableID>dbo_vFactAebPrice</TableID>
                    <ColumnID>ModelAebKey</ColumnID>
                  </Source>
                </KeyColumn>
              </KeyColumns>
              <Type>Granularity</Type>
            </Attribute>
          </Attributes>
        </Dimension>
        <Dimension xsi:type="RegularMeasureGroupDimension" dwd:design-time-name="d96f7df9-501d-47c9-b77a-6626ea6c68ac">
          <CubeDimensionID>Модель AEB</CubeDimensionID>
          <Attributes>
            <Attribute dwd:design-time-name="3e3b7826-0d36-40dd-a0bd-219ccd07ca0b">
              <AttributeID>Model Aeb Key</AttributeID>
              <KeyColumns>
                <KeyColumn dwd:design-time-name="439124d8-4399-4585-8bdf-170ea47dfda5">
                  <DataType>Integer</DataType>
                  <Source xsi:type="ColumnBinding" dwd:design-time-name="da0757d6-32a5-4cec-8837-630bfafb3142">
                    <TableID>dbo_vFactAebPrice</TableID>
                    <ColumnID>ModelAebKey</ColumnID>
                  </Source>
                </KeyColumn>
              </KeyColumns>
              <Type>Granularity</Type>
            </Attribute>
          </Attributes>
        </Dimension>
        <Dimension xsi:type="RegularMeasureGroupDimension" dwd:design-time-name="b0472e9e-3f32-4ce7-a826-d27d19489e3e">
          <CubeDimensionID>Тип ТС AEB</CubeDimensionID>
          <Attributes>
            <Attribute dwd:design-time-name="40102105-1026-4b9d-a445-b5c0e4fb3588">
              <AttributeID>Model Aeb Key</AttributeID>
              <KeyColumns>
                <KeyColumn dwd:design-time-name="eb4c7ca7-7735-4ad4-b5cd-a05406943556">
                  <DataType>Integer</DataType>
                  <Source xsi:type="ColumnBinding" dwd:design-time-name="9b9f495d-9b70-4dbf-8998-436248501f99">
                    <TableID>dbo_vFactAebPrice</TableID>
                    <ColumnID>ModelAebKey</ColumnID>
                  </Source>
                </KeyColumn>
              </KeyColumns>
              <Type>Granularity</Type>
            </Attribute>
          </Attributes>
        </Dimension>
        <Dimension xsi:type="RegularMeasureGroupDimension" dwd:design-time-name="488b7179-9b98-4070-8590-402373b80550">
          <CubeDimensionID>Производство AEB</CubeDimensionID>
          <Attributes>
            <Attribute dwd:design-time-name="f8b6ba36-317f-470a-aead-ddd87ddb9ab8">
              <AttributeID>Model Aeb Key</AttributeID>
              <KeyColumns>
                <KeyColumn dwd:design-time-name="87db6069-e715-4ab3-ac2e-2e15880467a2">
                  <DataType>Integer</DataType>
                  <Source xsi:type="ColumnBinding" dwd:design-time-name="c0321e3b-0341-4227-a0d5-c138d0102bab">
                    <TableID>dbo_vFactAebPrice</TableID>
                    <ColumnID>ModelAebKey</ColumnID>
                  </Source>
                </KeyColumn>
              </KeyColumns>
              <Type>Granularity</Type>
            </Attribute>
          </Attributes>
        </Dimension>
      </Dimensions>
      <Partitions />
    </MeasureGroup>
    <MeasureGroup dwd:design-time-name="8ee07392-3941-4b6f-ba4c-1e6ac43da441">
      <ID>vPrice</ID>
      <Name>vPrice 1</Name>
      <CreatedTimestamp>0001-01-01T00:00:00Z</CreatedTimestamp>
      <LastSchemaUpdate>0001-01-01T00:00:00Z</LastSchemaUpdate>
      <LastProcessed>0001-01-01T00:00:00Z</LastProcessed>
      <State>Unprocessed</State>
      <Measures>
        <Measure dwd:design-time-name="4d8815bd-e838-4ecc-a0e4-80aaa5d3889a">
          <ID>Model Aeb Key Distinct Count 1</ID>
          <Name>vModel Count</Name>
          <AggregateFunction>Count</AggregateFunction>
          <DataType>Integer</DataType>
          <Source dwd:design-time-name="ce0fa6f9-c315-46fc-a153-c9e466c0d220">
            <DataType>Integer</DataType>
            <Source xsi:type="ColumnBinding" dwd:design-time-name="af1eaa94-e592-410f-9338-8c3b5945a068">
              <TableID>dbo_vFactAebPrice</TableID>
              <ColumnID>ModelAebKey</ColumnID>
            </Source>
          </Source>
        </Measure>
      </Measures>
      <StorageMode>Molap</StorageMode>
      <StorageLocation>F:\OLAP\</StorageLocation>
      <ProcessingMode>Regular</ProcessingMode>
      <Dimensions>
        <Dimension xsi:type="RegularMeasureGroupDimension" dwd:design-time-name="f0a92ff3-92ce-4c89-992a-2eb2d03f14da">
          <CubeDimensionID>Календарь AEB</CubeDimensionID>
          <Attributes>
            <Attribute dwd:design-time-name="575aa610-9efd-4609-8aa1-c231e3af702e">
              <AttributeID>Date Key</AttributeID>
              <KeyColumns>
                <KeyColumn dwd:design-time-name="dd53e064-023c-4281-b674-db290bb3085b">
                  <DataType>Integer</DataType>
                  <Source xsi:type="ColumnBinding" dwd:design-time-name="5a69cc74-598a-4530-8cdb-94f79bf6e4a4">
                    <TableID>dbo_vFactAebPrice</TableID>
                    <ColumnID>DateSliceKey</ColumnID>
                  </Source>
                </KeyColumn>
              </KeyColumns>
              <Type>Granularity</Type>
            </Attribute>
          </Attributes>
        </Dimension>
        <Dimension xsi:type="RegularMeasureGroupDimension" dwd:design-time-name="50c9d76e-ec28-470b-a5bd-e49a1f75e54e">
          <CubeDimensionID>Сегмент Autostat AEB</CubeDimensionID>
          <Attributes>
            <Attribute dwd:design-time-name="7430d3d9-6c37-44e2-bae1-e5613f6966aa">
              <AttributeID>Model Aeb Key</AttributeID>
              <KeyColumns>
                <KeyColumn dwd:design-time-name="df1d0e32-084e-46e8-9c9b-0315ff38ce40">
                  <DataType>Integer</DataType>
                  <Source xsi:type="ColumnBinding" dwd:design-time-name="7ab69db9-8c9c-448e-a4c0-ec061b3b52f3">
                    <TableID>dbo_vFactAebPrice</TableID>
                    <ColumnID>ModelAebKey</ColumnID>
                  </Source>
                </KeyColumn>
              </KeyColumns>
              <Type>Granularity</Type>
            </Attribute>
          </Attributes>
        </Dimension>
        <Dimension xsi:type="RegularMeasureGroupDimension" dwd:design-time-name="70fa7e27-42e7-43c7-98f1-7802e81de1da">
          <CubeDimensionID>Модель AEB</CubeDimensionID>
          <Attributes>
            <Attribute dwd:design-time-name="d7e77294-8154-4286-8f2a-58de3ed5c4a2">
              <AttributeID>Model Aeb Key</AttributeID>
              <KeyColumns>
                <KeyColumn dwd:design-time-name="41dc12f4-a521-43e6-8e84-f6f203eda3f8">
                  <DataType>Integer</DataType>
                  <Source xsi:type="ColumnBinding" dwd:design-time-name="737638ed-840e-4c7d-ab22-de41fbf9bbc1">
                    <TableID>dbo_vFactAebPrice</TableID>
                    <ColumnID>ModelAebKey</ColumnID>
                  </Source>
                </KeyColumn>
              </KeyColumns>
              <Type>Granularity</Type>
            </Attribute>
          </Attributes>
        </Dimension>
        <Dimension xsi:type="RegularMeasureGroupDimension" dwd:design-time-name="7f65d231-3398-452a-8dcf-432914491e32">
          <CubeDimensionID>Тип ТС AEB</CubeDimensionID>
          <Attributes>
            <Attribute dwd:design-time-name="cfd99e37-185b-488e-af53-c3acd56c5ee2">
              <AttributeID>Model Aeb Key</AttributeID>
              <KeyColumns>
                <KeyColumn dwd:design-time-name="c2efa26b-a475-48f9-9304-8851769826ac">
                  <DataType>Integer</DataType>
                  <Source xsi:type="ColumnBinding" dwd:design-time-name="51e6359f-37eb-4f45-b999-e4030076d1ae">
                    <TableID>dbo_vFactAebPrice</TableID>
                    <ColumnID>ModelAebKey</ColumnID>
                  </Source>
                </KeyColumn>
              </KeyColumns>
              <Type>Granularity</Type>
            </Attribute>
          </Attributes>
        </Dimension>
        <Dimension xsi:type="RegularMeasureGroupDimension" dwd:design-time-name="4fe33ea3-8a13-42e6-b92e-4bd7235be3e9">
          <CubeDimensionID>Производство AEB</CubeDimensionID>
          <Attributes>
            <Attribute dwd:design-time-name="4668265c-d2a4-480c-a981-1e22271e138e">
              <AttributeID>Model Aeb Key</AttributeID>
              <KeyColumns>
                <KeyColumn dwd:design-time-name="cedefa56-677a-42d7-8d47-2edfb8afd204">
                  <DataType>Integer</DataType>
                  <Source xsi:type="ColumnBinding" dwd:design-time-name="9fde68df-c72a-4e27-9d84-1b102f7ab638">
                    <TableID>dbo_vFactAebPrice</TableID>
                    <ColumnID>ModelAebKey</ColumnID>
                  </Source>
                </KeyColumn>
              </KeyColumns>
              <Type>Granularity</Type>
            </Attribute>
          </Attributes>
        </Dimension>
      </Dimensions>
      <Partitions />
    </MeasureGroup>
  </MeasureGroups>
  <Source dwd:design-time-name="427952fa-a43d-46c7-9fdb-dc9f25f762de">
    <DataSourceViewID>Autostat DW New</DataSourceViewID>
  </Source>
  <MdxScripts>
    <MdxScript dwd:design-time-name="98d92e61-09e8-4912-a8da-2c99be352072">
      <ID>MdxScript</ID>
      <Name>MdxScript</Name>
      <CreatedTimestamp>0001-01-01T00:00:00Z</CreatedTimestamp>
      <LastSchemaUpdate>0001-01-01T00:00:00Z</LastSchemaUpdate>
      <Commands>
        <Command>
          <Text>/*
The CALCULATE command controls the aggregation of leaf cells in the cube.
If the CALCULATE command is deleted or modified, the data within the cube is affected.
You should edit this command only if you manually specify how the cube is aggregated.
*/
CALCULATE;         
CREATE MEMBER CURRENTCUBE.[Measures].[Сумма 2 по марке]
 AS ([Модель].[Марка-Модель].CurrentMember.Parent, [Measures].[Емкость по модели]), 
NON_EMPTY_BEHAVIOR = { [General количество] }, 
VISIBLE = 0 ,  ASSOCIATED_MEASURE_GROUP = 'Price'  ;      

CREATE MEMBER CURRENTCUBE.[Measures].[Ср цена АППГ]
 AS [Measures].[Ср цена], 
NON_EMPTY_BEHAVIOR = { [vPrice Dealer] }, 
VISIBLE = 0 ,  ASSOCIATED_MEASURE_GROUP = 'Price'  ;     
CREATE MEMBER CURRENTCUBE.[Measures].[Ср цена]
 AS ROUND(IIF([Measures].[vModel Count] = 0, 0, [Measures].[vPrice Dealer]/[Measures].[vModel Count]), 2), 
VISIBLE = 0 ,  ASSOCIATED_MEASURE_GROUP = 'Price'  ;                   
SCOPE ([Период].[Год-Месяц].[Месяц], [Measures].[Ср цена АППГ]);                 
THIS = (ParallelPeriod([Период].[Год-Месяц].[Месяц], 12), [Measures].[Ср цена]);               
END SCOPE;                                
SCOPE ([Период].[Год-Месяц].[Год], [Measures].[Ср цена АППГ]);                 
THIS = (ParallelPeriod([Период].[Год-Месяц].[Год],1), [Measures].[Ср цена]);               
END SCOPE;                                

CREATE MEMBER CURRENTCUBE.[Measures].[Изм сум ср цена АППГ]
 AS [Measures].[Ср цена] - [Measures].[Ср цена АППГ], 
NON_EMPTY_BEHAVIOR = { [vPrice Dealer] }, 
VISIBLE = 0 ,  ASSOCIATED_MEASURE_GROUP = 'Price'  ;                

CREATE MEMBER CURRENTCUBE.[Measures].[Изм % ср цена АППГ]
 AS ROUND(IIF([Measures].[Ср цена АППГ] = 0, 0, (([Measures].[Ср цена]/[Measures].[Ср цена АППГ])-1)*100), 2), 
NON_EMPTY_BEHAVIOR = { [vPrice Dealer] }, 
VISIBLE = 0 ,  ASSOCIATED_MEASURE_GROUP = 'Price'  ;                

CREATE MEMBER CURRENTCUBE.[Measures].[Ср взвш по ВУ]
 AS ROUND(([Модель].[Марка-Модель].CurrentMember.Parent, [Measures].[vPrice Dealer])/([Модель].[Марка-Модель].CurrentMember.Parent, [Measures].[vModel Count]), 2), 
VISIBLE = 0 ,  ASSOCIATED_MEASURE_GROUP = 'Price'  ;  
CREATE MEMBER CURRENTCUBE.[Measures].[Ср взвш по марке]
 AS ROUND([Measures].[Сумма 2 по марке] / [Measures].[Количество по ВУ]), 
VISIBLE = 0 ,  ASSOCIATED_MEASURE_GROUP = 'Price'  ;     
CREATE MEMBER CURRENTCUBE.[Measures].[Сумма по марке]
 AS ROUND( [Measures].[General количество] * [Measures].[Ср цена], 2), 
VISIBLE = 0 ,  ASSOCIATED_MEASURE_GROUP = 'Price'  ;                                 

CREATE MEMBER CURRENTCUBE.[Measures].[Ср взвш по ВУ с НГ]
 AS ROUND(([Модель].[Марка-Модель].CurrentMember.Parent, [Measures].[Цена с НГ])/([Модель].[Марка-Модель].CurrentMember.Parent, [Measures].[Колво с НГ]), 2), 
VISIBLE = 0 ,  ASSOCIATED_MEASURE_GROUP = 'Price'  ;                                 

CREATE MEMBER CURRENTCUBE.[Measures].[Количество по ВУ]
 AS ROUND(([Модель].[Марка-Модель].CurrentMember.Parent, [Measures].[General количество]), 2), 
VISIBLE = 0 ,  ASSOCIATED_MEASURE_GROUP = 'Price'  ;                                 

CREATE MEMBER CURRENTCUBE.[Measures].[Ср взвш по ВУ АППГ]
 AS [Measures].[Ср взвш по ВУ], 
VISIBLE = 0 ,  ASSOCIATED_MEASURE_GROUP = 'Price'  ;             
CREATE MEMBER CURRENTCUBE.[Measures].[Емкость марки]
 AS ROUND([Measures].[Сумма 2 по марке] / [Measures].[Количество по ВУ], 2), 
VISIBLE = 0 ,  ASSOCIATED_MEASURE_GROUP = 'Price'  ;                                 
SCOPE ([Период].[Год-Месяц].[Месяц], [Measures].[Ср взвш по ВУ АППГ]);                 
THIS = (ParallelPeriod([Период].[Год-Месяц].[Месяц], 12), [Measures].[Ср взвш по ВУ]);                 
END SCOPE;                                
SCOPE ([Период].[Год-Месяц].[Год], [Measures].[Ср взвш по ВУ АППГ]);                 
THIS = (ParallelPeriod([Период].[Год-Месяц].[Год],1), [Measures].[Ср взвш по ВУ]);                 
END SCOPE;                                

CREATE MEMBER CURRENTCUBE.[Measures].[Изм сум срвзвш по ВУ АППГ]
 AS [Measures].[Ср взвш по ВУ] - [Measures].[Ср взвш по ВУ АППГ], 
VISIBLE = 0 ,  ASSOCIATED_MEASURE_GROUP = 'Price'  ;                

CREATE MEMBER CURRENTCUBE.[Measures].[Изм % срвзвш по ВУ АППГ]
 AS ROUND(IIF([Measures].[Ср взвш по ВУ АППГ] = 0, 0, (([Measures].[Ср взвш по ВУ]/[Measures].[Ср взвш по ВУ АППГ])-1)*100), 2), 
VISIBLE = 0 ,  ASSOCIATED_MEASURE_GROUP = 'Price'  ;                

//CREATE MEMBER CURRENTCUBE.[Measures].[Ср цена с НГ]
// AS Aggregate(
//        PeriodsToDate(
//            [Период].[Год-Месяц].[Год], 
//            [Период].[Год-Месяц].CurrentMember)
//,	ROUND([Measures].[vPrice Dealer]/[Measures].[vModel Count], 2)), 
//NON_EMPTY_BEHAVIOR = { [vPrice Dealer] }, 
//VISIBLE = 0 ,  ASSOCIATED_MEASURE_GROUP = 'Price';      

CREATE MEMBER CURRENTCUBE.[Measures].[Цена с НГ]
 AS Aggregate(
        PeriodsToDate(
            [Период].[Год-Месяц].[Год], 
            [Период].[Год-Месяц].CurrentMember)
,	[Measures].[vPrice Dealer]), 
NON_EMPTY_BEHAVIOR = { [vPrice Dealer] }, 
VISIBLE = 0 ,  ASSOCIATED_MEASURE_GROUP = 'Price'  ;                

CREATE MEMBER CURRENTCUBE.[Measures].[Колво с НГ]
 AS Aggregate(
        PeriodsToDate(
            [Период].[Год-Месяц].[Год], 
            [Период].[Год-Месяц].CurrentMember)
,	[Measures].[vModel Count]), 
NON_EMPTY_BEHAVIOR = { [vModel Count] }, 
VISIBLE = 0 ,  ASSOCIATED_MEASURE_GROUP = 'Price'  ;           

CREATE MEMBER CURRENTCUBE.[Measures].[Ср цена с НГ]
 AS ROUND([Measures].[Цена с НГ]/[Measures].[Колво с НГ], 2), 
VISIBLE = 0 ,  ASSOCIATED_MEASURE_GROUP = 'Price'  ;                

CREATE MEMBER CURRENTCUBE.[Measures].[Ср цена с НГ АППГ]
 AS Aggregate(
        PeriodsToDate(
            [Период].[Год-Месяц].[Год], 
            ParallelPeriod([Период].[Год-Месяц].[Год], 1, [Период].[Год-Месяц].CurrentMember))
,	ROUND([Measures].[vPrice Dealer]/[Measures].[vModel Count], 2)), 
NON_EMPTY_BEHAVIOR = { [vPrice Dealer] }, 
VISIBLE = 0 ,  ASSOCIATED_MEASURE_GROUP = 'Price';               

CREATE MEMBER CURRENTCUBE.[Measures].[Емкость по модели]
 AS ROUND(([Модель].[Марка-Модель].CurrentMember, [Measures].[General количество]) * [Measures].[Ср цена], 2), 
NON_EMPTY_BEHAVIOR = { [General количество] }, 
VISIBLE = 0 ,  ASSOCIATED_MEASURE_GROUP = 'Price'  ;                

CREATE MEMBER CURRENTCUBE.[Measures].[Кол-во АППГ]
 AS [Measures].[Количество], 
NON_EMPTY_BEHAVIOR = { [General Количество] }, 

VISIBLE = 1 ,  ASSOCIATED_MEASURE_GROUP = 'General';                  
SCOPE ([Период].[Год-Месяц].[Месяц], [Measures].[Кол-во АППГ]);                                
THIS = (ParallelPeriod([Период].[Год-Месяц].[Месяц], 12),[Measures].[General Количество]);                                
END SCOPE;                                
SCOPE ([Период].[Год-Месяц].[Год], [Measures].[Кол-во АППГ]);                                
THIS = (ParallelPeriod([Период].[Год-Месяц].[Год],1),[Measures].[General Количество]);                                
END SCOPE;                                

CREATE MEMBER CURRENTCUBE.[Measures].[Изм шт АППГ]
 AS [Measures].[Количество] - [Measures].[Кол-во АППГ], 
NON_EMPTY_BEHAVIOR = { [General Количество] }, 
VISIBLE = 1 ,  ASSOCIATED_MEASURE_GROUP = 'General';                                          

CREATE MEMBER CURRENTCUBE.[Measures].[Изм % АППГ]
 AS ROUND(IIF([Measures].[Кол-во АППГ] = 0, 0, (([Measures].[General Количество]/[Measures].[Кол-во АППГ])-1)*100), 2), 
NON_EMPTY_BEHAVIOR = { [General Количество] }, 
VISIBLE = 1 ,  ASSOCIATED_MEASURE_GROUP = 'General';                    

CREATE MEMBER CURRENTCUBE.[Measures].[Кол-во с НГ]
 AS Aggregate(
        PeriodsToDate(
            [Период].[Год-Месяц].[Год], 
            [Период].[Год-Месяц].CurrentMember)
,	[Measures].[General Количество]), 
VISIBLE = 1 ,  ASSOCIATED_MEASURE_GROUP = 'General';                  
CREATE MEMBER CURRENTCUBE.[Measures].[Кол-во с НГ АППГ]
 AS Aggregate(
        PeriodsToDate(
            [Период].[Год-Месяц].[Год], 
            ParallelPeriod([Период].[Год-Месяц].[Год], 1, [Период].[Год-Месяц].CurrentMember))
,	[Measures].[General Количество]), 
VISIBLE = 1 ,  ASSOCIATED_MEASURE_GROUP = 'General';                  

CREATE MEMBER CURRENTCUBE.[Measures].[Изм шт НГ АППГ]
 AS [Measures].[Кол-во с НГ] - [Measures].[Кол-во с НГ АППГ], 
NON_EMPTY_BEHAVIOR = { [General Количество] }, 
VISIBLE = 1 ,  ASSOCIATED_MEASURE_GROUP = 'General';                  

CREATE MEMBER CURRENTCUBE.[Measures].[Изм % НГ АППГ]
 AS IIF([Measures].[Кол-во с НГ АППГ] = 0, 0, IIF([Measures].[Кол-во с НГ] = 0, 0, Round(([Measures].[Кол-во с НГ]/[Measures].[Кол-во с НГ АППГ])*100-100, 2))), 
FORMAT_STRING = "Standard", 
NON_EMPTY_BEHAVIOR = { [General Количество] }, 
VISIBLE = 1 ,  ASSOCIATED_MEASURE_GROUP = 'General'; </Text>
        </Command>
      </Commands>
    </MdxScript>
  </MdxScripts>
  <StorageLocation>F:\OLAP\</StorageLocation>
</Cube>