﻿<Cube xmlns:xsd="http://www.w3.org/2001/XMLSchema" xmlns:xsi="http://www.w3.org/2001/XMLSchema-instance" xmlns:ddl2="http://schemas.microsoft.com/analysisservices/2003/engine/2" xmlns:ddl2_2="http://schemas.microsoft.com/analysisservices/2003/engine/2/2" xmlns:ddl100_100="http://schemas.microsoft.com/analysisservices/2008/engine/100/100" xmlns:ddl200="http://schemas.microsoft.com/analysisservices/2010/engine/200" xmlns:ddl200_200="http://schemas.microsoft.com/analysisservices/2010/engine/200/200" xmlns:ddl300="http://schemas.microsoft.com/analysisservices/2011/engine/300" xmlns:ddl300_300="http://schemas.microsoft.com/analysisservices/2011/engine/300/300" xmlns:ddl400="http://schemas.microsoft.com/analysisservices/2012/engine/400" xmlns:ddl400_400="http://schemas.microsoft.com/analysisservices/2012/engine/400/400" xmlns:dwd="http://schemas.microsoft.com/DataWarehouse/Designer/1.0" dwd:design-time-name="461f4584-a3d7-460f-b2c1-a28f09eb806c" xmlns="http://schemas.microsoft.com/analysisservices/2003/engine">
  <ID>Park</ID>
  <Name>Park</Name>
  <CreatedTimestamp>0001-01-01T00:00:00Z</CreatedTimestamp>
  <LastSchemaUpdate>0001-01-01T00:00:00Z</LastSchemaUpdate>
  <Description>Park</Description>
  <Annotations>
    <Annotation>
      <Name>http://schemas.microsoft.com/DataWarehouse/Designer/1.0:DiagramLayout</Name>
      <Value>
        <dds xmlns="">
          <diagram fontclsid="{0BE35203-8F91-11CE-9DE3-00AA004BB851}" mouseiconclsid="{0BE35204-8F91-11CE-9DE3-00AA004BB851}" defaultlayout="MSDDS.Rectilinear" defaultlineroute="MSDDS.Rectilinear" version="7" nextobject="74" scale="100" pagebreakanchorx="0" pagebreakanchory="0" pagebreaksizex="0" pagebreaksizey="0" scrollleft="-2861" scrolltop="-1803" gridx="150" gridy="150" marginx="5000" marginy="5000" zoom="75" x="20320" y="13996" backcolor="15334399" defaultpersistence="2" PrintPageNumbersMode="3" PrintMarginTop="0" PrintMarginBottom="635" PrintMarginLeft="0" PrintMarginRight="0" marqueeselectionmode="0" mousepointer="0" snaptogrid="0" autotypeannotation="1" showscrollbars="1" viewpagebreaks="0" donotforceconnectorsbehindshapes="1" backpictureclsid="{00000000-0000-0000-0000-000000000000}">
            <font>
              <ddsxmlobjectstreamwrapper binary="01cc0000900144420100065461686f6d61" />
            </font>
            <mouseicon>
              <ddsxmlobjectstreamwrapper binary="6c74000000000000" />
            </mouseicon>
          </diagram>
          <layoutmanager>
            <ddsxmlobj />
          </layoutmanager>
          <ddscontrol controlprogid="DdsShapes.DdsObjectManagedBridge.3" tooltip="DimBodyType" left="8308" top="7870" logicalid="37" controlid="1" masterid="0" hint1="0" hint2="0" width="4154" height="3149" noresize="0" nomove="0" nodefaultattachpoints="0" autodrag="1" usedefaultiddshape="1" selectable="1" showselectionhandles="1" allownudging="1" isannotation="0" dontautolayout="0" groupcollapsed="0" tabstop="1" visible="1" snaptogrid="0">
            <control>
              <ddsxmlobjectstreaminitwrapper binary="000800003a1000004d0c0000" />
            </control>
            <layoutobject>
              <ddsxmlobj>
                <property name="LogicalObject" value="dbo_DimBodyType" vartype="8" />
              </ddsxmlobj>
            </layoutobject>
            <shape groupshapeid="0" groupnode="0" />
          </ddscontrol>
          <ddscontrol controlprogid="DdsShapes.DdsObjectManagedBridge.3" tooltip="vDimModel" left="12017" top="2605" logicalid="38" controlid="2" masterid="0" hint1="0" hint2="0" width="3889" height="5000" noresize="0" nomove="0" nodefaultattachpoints="0" autodrag="1" usedefaultiddshape="1" selectable="1" showselectionhandles="1" allownudging="1" isannotation="0" dontautolayout="0" groupcollapsed="0" tabstop="1" visible="1" snaptogrid="0">
            <control>
              <ddsxmlobjectstreaminitwrapper binary="00080000310f000088130000" />
            </control>
            <layoutobject>
              <ddsxmlobj>
                <property name="LogicalObject" value="dbo_vDimModel" vartype="8" />
              </ddsxmlobj>
            </layoutobject>
            <shape groupshapeid="0" groupnode="0" />
          </ddscontrol>
          <ddscontrol controlprogid="DdsShapes.DdsObjectManagedBridge.3" tooltip="DimCountry" left="4500" top="10896" logicalid="39" controlid="3" masterid="0" hint1="0" hint2="0" width="3000" height="2725" noresize="0" nomove="0" nodefaultattachpoints="0" autodrag="1" usedefaultiddshape="1" selectable="1" showselectionhandles="1" allownudging="1" isannotation="0" dontautolayout="0" groupcollapsed="0" tabstop="1" visible="1" snaptogrid="0">
            <control>
              <ddsxmlobjectstreaminitwrapper binary="00080000b80b0000a50a0000" />
            </control>
            <layoutobject>
              <ddsxmlobj>
                <property name="LogicalObject" value="dbo_DimCountry" vartype="8" />
              </ddsxmlobj>
            </layoutobject>
            <shape groupshapeid="0" groupnode="0" />
          </ddscontrol>
          <ddscontrol controlprogid="MSDDS.Polyline" left="5601" top="7305" logicalid="40" controlid="4" masterid="0" hint1="0" hint2="0" width="7010" height="4091" noresize="0" nomove="0" nodefaultattachpoints="1" autodrag="0" usedefaultiddshape="0" selectable="1" showselectionhandles="0" allownudging="1" isannotation="0" dontautolayout="0" groupcollapsed="0" tabstop="1" visible="1" snaptogrid="0">
            <control>
              <ddsxmlobj>
                <polyline endtypedst="6" endtypesrc="3" usercolor="0" linestyle="0" linerender="1" customendtypedstid="0" customendtypesrcid="0" adornsvisible="1" />
              </ddsxmlobj>
            </control>
            <layoutobject>
              <ddsxmlobj>
                <property name="LogicalObject" value="dataSet.Relations[vDimModel-DimCountry]" vartype="8" />
                <property name="Virtual" value="0" vartype="11" />
                <property name="VisibleAP" value="0" vartype="3" />
              </ddsxmlobj>
            </layoutobject>
            <connector lineroutestyle="MSDDS.Rectilinear" sourceid="3" destid="2" sourceattachpoint="4" destattachpoint="1" segmenteditmode="0" bendpointeditmode="0" bendpointvisibility="0" relatedid="0" virtual="0">
              <point x="6000" y="10896" />
              <point x="6000" y="9198" />
              <point x="12311" y="9198" />
              <point x="12311" y="7605" />
            </connector>
          </ddscontrol>
          <ddscontrol controlprogid="DdsShapes.DdsObjectManagedBridge.3" tooltip="vCalendarShort" left="6429" top="2500" logicalid="41" controlid="5" masterid="0" hint1="0" hint2="0" width="4286" height="5000" noresize="0" nomove="0" nodefaultattachpoints="0" autodrag="1" usedefaultiddshape="1" selectable="1" showselectionhandles="1" allownudging="1" isannotation="0" dontautolayout="0" groupcollapsed="0" tabstop="1" visible="1" snaptogrid="0">
            <control>
              <ddsxmlobjectstreaminitwrapper binary="00080000be10000088130000" />
            </control>
            <layoutobject>
              <ddsxmlobj>
                <property name="LogicalObject" value="dbo_vCalendarShort" vartype="8" />
              </ddsxmlobj>
            </layoutobject>
            <shape groupshapeid="0" groupnode="0" />
          </ddscontrol>
          <ddscontrol controlprogid="DdsShapes.DdsObjectManagedBridge.3" tooltip="DimCurbVehicleWeightPark" left="12222" top="12502" logicalid="42" controlid="6" masterid="0" hint1="0" hint2="0" width="3493" height="3572" noresize="0" nomove="0" nodefaultattachpoints="0" autodrag="1" usedefaultiddshape="1" selectable="1" showselectionhandles="1" allownudging="1" isannotation="0" dontautolayout="0" groupcollapsed="0" tabstop="1" visible="1" snaptogrid="0">
            <control>
              <ddsxmlobjectstreaminitwrapper binary="00080000a50d0000f40d0000" />
            </control>
            <layoutobject>
              <ddsxmlobj>
                <property name="LogicalObject" value="dbo_DimCurbVehicleWeightPark" vartype="8" />
              </ddsxmlobj>
            </layoutobject>
            <shape groupshapeid="0" groupnode="0" />
          </ddscontrol>
          <ddscontrol controlprogid="DdsShapes.DdsObjectManagedBridge.3" tooltip="DimEngineCapacityPark" left="0" top="7144" logicalid="43" controlid="7" masterid="0" hint1="0" hint2="0" width="4842" height="3572" noresize="0" nomove="0" nodefaultattachpoints="0" autodrag="1" usedefaultiddshape="1" selectable="1" showselectionhandles="1" allownudging="1" isannotation="0" dontautolayout="0" groupcollapsed="0" tabstop="1" visible="1" snaptogrid="0">
            <control>
              <ddsxmlobjectstreaminitwrapper binary="00080000ea120000f40d0000" />
            </control>
            <layoutobject>
              <ddsxmlobj>
                <property name="LogicalObject" value="dbo_DimEngineCapacityPark" vartype="8" />
              </ddsxmlobj>
            </layoutobject>
            <shape groupshapeid="0" groupnode="0" />
          </ddscontrol>
          <ddscontrol controlprogid="DdsShapes.DdsObjectManagedBridge.3" tooltip="DimEnginePowerHPark" left="16485" top="0" logicalid="44" controlid="8" masterid="0" hint1="0" hint2="0" width="4710" height="3572" noresize="0" nomove="0" nodefaultattachpoints="0" autodrag="1" usedefaultiddshape="1" selectable="1" showselectionhandles="1" allownudging="1" isannotation="0" dontautolayout="0" groupcollapsed="0" tabstop="1" visible="1" snaptogrid="0">
            <control>
              <ddsxmlobjectstreaminitwrapper binary="0008000066120000f40d0000" />
            </control>
            <layoutobject>
              <ddsxmlobj>
                <property name="LogicalObject" value="dbo_DimEnginePowerHPark" vartype="8" />
              </ddsxmlobj>
            </layoutobject>
            <shape groupshapeid="0" groupnode="0" />
          </ddscontrol>
          <ddscontrol controlprogid="DdsShapes.DdsObjectManagedBridge.3" tooltip="DimEnginePowerKWPark" left="17318" top="5358" logicalid="45" controlid="9" masterid="0" hint1="0" hint2="0" width="4948" height="3572" noresize="0" nomove="0" nodefaultattachpoints="0" autodrag="1" usedefaultiddshape="1" selectable="1" showselectionhandles="1" allownudging="1" isannotation="0" dontautolayout="0" groupcollapsed="0" tabstop="1" visible="1" snaptogrid="0">
            <control>
              <ddsxmlobjectstreaminitwrapper binary="0008000054130000f40d0000" />
            </control>
            <layoutobject>
              <ddsxmlobj>
                <property name="LogicalObject" value="dbo_DimEnginePowerKWPark" vartype="8" />
              </ddsxmlobj>
            </layoutobject>
            <shape groupshapeid="0" groupnode="0" />
          </ddscontrol>
          <ddscontrol controlprogid="DdsShapes.DdsObjectManagedBridge.3" tooltip="DimEuroClass" left="2064" top="4086" logicalid="46" controlid="10" masterid="0" hint1="0" hint2="0" width="4128" height="2725" noresize="0" nomove="0" nodefaultattachpoints="0" autodrag="1" usedefaultiddshape="1" selectable="1" showselectionhandles="1" allownudging="1" isannotation="0" dontautolayout="0" groupcollapsed="0" tabstop="1" visible="1" snaptogrid="0">
            <control>
              <ddsxmlobjectstreaminitwrapper binary="0008000020100000a50a0000" />
            </control>
            <layoutobject>
              <ddsxmlobj>
                <property name="LogicalObject" value="dbo_DimEuroClass" vartype="8" />
              </ddsxmlobj>
            </layoutobject>
            <shape groupshapeid="0" groupnode="0" />
          </ddscontrol>
          <ddscontrol controlprogid="DdsShapes.DdsObjectManagedBridge.3" tooltip="DimFuelType" left="14168" top="9534" logicalid="47" controlid="11" masterid="0" hint1="0" hint2="0" width="4048" height="2725" noresize="0" nomove="0" nodefaultattachpoints="0" autodrag="1" usedefaultiddshape="1" selectable="1" showselectionhandles="1" allownudging="1" isannotation="0" dontautolayout="0" groupcollapsed="0" tabstop="1" visible="1" snaptogrid="0">
            <control>
              <ddsxmlobjectstreaminitwrapper binary="00080000d00f0000a50a0000" />
            </control>
            <layoutobject>
              <ddsxmlobj>
                <property name="LogicalObject" value="dbo_DimFuelType" vartype="8" />
              </ddsxmlobj>
            </layoutobject>
            <shape groupshapeid="0" groupnode="0" />
          </ddscontrol>
          <ddscontrol controlprogid="DdsShapes.DdsObjectManagedBridge.3" tooltip="DimGeography" left="0" top="12500" logicalid="48" controlid="12" masterid="0" hint1="0" hint2="0" width="3572" height="5000" noresize="0" nomove="0" nodefaultattachpoints="0" autodrag="1" usedefaultiddshape="1" selectable="1" showselectionhandles="1" allownudging="1" isannotation="0" dontautolayout="0" groupcollapsed="0" tabstop="1" visible="1" snaptogrid="0">
            <control>
              <ddsxmlobjectstreaminitwrapper binary="00080000f40d000088130000" />
            </control>
            <layoutobject>
              <ddsxmlobj>
                <property name="LogicalObject" value="dbo_DimGeography" vartype="8" />
              </ddsxmlobj>
            </layoutobject>
            <shape groupshapeid="0" groupnode="0" />
          </ddscontrol>
          <ddscontrol controlprogid="DdsShapes.DdsObjectManagedBridge.3" tooltip="DimGrossVehicleWeightPark" left="6984" top="14288" logicalid="49" controlid="13" masterid="0" hint1="0" hint2="0" width="3493" height="3572" noresize="0" nomove="0" nodefaultattachpoints="0" autodrag="1" usedefaultiddshape="1" selectable="1" showselectionhandles="1" allownudging="1" isannotation="0" dontautolayout="0" groupcollapsed="0" tabstop="1" visible="1" snaptogrid="0">
            <control>
              <ddsxmlobjectstreaminitwrapper binary="00080000a50d0000f40d0000" />
            </control>
            <layoutobject>
              <ddsxmlobj>
                <property name="LogicalObject" value="dbo_DimGrossVehicleWeightPark" vartype="8" />
              </ddsxmlobj>
            </layoutobject>
            <shape groupshapeid="0" groupnode="0" />
          </ddscontrol>
          <ddscontrol controlprogid="DdsShapes.DdsObjectManagedBridge.3" tooltip="DimOrigin" left="16308" top="13620" logicalid="50" controlid="14" masterid="0" hint1="0" hint2="0" width="3625" height="2725" noresize="0" nomove="0" nodefaultattachpoints="0" autodrag="1" usedefaultiddshape="1" selectable="1" showselectionhandles="1" allownudging="1" isannotation="0" dontautolayout="0" groupcollapsed="0" tabstop="1" visible="1" snaptogrid="0">
            <control>
              <ddsxmlobjectstreaminitwrapper binary="00080000290e0000a50a0000" />
            </control>
            <layoutobject>
              <ddsxmlobj>
                <property name="LogicalObject" value="dbo_DimOrigin" vartype="8" />
              </ddsxmlobj>
            </layoutobject>
            <shape groupshapeid="0" groupnode="0" />
          </ddscontrol>
          <ddscontrol controlprogid="MSDDS.Polyline" left="7200" top="13058" logicalid="51" controlid="15" masterid="0" hint1="0" hint2="0" width="9408" height="1224" noresize="0" nomove="0" nodefaultattachpoints="1" autodrag="0" usedefaultiddshape="0" selectable="1" showselectionhandles="0" allownudging="1" isannotation="0" dontautolayout="0" groupcollapsed="0" tabstop="1" visible="1" snaptogrid="0">
            <control>
              <ddsxmlobj>
                <polyline endtypedst="6" endtypesrc="3" usercolor="0" linestyle="0" linerender="1" customendtypedstid="0" customendtypesrcid="0" adornsvisible="1" />
              </ddsxmlobj>
            </control>
            <layoutobject>
              <ddsxmlobj>
                <property name="LogicalObject" value="dataSet.Relations[FK_DimCountry_DimOrigin]" vartype="8" />
                <property name="Virtual" value="0" vartype="11" />
                <property name="VisibleAP" value="0" vartype="3" />
              </ddsxmlobj>
            </layoutobject>
            <connector lineroutestyle="MSDDS.Rectilinear" sourceid="14" destid="3" sourceattachpoint="14" destattachpoint="19" segmenteditmode="0" bendpointeditmode="0" bendpointvisibility="0" relatedid="0" virtual="0">
              <point x="16308" y="13882" />
              <point x="11904" y="13882" />
              <point x="11904" y="13358" />
              <point x="7500" y="13358" />
            </connector>
          </ddscontrol>
          <ddscontrol controlprogid="DdsShapes.DdsObjectManagedBridge.3" tooltip="DimOwnerType" left="19647" top="9534" logicalid="52" controlid="16" masterid="0" hint1="0" hint2="0" width="4366" height="2725" noresize="0" nomove="0" nodefaultattachpoints="0" autodrag="1" usedefaultiddshape="1" selectable="1" showselectionhandles="1" allownudging="1" isannotation="0" dontautolayout="0" groupcollapsed="0" tabstop="1" visible="1" snaptogrid="0">
            <control>
              <ddsxmlobjectstreaminitwrapper binary="000800000e110000a50a0000" />
            </control>
            <layoutobject>
              <ddsxmlobj>
                <property name="LogicalObject" value="dbo_DimOwnerType" vartype="8" />
              </ddsxmlobj>
            </layoutobject>
            <shape groupshapeid="0" groupnode="0" />
          </ddscontrol>
          <ddscontrol controlprogid="DdsShapes.DdsObjectManagedBridge.3" tooltip="DimProdYear" left="8996" top="1869" logicalid="53" controlid="17" masterid="0" hint1="0" hint2="0" width="4048" height="3149" noresize="0" nomove="0" nodefaultattachpoints="0" autodrag="1" usedefaultiddshape="1" selectable="1" showselectionhandles="1" allownudging="1" isannotation="0" dontautolayout="0" groupcollapsed="0" tabstop="1" visible="1" snaptogrid="0">
            <control>
              <ddsxmlobjectstreaminitwrapper binary="00080000d00f00004d0c0000" />
            </control>
            <layoutobject>
              <ddsxmlobj>
                <property name="LogicalObject" value="dbo_DimProdYear" vartype="8" />
              </ddsxmlobj>
            </layoutobject>
            <shape groupshapeid="0" groupnode="0" />
          </ddscontrol>
          <ddscontrol controlprogid="DdsShapes.DdsObjectManagedBridge.3" tooltip="DimSteeringWheel" left="18944" top="9534" logicalid="54" controlid="18" masterid="0" hint1="0" hint2="0" width="4736" height="2725" noresize="0" nomove="0" nodefaultattachpoints="0" autodrag="1" usedefaultiddshape="1" selectable="1" showselectionhandles="1" allownudging="1" isannotation="0" dontautolayout="0" groupcollapsed="0" tabstop="1" visible="1" snaptogrid="0">
            <control>
              <ddsxmlobjectstreaminitwrapper binary="0008000080120000a50a0000" />
            </control>
            <layoutobject>
              <ddsxmlobj>
                <property name="LogicalObject" value="dbo_DimSteeringWheel" vartype="8" />
              </ddsxmlobj>
            </layoutobject>
            <shape groupshapeid="0" groupnode="0" />
          </ddscontrol>
          <ddscontrol controlprogid="DdsShapes.DdsObjectManagedBridge.3" tooltip="vSliceParkClients" left="-1411" top="4339" logicalid="55" controlid="19" masterid="0" hint1="0" hint2="0" width="4286" height="5000" noresize="0" nomove="0" nodefaultattachpoints="0" autodrag="1" usedefaultiddshape="1" selectable="1" showselectionhandles="1" allownudging="1" isannotation="0" dontautolayout="0" groupcollapsed="0" tabstop="1" visible="1" snaptogrid="0">
            <control>
              <ddsxmlobjectstreaminitwrapper binary="00080000be10000088130000" />
            </control>
            <layoutobject>
              <ddsxmlobj>
                <property name="LogicalObject" value="dbo_vSliceParkClients" vartype="8" />
              </ddsxmlobj>
            </layoutobject>
            <shape groupshapeid="0" groupnode="0" />
          </ddscontrol>
          <ddscontrol controlprogid="DdsShapes.DdsObjectManagedBridge.3" tooltip="vFactParkClients" left="0" top="0" logicalid="56" controlid="20" masterid="0" hint1="0" hint2="0" width="4445" height="5000" noresize="0" nomove="0" nodefaultattachpoints="0" autodrag="1" usedefaultiddshape="1" selectable="1" showselectionhandles="1" allownudging="1" isannotation="0" dontautolayout="0" groupcollapsed="0" tabstop="1" visible="1" snaptogrid="0">
            <control>
              <ddsxmlobjectstreaminitwrapper binary="000800005d11000088130000" />
            </control>
            <layoutobject>
              <ddsxmlobj>
                <property name="LogicalObject" value="dbo_vFactParkClients" vartype="8" />
              </ddsxmlobj>
            </layoutobject>
            <shape groupshapeid="0" groupnode="0" />
          </ddscontrol>
          <ddscontrol controlprogid="MSDDS.Polyline" left="4145" top="4400" logicalid="57" controlid="21" masterid="0" hint1="0" hint2="0" width="4463" height="4344" noresize="0" nomove="0" nodefaultattachpoints="1" autodrag="0" usedefaultiddshape="0" selectable="1" showselectionhandles="0" allownudging="1" isannotation="0" dontautolayout="0" groupcollapsed="0" tabstop="1" visible="1" snaptogrid="0">
            <control>
              <ddsxmlobj>
                <polyline endtypedst="6" endtypesrc="3" usercolor="0" linestyle="0" linerender="1" customendtypedstid="0" customendtypesrcid="0" adornsvisible="1" />
              </ddsxmlobj>
            </control>
            <layoutobject>
              <ddsxmlobj>
                <property name="LogicalObject" value="dataSet.Relations[vFactParkClients-DimBodyType]" vartype="8" />
                <property name="Virtual" value="0" vartype="11" />
                <property name="VisibleAP" value="0" vartype="3" />
              </ddsxmlobj>
            </layoutobject>
            <connector lineroutestyle="MSDDS.Rectilinear" sourceid="1" destid="20" sourceattachpoint="14" destattachpoint="31" segmenteditmode="0" bendpointeditmode="0" bendpointvisibility="0" relatedid="0" virtual="0">
              <point x="8308" y="8344" />
              <point x="6377" y="8344" />
              <point x="6377" y="4700" />
              <point x="4445" y="4700" />
            </connector>
          </ddscontrol>
          <ddscontrol controlprogid="MSDDS.Polyline" left="3572" top="4700" logicalid="58" controlid="22" masterid="0" hint1="0" hint2="0" width="1728" height="6696" noresize="0" nomove="0" nodefaultattachpoints="1" autodrag="0" usedefaultiddshape="0" selectable="1" showselectionhandles="0" allownudging="1" isannotation="0" dontautolayout="0" groupcollapsed="0" tabstop="1" visible="1" snaptogrid="0">
            <control>
              <ddsxmlobj>
                <polyline endtypedst="6" endtypesrc="3" usercolor="0" linestyle="0" linerender="1" customendtypedstid="0" customendtypesrcid="0" adornsvisible="1" />
              </ddsxmlobj>
            </control>
            <layoutobject>
              <ddsxmlobj>
                <property name="LogicalObject" value="dataSet.Relations[vFactParkClients-DimCountry]" vartype="8" />
                <property name="Virtual" value="0" vartype="11" />
                <property name="VisibleAP" value="0" vartype="3" />
              </ddsxmlobj>
            </layoutobject>
            <connector lineroutestyle="MSDDS.Rectilinear" sourceid="3" destid="20" sourceattachpoint="0" destattachpoint="13" segmenteditmode="0" bendpointeditmode="0" bendpointvisibility="0" relatedid="0" virtual="0">
              <point x="4900" y="10896" />
              <point x="4900" y="7948" />
              <point x="3872" y="7948" />
              <point x="3872" y="5000" />
            </connector>
          </ddscontrol>
          <ddscontrol controlprogid="MSDDS.Polyline" left="4145" top="3300" logicalid="59" controlid="23" masterid="0" hint1="0" hint2="0" width="8377" height="9738" noresize="0" nomove="0" nodefaultattachpoints="1" autodrag="0" usedefaultiddshape="0" selectable="1" showselectionhandles="0" allownudging="1" isannotation="0" dontautolayout="0" groupcollapsed="0" tabstop="1" visible="1" snaptogrid="0">
            <control>
              <ddsxmlobj>
                <polyline endtypedst="6" endtypesrc="3" usercolor="0" linestyle="0" linerender="1" customendtypedstid="0" customendtypesrcid="0" adornsvisible="1" />
              </ddsxmlobj>
            </control>
            <layoutobject>
              <ddsxmlobj>
                <property name="LogicalObject" value="dataSet.Relations[vFactParkClients-DimCurbVehicleWeightPark]" vartype="8" />
                <property name="Virtual" value="0" vartype="11" />
                <property name="VisibleAP" value="0" vartype="3" />
              </ddsxmlobj>
            </layoutobject>
            <connector lineroutestyle="MSDDS.Rectilinear" sourceid="6" destid="20" sourceattachpoint="10" destattachpoint="27" segmenteditmode="0" bendpointeditmode="0" bendpointvisibility="0" relatedid="0" virtual="0">
              <point x="12222" y="12638" />
              <point x="8334" y="12638" />
              <point x="8334" y="3600" />
              <point x="4445" y="3600" />
            </connector>
          </ddscontrol>
          <ddscontrol controlprogid="MSDDS.Polyline" left="372" top="4700" logicalid="60" controlid="24" masterid="0" hint1="0" hint2="0" width="1050" height="2944" noresize="0" nomove="0" nodefaultattachpoints="1" autodrag="0" usedefaultiddshape="0" selectable="1" showselectionhandles="0" allownudging="1" isannotation="0" dontautolayout="0" groupcollapsed="0" tabstop="1" visible="1" snaptogrid="0">
            <control>
              <ddsxmlobj>
                <polyline endtypedst="6" endtypesrc="3" usercolor="0" linestyle="0" linerender="1" customendtypedstid="0" customendtypesrcid="0" adornsvisible="1" />
              </ddsxmlobj>
            </control>
            <layoutobject>
              <ddsxmlobj>
                <property name="LogicalObject" value="dataSet.Relations[vFactParkClients-DimEngineCapacityPark]" vartype="8" />
                <property name="Virtual" value="0" vartype="11" />
                <property name="VisibleAP" value="0" vartype="3" />
              </ddsxmlobj>
            </layoutobject>
            <connector lineroutestyle="MSDDS.Rectilinear" sourceid="7" destid="20" sourceattachpoint="2" destattachpoint="3" segmenteditmode="0" bendpointeditmode="0" bendpointvisibility="0" relatedid="0" virtual="0">
              <point x="771" y="7144" />
              <point x="771" y="6072" />
              <point x="1122" y="6072" />
              <point x="1122" y="5000" />
            </connector>
          </ddscontrol>
          <ddscontrol controlprogid="MSDDS.Polyline" left="4145" top="0" logicalid="61" controlid="25" masterid="0" hint1="0" hint2="0" width="12640" height="1086" noresize="0" nomove="0" nodefaultattachpoints="1" autodrag="0" usedefaultiddshape="0" selectable="1" showselectionhandles="0" allownudging="1" isannotation="0" dontautolayout="0" groupcollapsed="0" tabstop="1" visible="1" snaptogrid="0">
            <control>
              <ddsxmlobj>
                <polyline endtypedst="6" endtypesrc="3" usercolor="0" linestyle="0" linerender="1" customendtypedstid="0" customendtypesrcid="0" adornsvisible="1" />
              </ddsxmlobj>
            </control>
            <layoutobject>
              <ddsxmlobj>
                <property name="LogicalObject" value="dataSet.Relations[vFactParkClients-DimEnginePowerHPark]" vartype="8" />
                <property name="Virtual" value="0" vartype="11" />
                <property name="VisibleAP" value="0" vartype="3" />
              </ddsxmlobj>
            </layoutobject>
            <connector lineroutestyle="MSDDS.Rectilinear" sourceid="8" destid="20" sourceattachpoint="20" destattachpoint="15" segmenteditmode="0" bendpointeditmode="0" bendpointvisibility="0" relatedid="0" virtual="0">
              <point x="16485" y="686" />
              <point x="10465" y="686" />
              <point x="10465" y="300" />
              <point x="4445" y="300" />
            </connector>
          </ddscontrol>
          <ddscontrol controlprogid="MSDDS.Polyline" left="4145" top="1650" logicalid="62" controlid="26" masterid="0" hint1="0" hint2="0" width="13473" height="4244" noresize="0" nomove="0" nodefaultattachpoints="1" autodrag="0" usedefaultiddshape="0" selectable="1" showselectionhandles="0" allownudging="1" isannotation="0" dontautolayout="0" groupcollapsed="0" tabstop="1" visible="1" snaptogrid="0">
            <control>
              <ddsxmlobj>
                <polyline endtypedst="6" endtypesrc="3" usercolor="0" linestyle="0" linerender="1" customendtypedstid="0" customendtypesrcid="0" adornsvisible="1" />
              </ddsxmlobj>
            </control>
            <layoutobject>
              <ddsxmlobj>
                <property name="LogicalObject" value="dataSet.Relations[vFactParkClients-DimEnginePowerKWPark]" vartype="8" />
                <property name="Virtual" value="0" vartype="11" />
                <property name="VisibleAP" value="0" vartype="3" />
              </ddsxmlobj>
            </layoutobject>
            <connector lineroutestyle="MSDDS.Rectilinear" sourceid="9" destid="20" sourceattachpoint="18" destattachpoint="21" segmenteditmode="0" bendpointeditmode="0" bendpointvisibility="0" relatedid="0" virtual="0">
              <point x="17318" y="5494" />
              <point x="10882" y="5494" />
              <point x="10882" y="1950" />
              <point x="4445" y="1950" />
            </connector>
          </ddscontrol>
          <ddscontrol controlprogid="MSDDS.Polyline" left="1764" top="3850" logicalid="63" controlid="27" masterid="0" hint1="0" hint2="0" width="2981" height="898" noresize="0" nomove="0" nodefaultattachpoints="1" autodrag="0" usedefaultiddshape="0" selectable="1" showselectionhandles="0" allownudging="1" isannotation="0" dontautolayout="0" groupcollapsed="0" tabstop="1" visible="1" snaptogrid="0">
            <control>
              <ddsxmlobj>
                <polyline endtypedst="6" endtypesrc="3" usercolor="0" linestyle="0" linerender="1" customendtypedstid="0" customendtypesrcid="0" adornsvisible="1" />
              </ddsxmlobj>
            </control>
            <layoutobject>
              <ddsxmlobj>
                <property name="LogicalObject" value="dataSet.Relations[vFactParkClients-DimEuroClass]" vartype="8" />
                <property name="Virtual" value="0" vartype="11" />
                <property name="VisibleAP" value="0" vartype="3" />
              </ddsxmlobj>
            </layoutobject>
            <connector lineroutestyle="MSDDS.Rectilinear" sourceid="10" destid="20" sourceattachpoint="14" destattachpoint="29" segmenteditmode="0" bendpointeditmode="0" bendpointvisibility="0" relatedid="0" virtual="0">
              <point x="2064" y="4348" />
              <point x="3254" y="4348" />
              <point x="3254" y="4150" />
              <point x="4445" y="4150" />
            </connector>
          </ddscontrol>
          <ddscontrol controlprogid="MSDDS.Polyline" left="4145" top="2750" logicalid="64" controlid="28" masterid="0" hint1="0" hint2="0" width="10323" height="7446" noresize="0" nomove="0" nodefaultattachpoints="1" autodrag="0" usedefaultiddshape="0" selectable="1" showselectionhandles="0" allownudging="1" isannotation="0" dontautolayout="0" groupcollapsed="0" tabstop="1" visible="1" snaptogrid="0">
            <control>
              <ddsxmlobj>
                <polyline endtypedst="6" endtypesrc="3" usercolor="0" linestyle="0" linerender="1" customendtypedstid="0" customendtypesrcid="0" adornsvisible="1" />
              </ddsxmlobj>
            </control>
            <layoutobject>
              <ddsxmlobj>
                <property name="LogicalObject" value="dataSet.Relations[vFactParkClients-DimFuelType]" vartype="8" />
                <property name="Virtual" value="0" vartype="11" />
                <property name="VisibleAP" value="0" vartype="3" />
              </ddsxmlobj>
            </layoutobject>
            <connector lineroutestyle="MSDDS.Rectilinear" sourceid="11" destid="20" sourceattachpoint="14" destattachpoint="25" segmenteditmode="0" bendpointeditmode="0" bendpointvisibility="0" relatedid="0" virtual="0">
              <point x="14168" y="9796" />
              <point x="9307" y="9796" />
              <point x="9307" y="3050" />
              <point x="4445" y="3050" />
            </connector>
          </ddscontrol>
          <ddscontrol controlprogid="MSDDS.Polyline" left="3022" top="4700" logicalid="65" controlid="29" masterid="0" hint1="0" hint2="0" width="5008" height="10088" noresize="0" nomove="0" nodefaultattachpoints="1" autodrag="0" usedefaultiddshape="0" selectable="1" showselectionhandles="0" allownudging="1" isannotation="0" dontautolayout="0" groupcollapsed="0" tabstop="1" visible="1" snaptogrid="0">
            <control>
              <ddsxmlobj>
                <polyline endtypedst="6" endtypesrc="3" usercolor="0" linestyle="0" linerender="1" customendtypedstid="0" customendtypesrcid="0" adornsvisible="1" />
              </ddsxmlobj>
            </control>
            <layoutobject>
              <ddsxmlobj>
                <property name="LogicalObject" value="dataSet.Relations[vFactParkClients-DimGrossVehicleWeightPark]" vartype="8" />
                <property name="Virtual" value="0" vartype="11" />
                <property name="VisibleAP" value="0" vartype="3" />
              </ddsxmlobj>
            </layoutobject>
            <connector lineroutestyle="MSDDS.Rectilinear" sourceid="13" destid="20" sourceattachpoint="0" destattachpoint="11" segmenteditmode="0" bendpointeditmode="0" bendpointvisibility="0" relatedid="0" virtual="0">
              <point x="7630" y="14288" />
              <point x="7630" y="9644" />
              <point x="3322" y="9644" />
              <point x="3322" y="5000" />
            </connector>
          </ddscontrol>
          <ddscontrol controlprogid="MSDDS.Polyline" left="4145" top="2200" logicalid="66" controlid="30" masterid="0" hint1="0" hint2="0" width="12463" height="12632" noresize="0" nomove="0" nodefaultattachpoints="1" autodrag="0" usedefaultiddshape="0" selectable="1" showselectionhandles="0" allownudging="1" isannotation="0" dontautolayout="0" groupcollapsed="0" tabstop="1" visible="1" snaptogrid="0">
            <control>
              <ddsxmlobj>
                <polyline endtypedst="6" endtypesrc="3" usercolor="0" linestyle="0" linerender="1" customendtypedstid="0" customendtypesrcid="0" adornsvisible="1" />
              </ddsxmlobj>
            </control>
            <layoutobject>
              <ddsxmlobj>
                <property name="LogicalObject" value="dataSet.Relations[vFactParkClients-DimOrigin]" vartype="8" />
                <property name="Virtual" value="0" vartype="11" />
                <property name="VisibleAP" value="0" vartype="3" />
              </ddsxmlobj>
            </layoutobject>
            <connector lineroutestyle="MSDDS.Rectilinear" sourceid="14" destid="20" sourceattachpoint="16" destattachpoint="23" segmenteditmode="0" bendpointeditmode="0" bendpointvisibility="0" relatedid="0" virtual="0">
              <point x="16308" y="14432" />
              <point x="10377" y="14432" />
              <point x="10377" y="2500" />
              <point x="4445" y="2500" />
            </connector>
          </ddscontrol>
          <ddscontrol controlprogid="MSDDS.Polyline" left="4145" top="550" logicalid="67" controlid="31" masterid="0" hint1="0" hint2="0" width="15802" height="9646" noresize="0" nomove="0" nodefaultattachpoints="1" autodrag="0" usedefaultiddshape="0" selectable="1" showselectionhandles="0" allownudging="1" isannotation="0" dontautolayout="0" groupcollapsed="0" tabstop="1" visible="1" snaptogrid="0">
            <control>
              <ddsxmlobj>
                <polyline endtypedst="6" endtypesrc="3" usercolor="0" linestyle="0" linerender="1" customendtypedstid="0" customendtypesrcid="0" adornsvisible="1" />
              </ddsxmlobj>
            </control>
            <layoutobject>
              <ddsxmlobj>
                <property name="LogicalObject" value="dataSet.Relations[vFactParkClients-DimOwnerType]" vartype="8" />
                <property name="Virtual" value="0" vartype="11" />
                <property name="VisibleAP" value="0" vartype="3" />
              </ddsxmlobj>
            </layoutobject>
            <connector lineroutestyle="MSDDS.Rectilinear" sourceid="16" destid="20" sourceattachpoint="14" destattachpoint="17" segmenteditmode="0" bendpointeditmode="0" bendpointvisibility="0" relatedid="0" virtual="0">
              <point x="19647" y="9796" />
              <point x="12046" y="9796" />
              <point x="12046" y="850" />
              <point x="4445" y="850" />
            </connector>
          </ddscontrol>
          <ddscontrol controlprogid="MSDDS.Polyline" left="4145" top="1944" logicalid="68" controlid="32" masterid="0" hint1="0" hint2="0" width="5151" height="856" noresize="0" nomove="0" nodefaultattachpoints="1" autodrag="0" usedefaultiddshape="0" selectable="1" showselectionhandles="0" allownudging="1" isannotation="0" dontautolayout="0" groupcollapsed="0" tabstop="1" visible="1" snaptogrid="0">
            <control>
              <ddsxmlobj>
                <polyline endtypedst="6" endtypesrc="3" usercolor="0" linestyle="0" linerender="1" customendtypedstid="0" customendtypesrcid="0" adornsvisible="1" />
              </ddsxmlobj>
            </control>
            <layoutobject>
              <ddsxmlobj>
                <property name="LogicalObject" value="dataSet.Relations[vFactParkClients-DimProdYear]" vartype="8" />
                <property name="Virtual" value="0" vartype="11" />
                <property name="VisibleAP" value="0" vartype="3" />
              </ddsxmlobj>
            </layoutobject>
            <connector lineroutestyle="MSDDS.Rectilinear" sourceid="17" destid="20" sourceattachpoint="14" destattachpoint="23" segmenteditmode="0" bendpointeditmode="0" bendpointvisibility="0" relatedid="0" virtual="0">
              <point x="8996" y="2343" />
              <point x="6721" y="2343" />
              <point x="6721" y="2500" />
              <point x="4445" y="2500" />
            </connector>
          </ddscontrol>
          <ddscontrol controlprogid="MSDDS.Polyline" left="4145" top="1100" logicalid="69" controlid="33" masterid="0" hint1="0" hint2="0" width="15099" height="9096" noresize="0" nomove="0" nodefaultattachpoints="1" autodrag="0" usedefaultiddshape="0" selectable="1" showselectionhandles="0" allownudging="1" isannotation="0" dontautolayout="0" groupcollapsed="0" tabstop="1" visible="1" snaptogrid="0">
            <control>
              <ddsxmlobj>
                <polyline endtypedst="6" endtypesrc="3" usercolor="0" linestyle="0" linerender="1" customendtypedstid="0" customendtypesrcid="0" adornsvisible="1" />
              </ddsxmlobj>
            </control>
            <layoutobject>
              <ddsxmlobj>
                <property name="LogicalObject" value="dataSet.Relations[vFactParkClients-DimSteeringWheel]" vartype="8" />
                <property name="Virtual" value="0" vartype="11" />
                <property name="VisibleAP" value="0" vartype="3" />
              </ddsxmlobj>
            </layoutobject>
            <connector lineroutestyle="MSDDS.Rectilinear" sourceid="18" destid="20" sourceattachpoint="18" destattachpoint="19" segmenteditmode="0" bendpointeditmode="0" bendpointvisibility="0" relatedid="0" virtual="0">
              <point x="18944" y="9796" />
              <point x="11695" y="9796" />
              <point x="11695" y="1400" />
              <point x="4445" y="1400" />
            </connector>
          </ddscontrol>
          <ddscontrol controlprogid="MSDDS.Polyline" left="2575" top="-700" logicalid="70" controlid="34" masterid="0" hint1="0" hint2="0" width="2411" height="5739" noresize="0" nomove="0" nodefaultattachpoints="1" autodrag="0" usedefaultiddshape="0" selectable="1" showselectionhandles="0" allownudging="1" isannotation="0" dontautolayout="0" groupcollapsed="0" tabstop="1" visible="1" snaptogrid="0">
            <control>
              <ddsxmlobj>
                <polyline endtypedst="6" endtypesrc="3" usercolor="0" linestyle="0" linerender="1" customendtypedstid="0" customendtypesrcid="0" adornsvisible="1" />
              </ddsxmlobj>
            </control>
            <layoutobject>
              <ddsxmlobj>
                <property name="LogicalObject" value="dataSet.Relations[vFactParkClients-vSliceParkClients]" vartype="8" />
                <property name="Virtual" value="0" vartype="11" />
                <property name="VisibleAP" value="0" vartype="3" />
              </ddsxmlobj>
            </layoutobject>
            <connector lineroutestyle="MSDDS.Rectilinear" sourceid="19" destid="20" sourceattachpoint="15" destattachpoint="12" segmenteditmode="0" bendpointeditmode="0" bendpointvisibility="0" relatedid="0" virtual="0">
              <point x="2875" y="4639" />
              <point x="4686" y="4639" />
              <point x="4686" y="-400" />
              <point x="3872" y="-400" />
              <point x="3872" y="0" />
            </connector>
          </ddscontrol>
          <ddscontrol controlprogid="DdsShapes.DdsObjectManagedBridge.3" tooltip="DimBodyTypeCategory" left="20910" top="12909" logicalid="71" controlid="35" masterid="0" hint1="0" hint2="0" width="4797" height="4904" noresize="0" nomove="0" nodefaultattachpoints="0" autodrag="1" usedefaultiddshape="1" selectable="1" showselectionhandles="1" allownudging="1" isannotation="0" dontautolayout="0" groupcollapsed="0" tabstop="1" visible="1" snaptogrid="0">
            <control>
              <ddsxmlobjectstreaminitwrapper binary="00080000bd12000028130000" />
            </control>
            <layoutobject>
              <ddsxmlobj>
                <property name="LogicalObject" value="dbo_DimBodyTypeCategory" vartype="8" />
              </ddsxmlobj>
            </layoutobject>
            <shape groupshapeid="0" groupnode="0" />
          </ddscontrol>
          <ddscontrol controlprogid="MSDDS.Polyline" left="272" top="-700" logicalid="72" controlid="36" masterid="0" hint1="0" hint2="0" width="21236" height="14109" noresize="0" nomove="0" nodefaultattachpoints="1" autodrag="0" usedefaultiddshape="0" selectable="1" showselectionhandles="0" allownudging="1" isannotation="0" dontautolayout="0" groupcollapsed="0" tabstop="1" visible="1" snaptogrid="0">
            <control>
              <ddsxmlobj>
                <polyline endtypedst="6" endtypesrc="3" usercolor="0" linestyle="0" linerender="1" customendtypedstid="0" customendtypesrcid="0" adornsvisible="1" />
              </ddsxmlobj>
            </control>
            <layoutobject>
              <ddsxmlobj>
                <property name="LogicalObject" value="dataSet.Relations[vFactParkClients-DimBodyTypeCategory]" vartype="8" />
                <property name="Virtual" value="0" vartype="11" />
                <property name="VisibleAP" value="0" vartype="3" />
              </ddsxmlobj>
            </layoutobject>
            <connector lineroutestyle="MSDDS.Rectilinear" sourceid="35" destid="20" sourceattachpoint="0" destattachpoint="0" segmenteditmode="0" bendpointeditmode="0" bendpointvisibility="0" relatedid="0" virtual="0">
              <point x="21108" y="12909" />
              <point x="21108" y="-400" />
              <point x="572" y="-400" />
              <point x="572" y="0" />
            </connector>
          </ddscontrol>
        </dds>
      </Value>
    </Annotation>
    <Annotation>
      <Name>http://schemas.microsoft.com/DataWarehouse/Designer/1.0:ShowFriendlyNames</Name>
      <Value>true</Value>
    </Annotation>
    <Annotation>
      <Name>http://schemas.microsoft.com/DataWarehouse/Designer/1.0:ShowRelationshipNames</Name>
      <Value>false</Value>
    </Annotation>
    <Annotation>
      <Name>http://schemas.microsoft.com/DataWarehouse/Designer/1.0:UseDiagramDefaultLayout</Name>
      <Value>true</Value>
    </Annotation>
    <Annotation>
      <Name>http://schemas.microsoft.com/DataWarehouse/Designer/1.0:DiagramViewPortLeft</Name>
      <Value>-2861</Value>
    </Annotation>
    <Annotation>
      <Name>http://schemas.microsoft.com/DataWarehouse/Designer/1.0:DiagramViewPortTop</Name>
      <Value>-1803</Value>
    </Annotation>
    <Annotation>
      <Name>http://schemas.microsoft.com/DataWarehouse/Designer/1.0:DiagramBoundingLeft</Name>
      <Value>-1411</Value>
    </Annotation>
    <Annotation>
      <Name>http://schemas.microsoft.com/DataWarehouse/Designer/1.0:DiagramBoundingTop</Name>
      <Value>0</Value>
    </Annotation>
    <Annotation>
      <Name>http://schemas.microsoft.com/DataWarehouse/Designer/1.0:DiagramZoom</Name>
      <Value>75</Value>
    </Annotation>
  </Annotations>
  <LastProcessed>0001-01-01T00:00:00Z</LastProcessed>
  <State>Unprocessed</State>
  <Dimensions>
    <Dimension dwd:design-time-name="a455af43-cf67-40c1-887b-69c6d5efd4dc">
      <ID>VehicleType</ID>
      <Name>VehicleType</Name>
      <Description>@gMaing@@tVehicleTypet@</Description>
      <DimensionID>VehicleType</DimensionID>
      <Attributes>
        <Attribute dwd:design-time-name="d5902541-50e8-45f9-bfcc-0a30d9d21e59">
          <AttributeID>Model Key</AttributeID>
        </Attribute>
        <Attribute dwd:design-time-name="486e71a1-c295-494f-a3bc-92db82fa47fd">
          <AttributeID>Type Vehicle Code</AttributeID>
        </Attribute>
      </Attributes>
    </Dimension>
    <Dimension dwd:design-time-name="2168a2f0-2996-4c4d-8fa1-570e5b0e638d">
      <ID>Owner Type</ID>
      <Name>Owner Type</Name>
      <Description>@gMaing@@tOwner Typet@</Description>
      <DimensionID>Owner Type</DimensionID>
      <Attributes>
        <Attribute dwd:design-time-name="686c4028-71c3-463b-86d5-5ac16dacd442">
          <AttributeID>Owner Type Key</AttributeID>
        </Attribute>
        <Attribute dwd:design-time-name="28e8ae76-60ba-418c-9b8d-01f8932beb9b">
          <AttributeID>Owner Type En</AttributeID>
        </Attribute>
      </Attributes>
    </Dimension>
    <Dimension dwd:design-time-name="45d3cb65-e99d-4219-b7ac-328617ff68ed">
      <ID>Slice Park</ID>
      <Name>Park Data</Name>
      <Description>@gMaing@@tPark Datat@</Description>
      <DimensionID>Slice Park</DimensionID>
      <Attributes>
        <Attribute dwd:design-time-name="69d8b8df-6de8-4618-8eec-d575620dc0dd">
          <AttributeID>Park Date Key</AttributeID>
        </Attribute>
        <Attribute dwd:design-time-name="a5404286-5625-4002-86f9-c832fa653ae9">
          <AttributeID>Slice Date</AttributeID>
        </Attribute>
      </Attributes>
    </Dimension>
    <Dimension dwd:design-time-name="ba467c6f-1bb9-4142-9727-198d02b83485">
      <ID>Geography</ID>
      <Name>Geography</Name>
      <Description>@gMaing@@tGeographyt@</Description>
      <DimensionID>Geography 1</DimensionID>
      <Attributes>
        <Attribute dwd:design-time-name="b5f3959c-37f2-4da3-bb8e-ef0f7db03f00">
          <AttributeID>Geography Key</AttributeID>
        </Attribute>
        <Attribute dwd:design-time-name="18e3b9cd-3bf9-4958-9c9f-a4b028561a2b">
          <AttributeID>Province Tr</AttributeID>
        </Attribute>
        <Attribute dwd:design-time-name="aff031f2-14d7-4186-a127-9aba327e71ee">
          <AttributeID>Area En Full Name</AttributeID>
        </Attribute>
        <Attribute dwd:design-time-name="f2d42248-9736-4d78-abed-85b932ed9ba7">
          <AttributeID>Region Tr</AttributeID>
        </Attribute>
      </Attributes>
      <Hierarchies>
        <Hierarchy dwd:design-time-name="74fe788a-1379-46a5-9160-e5ddf92fddae">
          <HierarchyID>Hierarchy</HierarchyID>
        </Hierarchy>
      </Hierarchies>
      <MemberUniqueNameStyle>NamePath</MemberUniqueNameStyle>
    </Dimension>
    <Dimension dwd:design-time-name="5b2cb2da-fa6c-4ed3-b06c-50abd3ba3efe">
      <ID>Brand Model</ID>
      <Name>Brand Model</Name>
      <Description>@gParameters of vehicleg@@tBrand Modelt@</Description>
      <DimensionID>Brand Model</DimensionID>
      <Attributes>
        <Attribute dwd:design-time-name="6bfe89e3-3c46-4f2d-92ee-8926138a1f87">
          <AttributeID>Model Key</AttributeID>
        </Attribute>
        <Attribute dwd:design-time-name="a80ece9d-74b9-485f-90fa-54a5a2b65a9f">
          <AttributeID>Brand</AttributeID>
        </Attribute>
        <Attribute dwd:design-time-name="43eb7211-6356-4bb2-9885-ddaa5e404552">
          <AttributeID>Model</AttributeID>
        </Attribute>
        <Attribute dwd:design-time-name="9548540d-34d9-442c-a8b3-bf828e18c241">
          <AttributeID>Brand Model</AttributeID>
        </Attribute>
      </Attributes>
      <Hierarchies>
        <Hierarchy dwd:design-time-name="2e2b9981-d581-4283-9165-566233a3c7d3">
          <HierarchyID>Hierarchy</HierarchyID>
        </Hierarchy>
        <Hierarchy dwd:design-time-name="723073e0-b5a3-4195-9362-89fa72c4f3ef">
          <HierarchyID>Hierarchy 1</HierarchyID>
        </Hierarchy>
      </Hierarchies>
    </Dimension>
    <Dimension dwd:design-time-name="cd055ee6-8c75-4f9b-b172-95cea2f76416">
      <ID>Prod Year</ID>
      <Name>Production Year</Name>
      <Description>@gParameters of vehicleg@@tProduction Yeart@</Description>
      <DimensionID>Prod Year</DimensionID>
      <Attributes>
        <Attribute dwd:design-time-name="043b956a-ddb4-45bf-983e-079624163c8a">
          <AttributeID>Prod Year Key</AttributeID>
        </Attribute>
        <Attribute dwd:design-time-name="8e95d269-8bb6-4f01-aaa3-6a68b4856bfb">
          <AttributeID>Prod Year1987</AttributeID>
        </Attribute>
      </Attributes>
    </Dimension>
    <Dimension dwd:design-time-name="b74d5819-87c1-48c1-9840-deae5d5cb5fa">
      <ID>Segment</ID>
      <Name>Segment</Name>
      <Description>@gParameters of vehicleg@@tSegmentt@</Description>
      <DimensionID>Segment</DimensionID>
      <Attributes>
        <Attribute dwd:design-time-name="9983b61f-fd2c-4d3e-ace7-99736e51a8f0">
          <AttributeID>Model Key</AttributeID>
        </Attribute>
        <Attribute dwd:design-time-name="c54bc963-0591-47b0-bbd9-4bbbcf9ee2f2">
          <AttributeID>Segment Autostat</AttributeID>
        </Attribute>
        <Attribute dwd:design-time-name="0fa86b89-bff1-4359-b788-d2a935fe1c9d">
          <AttributeID>Subsegment Autostat</AttributeID>
        </Attribute>
        <Attribute dwd:design-time-name="c8cc73e5-c4d6-44dd-9eb6-1f656b4ad7af">
          <AttributeID>Segment Avtovaz</AttributeID>
        </Attribute>
        <Attribute dwd:design-time-name="36e43c88-379a-4861-ab35-02cb5918bdf1">
          <AttributeID>Segment Daimler</AttributeID>
        </Attribute>
        <Attribute dwd:design-time-name="bfec991d-3ab5-443d-8b5b-891ce33b787a">
          <AttributeID>Segment Daimler Van</AttributeID>
        </Attribute>
      </Attributes>
      <Hierarchies>
        <Hierarchy dwd:design-time-name="9d5e2f4b-ec04-4e5c-bb4c-c1d926047f9e">
          <HierarchyID>Hierarchy</HierarchyID>
        </Hierarchy>
        <Hierarchy dwd:design-time-name="3ed4fee2-54f9-4df0-a52c-ec42ad31316f">
          <HierarchyID>Hierarchy 1</HierarchyID>
        </Hierarchy>
        <Hierarchy dwd:design-time-name="e2b4cd70-3bee-4dee-8af4-3010ecdff245">
          <HierarchyID>Hierarchy 2</HierarchyID>
        </Hierarchy>
        <Hierarchy dwd:design-time-name="7ae554dd-15b9-4fd2-9572-01de11b50111">
          <HierarchyID>Hierarchy 3</HierarchyID>
        </Hierarchy>
      </Hierarchies>
    </Dimension>
    <Dimension dwd:design-time-name="e013d50e-cf53-4284-bea5-261115e6bba0">
      <ID>Body Type Special</ID>
      <Name>Body Type</Name>
      <Description>@gParameters of vehicleg@@tBody Typet@</Description>
      <DimensionID>Body Type Special</DimensionID>
      <Attributes>
        <Attribute dwd:design-time-name="75c2303c-e38d-4da4-8329-418088cd7729">
          <AttributeID>Body Type Special Key</AttributeID>
        </Attribute>
        <Attribute dwd:design-time-name="3320ce73-5397-4c12-b9b0-2753d16f0175">
          <AttributeID>Body Type Special En</AttributeID>
        </Attribute>
        <Attribute dwd:design-time-name="ac061822-73ff-4a51-8747-f3474451b1fd">
          <AttributeID>Body Type Category En</AttributeID>
        </Attribute>
      </Attributes>
      <Hierarchies>
        <Hierarchy dwd:design-time-name="1f09e14d-7e7e-4239-b9d8-47693a72be7e">
          <HierarchyID>Hierarchy</HierarchyID>
        </Hierarchy>
      </Hierarchies>
    </Dimension>
    <Dimension dwd:design-time-name="e314ca4a-0954-4012-818d-2d9fbf7e14b4">
      <ID>Body Type</ID>
      <Name>Body Type Old</Name>
      <Description>@gParameters of vehicleg@@tBody Type Oldt@</Description>
      <DimensionID>Body Type</DimensionID>
      <Visible>false</Visible>
      <Attributes>
        <Attribute dwd:design-time-name="2ae4f6c0-49f8-49c6-85cc-eb6ef1d40d9d">
          <AttributeID>Body Type Key</AttributeID>
        </Attribute>
        <Attribute dwd:design-time-name="76a6b474-c1d4-4f84-a65a-393dbfcb963a">
          <AttributeID>Body Type En</AttributeID>
        </Attribute>
      </Attributes>
    </Dimension>
    <Dimension dwd:design-time-name="9076f697-5ef3-4150-9d47-7ce922f83f2d">
      <ID>Fuel Type</ID>
      <Name>Fuel Type</Name>
      <Description>@gParameters of vehicleg@@tFuel Typet@</Description>
      <DimensionID>Fuel Type</DimensionID>
      <Attributes>
        <Attribute dwd:design-time-name="7f2b2b8e-16f2-42de-9394-d6a0125500db">
          <AttributeID>Fuel Type Key</AttributeID>
        </Attribute>
        <Attribute dwd:design-time-name="50f8d44c-55ef-4b7e-ae79-9923d58ae15e">
          <AttributeID>Fuel Type En</AttributeID>
        </Attribute>
      </Attributes>
    </Dimension>
    <Dimension dwd:design-time-name="615b3003-ff56-4367-a0e7-bb77b7b2a0c5">
      <ID>Euro Class</ID>
      <Name>Euro Class</Name>
      <Description>@gParameters of vehicleg@@tEuro Classt@</Description>
      <DimensionID>Euro Class</DimensionID>
      <Attributes>
        <Attribute dwd:design-time-name="c0d9a8d3-e991-422c-9ac2-87b95b0af9d6">
          <AttributeID>Euro Class Key</AttributeID>
        </Attribute>
        <Attribute dwd:design-time-name="2eb6a7d2-28b1-418b-ba7d-7b7092492266">
          <AttributeID>Euro Class En</AttributeID>
        </Attribute>
      </Attributes>
    </Dimension>
    <Dimension dwd:design-time-name="f6b04e7b-50a3-4bb4-b67b-13d94b069572">
      <ID>Steering Wheel</ID>
      <Name>Steering Wheel</Name>
      <Description>@gParameters of vehicleg@@tSteering Wheelt@</Description>
      <DimensionID>Steering Wheel</DimensionID>
      <Attributes>
        <Attribute dwd:design-time-name="3f2e0e46-7675-4c4f-972a-5fbf05b9590a">
          <AttributeID>Steering Wheel Key</AttributeID>
        </Attribute>
      </Attributes>
    </Dimension>
    <Dimension dwd:design-time-name="ee2f1455-eb48-4fc6-bb35-949c9a5bd991">
      <ID>Engine Capacity Park</ID>
      <Name>Engine Capacity</Name>
      <Description>@gParameters of vehicleg@@tEngine Capacityt@</Description>
      <DimensionID>Engine Capacity Park</DimensionID>
      <Attributes>
        <Attribute dwd:design-time-name="005bd621-d824-40e0-811a-173e175fd967">
          <AttributeID>Engine Capacity Key</AttributeID>
        </Attribute>
        <Attribute dwd:design-time-name="d9c28f61-f3a2-4c10-9b31-86c623dedc4a">
          <AttributeID>Engine Capacity Range Key</AttributeID>
        </Attribute>
      </Attributes>
    </Dimension>
    <Dimension dwd:design-time-name="7a595c0d-25ab-4271-9b72-0695ff769ea5">
      <ID>Engine Power Hp Park</ID>
      <Name>Engine Power H</Name>
      <Description>@gParameters of vehicleg@@tEngine Power Ht@</Description>
      <DimensionID>Engine Power Hp Park</DimensionID>
      <Attributes>
        <Attribute dwd:design-time-name="6762669a-387b-482b-9ab5-5311292b81e6">
          <AttributeID>Engine Power H Key</AttributeID>
        </Attribute>
        <Attribute dwd:design-time-name="b2abe9ef-2e62-4370-895c-b13ac41397d9">
          <AttributeID>Engine Power H Range Key</AttributeID>
        </Attribute>
      </Attributes>
    </Dimension>
    <Dimension dwd:design-time-name="af8cf9ff-fac7-4412-aced-febedeea8f32">
      <ID>Engine Power kWt Park</ID>
      <Name>Engine Power kW</Name>
      <Description>@gParameters of vehicleg@@tEngine Power kWt@</Description>
      <DimensionID>Engine Power kWt Park</DimensionID>
      <Attributes>
        <Attribute dwd:design-time-name="544b8711-eb32-4c59-923c-440f357d0b17">
          <AttributeID>Engine Power KW Key</AttributeID>
        </Attribute>
        <Attribute dwd:design-time-name="72f8d688-7192-48fc-9c5f-7d67d11d9863">
          <AttributeID>Engine Power KW Range Key</AttributeID>
        </Attribute>
      </Attributes>
    </Dimension>
    <Dimension dwd:design-time-name="c09f3f6c-00d3-4e58-be5b-c4443213ae9c">
      <ID>Curb Weight Park</ID>
      <Name>Curb Weight</Name>
      <Description>@gParameters of vehicleg@@tCurb Weightt@</Description>
      <DimensionID>Curb Weight Park</DimensionID>
      <Attributes>
        <Attribute dwd:design-time-name="f66e3579-6d51-433f-a892-34b3c3121390">
          <AttributeID>CVW Key</AttributeID>
        </Attribute>
        <Attribute dwd:design-time-name="879572aa-99a1-4077-9ec7-c1f83c0a9bba">
          <AttributeID>CVW Range Key</AttributeID>
        </Attribute>
      </Attributes>
    </Dimension>
    <Dimension dwd:design-time-name="8f2303bd-0f76-4c67-a6bc-b789ecfe8ce9">
      <ID>Gross Weight Park</ID>
      <Name>Gross Weight</Name>
      <Description>@gParameters of vehicleg@@tGross Weightt@</Description>
      <DimensionID>Gross Weight Park</DimensionID>
      <Attributes>
        <Attribute dwd:design-time-name="8af9fd93-bcc3-493f-aced-f0fffb60e199">
          <AttributeID>GVW Key</AttributeID>
        </Attribute>
        <Attribute dwd:design-time-name="d8219bb4-162e-42c1-884e-6c74b5f8d3d6">
          <AttributeID>GVW Range Key</AttributeID>
        </Attribute>
      </Attributes>
    </Dimension>
    <Dimension dwd:design-time-name="8083ec75-eb7e-4c1d-a5dc-7f9e648344ea">
      <ID>Production Country</ID>
      <Name>Production Country</Name>
      <Description>@gAdditionalg@@tProduction Countryt@</Description>
      <DimensionID>Production Country</DimensionID>
      <Attributes>
        <Attribute dwd:design-time-name="9834789a-a5e4-44d7-8a38-8d3092261047">
          <AttributeID>Country Key</AttributeID>
        </Attribute>
      </Attributes>
    </Dimension>
    <Dimension dwd:design-time-name="d7dde7b1-3372-4625-9e72-30db6df03967">
      <ID>Brand Origin</ID>
      <Name>Brand Country</Name>
      <Description>@gAdditionalg@@tBrand Countryt@</Description>
      <DimensionID>Brand Origin</DimensionID>
      <Attributes>
        <Attribute dwd:design-time-name="490d55d9-52d1-4ccf-a904-c96208a7c348">
          <AttributeID>Model Key</AttributeID>
        </Attribute>
        <Attribute dwd:design-time-name="b91ca3ed-fe8b-477d-8474-cd2e19bb9f5d">
          <AttributeID>Brand Country Key</AttributeID>
        </Attribute>
      </Attributes>
    </Dimension>
  </Dimensions>
  <CubePermissions>
    <CubePermission dwd:design-time-name="1c3efd88-12b8-4324-9c96-d95cd56b8bde">
      <ID>CubePermission</ID>
      <Name>CubePermission</Name>
      <CreatedTimestamp>0001-01-01T00:00:00Z</CreatedTimestamp>
      <LastSchemaUpdate>0001-01-01T00:00:00Z</LastSchemaUpdate>
      <RoleID>Role</RoleID>
      <Read>Allowed</Read>
      <ReadSourceData>None</ReadSourceData>
      <DimensionPermissions>
        <DimensionPermission dwd:design-time-name="06896674-8c85-493a-8633-143d84551fb8">
          <CubeDimensionID>Slice Park</CubeDimensionID>
          <Read>Allowed</Read>
          <AttributePermissions>
            <AttributePermission dwd:design-time-name="b0572e6d-599a-4e46-9ba3-f08006f486d3">
              <AttributeID>Park Date Key</AttributeID>
            </AttributePermission>
            <AttributePermission dwd:design-time-name="30412e5b-b493-487e-a15f-8256a42e1936">
              <AttributeID>Slice Date</AttributeID>
              <AllowedSet>{[Park Data].[Park Data].&amp;[2016/01/01]}</AllowedSet>
              <VisualTotals>1</VisualTotals>
            </AttributePermission>
          </AttributePermissions>
        </DimensionPermission>
        <DimensionPermission dwd:design-time-name="43b5d025-ac63-4ed3-aaa0-79728e4e71ee">
          <CubeDimensionID>VehicleType</CubeDimensionID>
          <Read>Allowed</Read>
          <AttributePermissions>
            <AttributePermission dwd:design-time-name="2e8b9c60-1439-4fbb-a512-218bb79af2df">
              <AttributeID>Model Key</AttributeID>
            </AttributePermission>
            <AttributePermission dwd:design-time-name="6bc9e177-5088-4734-8160-8630145b6994">
              <AttributeID>Type Vehicle Code</AttributeID>
              <AllowedSet>{[VehicleType].[VehicleType].&amp;[PC]}</AllowedSet>
              <VisualTotals>1</VisualTotals>
            </AttributePermission>
          </AttributePermissions>
        </DimensionPermission>
        <DimensionPermission dwd:design-time-name="a9d73ee0-f5eb-4eaf-8383-a57baf72184a">
          <CubeDimensionID>Segment</CubeDimensionID>
          <Read>Allowed</Read>
          <AttributePermissions>
            <AttributePermission dwd:design-time-name="a6a1cd86-673b-4dc1-b590-4881413bcdc2">
              <AttributeID>Model Key</AttributeID>
            </AttributePermission>
            <AttributePermission dwd:design-time-name="c2d1148c-edf4-417e-81fd-c5d1605dec2d">
              <AttributeID>Segment Avtovaz</AttributeID>
            </AttributePermission>
            <AttributePermission dwd:design-time-name="4f7e1834-8679-482a-8246-3ed63ece7a8e">
              <AttributeID>Segment Daimler</AttributeID>
            </AttributePermission>
            <AttributePermission dwd:design-time-name="fb6325b3-8e0b-48ac-ae51-c1c0ebda6b63">
              <AttributeID>Segment Daimler Van</AttributeID>
            </AttributePermission>
          </AttributePermissions>
        </DimensionPermission>
      </DimensionPermissions>
    </CubePermission>
    <CubePermission dwd:design-time-name="b11933db-734b-40c1-ac3b-08f995bc4bb3">
      <ID>CubePermission 1</ID>
      <Name>CubePermission 1</Name>
      <CreatedTimestamp>0001-01-01T00:00:00Z</CreatedTimestamp>
      <LastSchemaUpdate>0001-01-01T00:00:00Z</LastSchemaUpdate>
      <RoleID>Park Test En</RoleID>
      <Read>Allowed</Read>
      <ReadSourceData>None</ReadSourceData>
      <DimensionPermissions>
        <DimensionPermission dwd:design-time-name="965921d0-ffc2-4d63-8025-011d24548c1d">
          <CubeDimensionID>Geography</CubeDimensionID>
          <Read>Allowed</Read>
          <AttributePermissions>
            <AttributePermission dwd:design-time-name="810ee674-fabd-457d-be44-e784c3d87160">
              <AttributeID>Area En Full Name</AttributeID>
              <AllowedSet>{[Geography].[Federal district].&amp;[Ural Federal District]}</AllowedSet>
              <VisualTotals>1</VisualTotals>
            </AttributePermission>
          </AttributePermissions>
        </DimensionPermission>
        <DimensionPermission dwd:design-time-name="8780d9e1-7733-4076-abd2-6b28e5d17e66">
          <CubeDimensionID>Slice Park</CubeDimensionID>
          <Read>Allowed</Read>
          <AttributePermissions>
            <AttributePermission dwd:design-time-name="87ed23d9-0131-4f89-a683-e51404c5d599">
              <AttributeID>Park Date Key</AttributeID>
            </AttributePermission>
            <AttributePermission dwd:design-time-name="a4c8e13a-ecdf-4c7e-900e-6cbe06986bde">
              <AttributeID>Slice Date</AttributeID>
              <AllowedSet>{[Park Data].[Park Data].&amp;[2014/01/01]}</AllowedSet>
              <VisualTotals>1</VisualTotals>
            </AttributePermission>
          </AttributePermissions>
        </DimensionPermission>
        <DimensionPermission dwd:design-time-name="c1565113-24f1-401d-b3a9-34142823d8da">
          <CubeDimensionID>VehicleType</CubeDimensionID>
          <Read>Allowed</Read>
          <AttributePermissions>
            <AttributePermission dwd:design-time-name="c2b36152-0c5c-4e5a-a595-910655aca56b">
              <AttributeID>Model Key</AttributeID>
            </AttributePermission>
            <AttributePermission dwd:design-time-name="87905643-ff87-4c90-a2e2-4e8d0925d405">
              <AttributeID>Type Vehicle Code</AttributeID>
              <AllowedSet>{[VehicleType].[VehicleType].&amp;[BUS], [VehicleType].[VehicleType].&amp;[HCV], [VehicleType].[VehicleType].&amp;[LCV], [VehicleType].[VehicleType].&amp;[PC]}</AllowedSet>
              <VisualTotals>1</VisualTotals>
            </AttributePermission>
          </AttributePermissions>
        </DimensionPermission>
      </DimensionPermissions>
    </CubePermission>
    <CubePermission dwd:design-time-name="8423ab6b-cdd3-4c52-9baa-e47ce2c8fe03">
      <ID>CubePermission 2</ID>
      <Name>CubePermission 2</Name>
      <CreatedTimestamp>0001-01-01T00:00:00Z</CreatedTimestamp>
      <LastSchemaUpdate>0001-01-01T00:00:00Z</LastSchemaUpdate>
      <RoleID>Registration En</RoleID>
      <ReadSourceData>None</ReadSourceData>
    </CubePermission>
    <CubePermission dwd:design-time-name="0523dbb4-fccb-4e4b-b501-aca511de7d32">
      <ID>CubePermission 3</ID>
      <Name>CubePermission 3</Name>
      <CreatedTimestamp>0001-01-01T00:00:00Z</CreatedTimestamp>
      <LastSchemaUpdate>0001-01-01T00:00:00Z</LastSchemaUpdate>
      <RoleID>Park En</RoleID>
      <Read>Allowed</Read>
      <ReadSourceData>None</ReadSourceData>
      <DimensionPermissions>
        <DimensionPermission dwd:design-time-name="fa5cb778-0ef2-4df6-bda7-5140130ee32f">
          <CubeDimensionID>Slice Park</CubeDimensionID>
          <Read>Allowed</Read>
          <AttributePermissions>
            <AttributePermission dwd:design-time-name="ba0b2762-b595-4644-a9c5-1f061bde1ce0">
              <AttributeID>Slice Date</AttributeID>
              <AllowedSet>{[Park Data].[Park Data].&amp;[2015/01/01]}</AllowedSet>
              <VisualTotals>1</VisualTotals>
            </AttributePermission>
          </AttributePermissions>
        </DimensionPermission>
      </DimensionPermissions>
    </CubePermission>
  </CubePermissions>
  <MeasureGroups>
    <MeasureGroup dwd:design-time-name="6e908ab3-4717-417f-94e2-71317e51a623">
      <ID>v Fact Park Clients</ID>
      <Name>Park</Name>
      <CreatedTimestamp>0001-01-01T00:00:00Z</CreatedTimestamp>
      <LastSchemaUpdate>0001-01-01T00:00:00Z</LastSchemaUpdate>
      <LastProcessed>0001-01-01T00:00:00Z</LastProcessed>
      <State>Unprocessed</State>
      <Measures>
        <Measure dwd:design-time-name="93cd5661-6308-4522-9741-5422964512b5">
          <ID>Quantity</ID>
          <Name>Units</Name>
          <Source dwd:design-time-name="f67e7712-c5cd-49dc-af9b-b450a0cfb170">
            <DataType>Integer</DataType>
            <Source xsi:type="ColumnBinding" dwd:design-time-name="aecb705f-ded7-4ddd-b6f4-86d6389bd80c">
              <TableID>dbo_vFactParkClients</TableID>
              <ColumnID>Quantity</ColumnID>
            </Source>
          </Source>
        </Measure>
      </Measures>
      <StorageMode>Molap</StorageMode>
      <ProcessingMode>Regular</ProcessingMode>
      <Dimensions>
        <Dimension xsi:type="RegularMeasureGroupDimension" dwd:design-time-name="f7a03f66-c10c-444e-9eae-978f640dee77">
          <CubeDimensionID>Body Type</CubeDimensionID>
          <Attributes>
            <Attribute dwd:design-time-name="d8c16ca2-7582-43a8-90d2-4fc284856d39">
              <AttributeID>Body Type Key</AttributeID>
              <KeyColumns>
                <KeyColumn dwd:design-time-name="2326d72d-82c1-4713-8ffe-b0b8a0afc950">
                  <DataType>SmallInt</DataType>
                  <Source xsi:type="ColumnBinding" dwd:design-time-name="6cb36f5c-0d07-4529-bbcb-3c9fd17b2e51">
                    <TableID>dbo_vFactParkClients</TableID>
                    <ColumnID>BodyTypeKey</ColumnID>
                  </Source>
                </KeyColumn>
              </KeyColumns>
              <Type>Granularity</Type>
            </Attribute>
          </Attributes>
        </Dimension>
        <Dimension xsi:type="RegularMeasureGroupDimension" dwd:design-time-name="8cc5782b-7663-429e-bd24-772b1fe45200">
          <CubeDimensionID>Production Country</CubeDimensionID>
          <Attributes>
            <Attribute dwd:design-time-name="040f29c0-c93d-4e72-884b-0f259a5abc70">
              <AttributeID>Country Key</AttributeID>
              <KeyColumns>
                <KeyColumn dwd:design-time-name="113c7ee0-4ec7-48d7-ab33-806ce1d3eb79">
                  <DataType>SmallInt</DataType>
                  <Source xsi:type="ColumnBinding" dwd:design-time-name="438b0c89-3206-4777-b745-19c889b0660e">
                    <TableID>dbo_vFactParkClients</TableID>
                    <ColumnID>CountryKey</ColumnID>
                  </Source>
                </KeyColumn>
              </KeyColumns>
              <Type>Granularity</Type>
            </Attribute>
          </Attributes>
        </Dimension>
        <Dimension xsi:type="RegularMeasureGroupDimension" dwd:design-time-name="1b8fa5c5-72cf-4568-9b39-8f4aa512ce6f">
          <CubeDimensionID>Curb Weight Park</CubeDimensionID>
          <Attributes>
            <Attribute dwd:design-time-name="f780e0b5-235c-47af-9a74-aaf4779b1dcb">
              <AttributeID>CVW Key</AttributeID>
              <KeyColumns>
                <KeyColumn dwd:design-time-name="1cb73d37-f544-45ba-889a-8ec6e3deb88f">
                  <DataType>Integer</DataType>
                  <Source xsi:type="ColumnBinding" dwd:design-time-name="a7401b22-a527-429b-a10c-931e66e273ea">
                    <TableID>dbo_vFactParkClients</TableID>
                    <ColumnID>CVWKey</ColumnID>
                  </Source>
                </KeyColumn>
              </KeyColumns>
              <Type>Granularity</Type>
            </Attribute>
          </Attributes>
        </Dimension>
        <Dimension xsi:type="RegularMeasureGroupDimension" dwd:design-time-name="ab61c35b-77f6-498f-8f3b-14e082f0c01c">
          <CubeDimensionID>Engine Capacity Park</CubeDimensionID>
          <Attributes>
            <Attribute dwd:design-time-name="b8255da1-6ab6-42bd-a8ca-76f1bd7f87d1">
              <AttributeID>Engine Capacity Key</AttributeID>
              <KeyColumns>
                <KeyColumn dwd:design-time-name="ad83daaf-da6f-4486-b3ec-829b1b9f801b">
                  <DataType>Integer</DataType>
                  <Source xsi:type="ColumnBinding" dwd:design-time-name="f15ab2a8-6be4-4433-b4b0-88ae6c280923">
                    <TableID>dbo_vFactParkClients</TableID>
                    <ColumnID>EngineCapacityKey</ColumnID>
                  </Source>
                </KeyColumn>
              </KeyColumns>
              <Type>Granularity</Type>
            </Attribute>
          </Attributes>
        </Dimension>
        <Dimension xsi:type="RegularMeasureGroupDimension" dwd:design-time-name="d612c0df-e672-4fc9-84af-d99ca48aa630">
          <CubeDimensionID>Engine Power Hp Park</CubeDimensionID>
          <Attributes>
            <Attribute dwd:design-time-name="e5094e9e-d924-4bfe-9504-feb78a93d285">
              <AttributeID>Engine Power H Key</AttributeID>
              <KeyColumns>
                <KeyColumn dwd:design-time-name="a4070147-d942-40aa-89ef-502983246625">
                  <DataType>Integer</DataType>
                  <Source xsi:type="ColumnBinding" dwd:design-time-name="ceb494ac-4f0c-40a4-ad69-663c6df9303d">
                    <TableID>dbo_vFactParkClients</TableID>
                    <ColumnID>EnginePowerHKey</ColumnID>
                  </Source>
                </KeyColumn>
              </KeyColumns>
              <Type>Granularity</Type>
            </Attribute>
          </Attributes>
        </Dimension>
        <Dimension xsi:type="RegularMeasureGroupDimension" dwd:design-time-name="4f693dbc-ca54-4a4f-a0f8-6005962ec0b1">
          <CubeDimensionID>Engine Power kWt Park</CubeDimensionID>
          <Attributes>
            <Attribute dwd:design-time-name="3589ef92-afee-4b1c-9754-51f65a117007">
              <AttributeID>Engine Power KW Key</AttributeID>
              <KeyColumns>
                <KeyColumn dwd:design-time-name="49de8ed7-1e4b-4851-9c7a-8830840dc17f">
                  <DataType>Integer</DataType>
                  <Source xsi:type="ColumnBinding" dwd:design-time-name="1226a012-d350-4f11-bada-e5ff7c3734bf">
                    <TableID>dbo_vFactParkClients</TableID>
                    <ColumnID>EnginePowerKWKey</ColumnID>
                  </Source>
                </KeyColumn>
              </KeyColumns>
              <Type>Granularity</Type>
            </Attribute>
          </Attributes>
        </Dimension>
        <Dimension xsi:type="RegularMeasureGroupDimension" dwd:design-time-name="8ffc5e95-7b01-4620-a436-e873a32a2e70">
          <CubeDimensionID>Euro Class</CubeDimensionID>
          <Attributes>
            <Attribute dwd:design-time-name="546449e4-1dcb-4aab-b3ad-c631c7674aff">
              <AttributeID>Euro Class Key</AttributeID>
              <KeyColumns>
                <KeyColumn dwd:design-time-name="b168b302-921c-4cc0-b04c-52d6a6cbc5c1">
                  <DataType>SmallInt</DataType>
                  <Source xsi:type="ColumnBinding" dwd:design-time-name="66bcf14a-b408-4b96-88f1-979a22a4153c">
                    <TableID>dbo_vFactParkClients</TableID>
                    <ColumnID>EuroClassKey</ColumnID>
                  </Source>
                </KeyColumn>
              </KeyColumns>
              <Type>Granularity</Type>
            </Attribute>
          </Attributes>
        </Dimension>
        <Dimension xsi:type="RegularMeasureGroupDimension" dwd:design-time-name="3ac701a8-fd55-4828-8bac-ddad11833744">
          <CubeDimensionID>Fuel Type</CubeDimensionID>
          <Attributes>
            <Attribute dwd:design-time-name="4c149a78-1a43-4ab0-86bb-d9cd65b1e32b">
              <AttributeID>Fuel Type Key</AttributeID>
              <KeyColumns>
                <KeyColumn dwd:design-time-name="68d0ed41-f5de-4b1d-897f-6b7141cd474b">
                  <DataType>SmallInt</DataType>
                  <Source xsi:type="ColumnBinding" dwd:design-time-name="6b6e51b0-20fd-4137-bc90-c892f405c413">
                    <TableID>dbo_vFactParkClients</TableID>
                    <ColumnID>FuelTypeKey</ColumnID>
                  </Source>
                </KeyColumn>
              </KeyColumns>
              <Type>Granularity</Type>
            </Attribute>
          </Attributes>
        </Dimension>
        <Dimension xsi:type="RegularMeasureGroupDimension" dwd:design-time-name="836f19de-826b-4cff-93ca-906f9b5d7b11">
          <CubeDimensionID>Geography</CubeDimensionID>
          <Attributes>
            <Attribute dwd:design-time-name="5dfa8d81-e3b1-4e36-acdf-c132e4a68066">
              <AttributeID>Geography Key</AttributeID>
              <KeyColumns>
                <KeyColumn dwd:design-time-name="9ca1e15f-f44a-41b9-82a0-f943861de0f7">
                  <DataType>Integer</DataType>
                  <Source xsi:type="ColumnBinding" dwd:design-time-name="220c3f26-577b-4ad3-8734-dac8aa7df018">
                    <TableID>dbo_vFactParkClients</TableID>
                    <ColumnID>GeographyKey</ColumnID>
                  </Source>
                </KeyColumn>
              </KeyColumns>
              <Type>Granularity</Type>
            </Attribute>
          </Attributes>
        </Dimension>
        <Dimension xsi:type="RegularMeasureGroupDimension" dwd:design-time-name="7561245c-6f0c-4de6-b7c3-34d0052febaa">
          <CubeDimensionID>Gross Weight Park</CubeDimensionID>
          <Attributes>
            <Attribute dwd:design-time-name="3c66c52f-16d8-4fa3-b35d-3f948a6abda3">
              <AttributeID>GVW Key</AttributeID>
              <KeyColumns>
                <KeyColumn dwd:design-time-name="be943e90-71c6-49f8-a32c-f3fba207a3a1">
                  <DataType>Integer</DataType>
                  <Source xsi:type="ColumnBinding" dwd:design-time-name="9dd5f348-5360-4429-a0b0-c3aa6fce098b">
                    <TableID>dbo_vFactParkClients</TableID>
                    <ColumnID>GVWKey</ColumnID>
                  </Source>
                </KeyColumn>
              </KeyColumns>
              <Type>Granularity</Type>
            </Attribute>
          </Attributes>
        </Dimension>
        <Dimension xsi:type="RegularMeasureGroupDimension" dwd:design-time-name="7a6b11ad-028e-4202-9453-53122bc948e8">
          <CubeDimensionID>Owner Type</CubeDimensionID>
          <Attributes>
            <Attribute dwd:design-time-name="8a565718-09b4-4f80-8e7a-76bd679a8473">
              <AttributeID>Owner Type Key</AttributeID>
              <KeyColumns>
                <KeyColumn dwd:design-time-name="2b367582-8bf1-4e0a-9a97-5f2135cf479c">
                  <DataType>SmallInt</DataType>
                  <Source xsi:type="ColumnBinding" dwd:design-time-name="1fd0a3b7-8e9c-482c-9411-3741f14f8d63">
                    <TableID>dbo_vFactParkClients</TableID>
                    <ColumnID>OwnerTypeKey</ColumnID>
                  </Source>
                </KeyColumn>
              </KeyColumns>
              <Type>Granularity</Type>
            </Attribute>
          </Attributes>
        </Dimension>
        <Dimension xsi:type="RegularMeasureGroupDimension" dwd:design-time-name="74eb7529-a571-4855-9ebe-33135610ae05">
          <CubeDimensionID>Prod Year</CubeDimensionID>
          <Attributes>
            <Attribute dwd:design-time-name="944520a8-da6a-41cb-93a7-0493ffaa538c">
              <AttributeID>Prod Year Key</AttributeID>
              <KeyColumns>
                <KeyColumn dwd:design-time-name="a83adec0-6070-4632-9626-765d1ac61350">
                  <DataType>Integer</DataType>
                  <Source xsi:type="ColumnBinding" dwd:design-time-name="2dd36adb-7969-45b0-af0e-95578a287b14">
                    <TableID>dbo_vFactParkClients</TableID>
                    <ColumnID>ProdYearKey</ColumnID>
                  </Source>
                </KeyColumn>
              </KeyColumns>
              <Type>Granularity</Type>
            </Attribute>
          </Attributes>
        </Dimension>
        <Dimension xsi:type="RegularMeasureGroupDimension" dwd:design-time-name="9eec2844-ba52-49b0-b64e-8ae2aa36501c">
          <CubeDimensionID>Steering Wheel</CubeDimensionID>
          <Attributes>
            <Attribute dwd:design-time-name="674423fa-ca40-4e06-a1a4-9fd229147c95">
              <AttributeID>Steering Wheel Key</AttributeID>
              <KeyColumns>
                <KeyColumn dwd:design-time-name="d4bd17a9-44dd-40a2-bee5-14169eb86b3c">
                  <DataType>SmallInt</DataType>
                  <Source xsi:type="ColumnBinding" dwd:design-time-name="86213453-06c7-4a81-93de-26483e2de3dd">
                    <TableID>dbo_vFactParkClients</TableID>
                    <ColumnID>SteeringWheelKey</ColumnID>
                  </Source>
                </KeyColumn>
              </KeyColumns>
              <Type>Granularity</Type>
            </Attribute>
          </Attributes>
        </Dimension>
        <Dimension xsi:type="RegularMeasureGroupDimension" dwd:design-time-name="dc42ba15-d6e0-4684-a34b-2f99f689ee41">
          <CubeDimensionID>Slice Park</CubeDimensionID>
          <Attributes>
            <Attribute dwd:design-time-name="658283c5-86e5-4394-9778-4561ecb25fb3">
              <AttributeID>Park Date Key</AttributeID>
              <KeyColumns>
                <KeyColumn dwd:design-time-name="4255acf7-9438-4f10-a131-94ef2cad97b6">
                  <DataType>Integer</DataType>
                  <Source xsi:type="ColumnBinding" dwd:design-time-name="ee61125b-e283-4ca6-9657-a1e8abc167ba">
                    <TableID>dbo_vFactParkClients</TableID>
                    <ColumnID>ParkDateKey</ColumnID>
                  </Source>
                </KeyColumn>
              </KeyColumns>
              <Type>Granularity</Type>
            </Attribute>
          </Attributes>
        </Dimension>
        <Dimension xsi:type="RegularMeasureGroupDimension" dwd:design-time-name="dd00ed8f-a7d7-4462-a2be-8cf798ba7bae">
          <CubeDimensionID>Body Type Special</CubeDimensionID>
          <Attributes>
            <Attribute dwd:design-time-name="123848a7-c255-436f-a674-64fcb13a6a6b">
              <AttributeID>Body Type Special Key</AttributeID>
              <KeyColumns>
                <KeyColumn dwd:design-time-name="68e3da93-3e00-49b9-8d02-fc18ed0a14da">
                  <DataType>Integer</DataType>
                  <Source xsi:type="ColumnBinding" dwd:design-time-name="786783c1-8533-4b9b-8ed7-605256139552">
                    <TableID>dbo_vFactParkClients</TableID>
                    <ColumnID>BodyTypeSpecialKey</ColumnID>
                  </Source>
                </KeyColumn>
              </KeyColumns>
              <Type>Granularity</Type>
            </Attribute>
          </Attributes>
        </Dimension>
        <Dimension xsi:type="RegularMeasureGroupDimension" dwd:design-time-name="3478c7f9-d233-4d81-97cd-3db016d43bf5">
          <CubeDimensionID>Segment</CubeDimensionID>
          <Attributes>
            <Attribute dwd:design-time-name="4d5366dd-6a3f-4294-b470-04d33c871068">
              <AttributeID>Model Key</AttributeID>
              <KeyColumns>
                <KeyColumn dwd:design-time-name="80cfa1af-6c9c-422c-8470-b74b18a863eb">
                  <DataType>Integer</DataType>
                  <Source xsi:type="ColumnBinding" dwd:design-time-name="06c6c443-420d-4f6e-aab8-a7d5fe9e56d7">
                    <TableID>dbo_vFactParkClients</TableID>
                    <ColumnID>ModelKey</ColumnID>
                  </Source>
                </KeyColumn>
              </KeyColumns>
              <Type>Granularity</Type>
            </Attribute>
          </Attributes>
        </Dimension>
        <Dimension xsi:type="RegularMeasureGroupDimension" dwd:design-time-name="68ff6f32-70bf-413d-81d2-c8902d92acd8">
          <CubeDimensionID>Brand Origin</CubeDimensionID>
          <Attributes>
            <Attribute dwd:design-time-name="92f337c4-3bc8-47af-bb2a-3bc45d6f2610">
              <AttributeID>Model Key</AttributeID>
              <KeyColumns>
                <KeyColumn dwd:design-time-name="c1bf2030-8da3-4c85-ac3c-dde75cc0bb09">
                  <DataType>Integer</DataType>
                  <Source xsi:type="ColumnBinding" dwd:design-time-name="c0bbaed2-9b6c-4889-b9c7-b37faac92845">
                    <TableID>dbo_vFactParkClients</TableID>
                    <ColumnID>ModelKey</ColumnID>
                  </Source>
                </KeyColumn>
              </KeyColumns>
              <Type>Granularity</Type>
            </Attribute>
          </Attributes>
        </Dimension>
        <Dimension xsi:type="RegularMeasureGroupDimension" dwd:design-time-name="2d3ac8af-a8c2-4607-80cf-1b53d4232e8b">
          <CubeDimensionID>VehicleType</CubeDimensionID>
          <Attributes>
            <Attribute dwd:design-time-name="d640630a-f442-4b4e-8e8c-348993b8526c">
              <AttributeID>Model Key</AttributeID>
              <KeyColumns>
                <KeyColumn dwd:design-time-name="50d842d9-21a5-4c85-9589-fd01537f18b5">
                  <DataType>Integer</DataType>
                  <Source xsi:type="ColumnBinding" dwd:design-time-name="b209c5b1-fd84-4e7a-9090-44d73cfef860">
                    <TableID>dbo_vFactParkClients</TableID>
                    <ColumnID>ModelKey</ColumnID>
                  </Source>
                </KeyColumn>
              </KeyColumns>
              <Type>Granularity</Type>
            </Attribute>
          </Attributes>
        </Dimension>
        <Dimension xsi:type="RegularMeasureGroupDimension" dwd:design-time-name="ae2b8376-4b31-4c6d-8feb-fbc262d88c17">
          <CubeDimensionID>Brand Model</CubeDimensionID>
          <Attributes>
            <Attribute dwd:design-time-name="eeb5276a-c931-4df9-acf7-f58bc83cbd39">
              <AttributeID>Model Key</AttributeID>
              <KeyColumns>
                <KeyColumn dwd:design-time-name="f6001b7b-b0ab-427b-bc25-f97637be87ea">
                  <DataType>Integer</DataType>
                  <Source xsi:type="ColumnBinding" dwd:design-time-name="53dd2586-88aa-402d-bbee-34f549fb73b0">
                    <TableID>dbo_vFactParkClients</TableID>
                    <ColumnID>ModelKey</ColumnID>
                  </Source>
                </KeyColumn>
              </KeyColumns>
              <Type>Granularity</Type>
            </Attribute>
          </Attributes>
        </Dimension>
      </Dimensions>
      <Partitions />
    </MeasureGroup>
  </MeasureGroups>
  <Source dwd:design-time-name="a370b482-fbd2-4020-b86a-8f19b49cdc1c">
    <DataSourceViewID>Autostat DW New</DataSourceViewID>
  </Source>
  <StorageLocation>F:\OLAP\</StorageLocation>
</Cube>