﻿<Cube xmlns:xsd="http://www.w3.org/2001/XMLSchema" xmlns:xsi="http://www.w3.org/2001/XMLSchema-instance" xmlns:ddl2="http://schemas.microsoft.com/analysisservices/2003/engine/2" xmlns:ddl2_2="http://schemas.microsoft.com/analysisservices/2003/engine/2/2" xmlns:ddl100_100="http://schemas.microsoft.com/analysisservices/2008/engine/100/100" xmlns:ddl200="http://schemas.microsoft.com/analysisservices/2010/engine/200" xmlns:ddl200_200="http://schemas.microsoft.com/analysisservices/2010/engine/200/200" xmlns:ddl300="http://schemas.microsoft.com/analysisservices/2011/engine/300" xmlns:ddl300_300="http://schemas.microsoft.com/analysisservices/2011/engine/300/300" xmlns:ddl400="http://schemas.microsoft.com/analysisservices/2012/engine/400" xmlns:ddl400_400="http://schemas.microsoft.com/analysisservices/2012/engine/400/400" xmlns:dwd="http://schemas.microsoft.com/DataWarehouse/Designer/1.0" dwd:design-time-name="352973ca-d9f7-4b4f-8fc4-138185159ac3" xmlns="http://schemas.microsoft.com/analysisservices/2003/engine">
  <ID>Registration</ID>
  <Name>Registration X</Name>
  <CreatedTimestamp>0001-01-01T00:00:00Z</CreatedTimestamp>
  <LastSchemaUpdate>0001-01-01T00:00:00Z</LastSchemaUpdate>
  <Description>Registration</Description>
  <Annotations>
    <Annotation>
      <Name>http://schemas.microsoft.com/DataWarehouse/Designer/1.0:DiagramLayout</Name>
      <Value>
        <dds xmlns="">
          <diagram fontclsid="{0BE35203-8F91-11CE-9DE3-00AA004BB851}" mouseiconclsid="{0BE35204-8F91-11CE-9DE3-00AA004BB851}" defaultlayout="MSDDS.Rectilinear" defaultlineroute="MSDDS.Rectilinear" version="7" nextobject="70" scale="100" pagebreakanchorx="0" pagebreakanchory="0" pagebreaksizex="0" pagebreaksizey="0" scrollleft="0" scrolltop="-5556" gridx="150" gridy="150" marginx="5000" marginy="5000" zoom="100" x="19315" y="14764" backcolor="15334399" defaultpersistence="2" PrintPageNumbersMode="3" PrintMarginTop="0" PrintMarginBottom="635" PrintMarginLeft="0" PrintMarginRight="0" marqueeselectionmode="0" mousepointer="0" snaptogrid="0" autotypeannotation="1" showscrollbars="1" viewpagebreaks="0" donotforceconnectorsbehindshapes="1" backpictureclsid="{00000000-0000-0000-0000-000000000000}">
            <font>
              <ddsxmlobjectstreamwrapper binary="01cc0000900144420100065461686f6d61" />
            </font>
            <mouseicon>
              <ddsxmlobjectstreamwrapper binary="6c74000000000000" />
            </mouseicon>
          </diagram>
          <layoutmanager>
            <ddsxmlobj />
          </layoutmanager>
          <ddscontrol controlprogid="DdsShapes.DdsObjectManagedBridge.3" tooltip="DimBodyType" left="8308" top="7870" logicalid="34" controlid="1" masterid="0" hint1="0" hint2="0" width="4154" height="3149" noresize="0" nomove="0" nodefaultattachpoints="0" autodrag="1" usedefaultiddshape="1" selectable="1" showselectionhandles="1" allownudging="1" isannotation="0" dontautolayout="0" groupcollapsed="0" tabstop="1" visible="1" snaptogrid="0">
            <control>
              <ddsxmlobjectstreaminitwrapper binary="000800003a1000004d0c0000" />
            </control>
            <layoutobject>
              <ddsxmlobj>
                <property name="LogicalObject" value="dbo_DimBodyType" vartype="8" />
              </ddsxmlobj>
            </layoutobject>
            <shape groupshapeid="0" groupnode="0" />
          </ddscontrol>
          <ddscontrol controlprogid="DdsShapes.DdsObjectManagedBridge.3" tooltip="vDimModel" left="5832" top="2500" logicalid="35" controlid="2" masterid="0" hint1="0" hint2="0" width="3889" height="5000" noresize="0" nomove="0" nodefaultattachpoints="0" autodrag="1" usedefaultiddshape="1" selectable="1" showselectionhandles="1" allownudging="1" isannotation="0" dontautolayout="0" groupcollapsed="0" tabstop="1" visible="1" snaptogrid="0">
            <control>
              <ddsxmlobjectstreaminitwrapper binary="00080000310f000088130000" />
            </control>
            <layoutobject>
              <ddsxmlobj>
                <property name="LogicalObject" value="dbo_vDimModel" vartype="8" />
              </ddsxmlobj>
            </layoutobject>
            <shape groupshapeid="0" groupnode="0" />
          </ddscontrol>
          <ddscontrol controlprogid="DdsShapes.DdsObjectManagedBridge.3" tooltip="vCalendarShort" left="10715" top="2500" logicalid="36" controlid="3" masterid="0" hint1="0" hint2="0" width="4286" height="5000" noresize="0" nomove="0" nodefaultattachpoints="0" autodrag="1" usedefaultiddshape="1" selectable="1" showselectionhandles="1" allownudging="1" isannotation="0" dontautolayout="0" groupcollapsed="0" tabstop="1" visible="1" snaptogrid="0">
            <control>
              <ddsxmlobjectstreaminitwrapper binary="00080000be10000088130000" />
            </control>
            <layoutobject>
              <ddsxmlobj>
                <property name="LogicalObject" value="dbo_vCalendarShort" vartype="8" />
              </ddsxmlobj>
            </layoutobject>
            <shape groupshapeid="0" groupnode="0" />
          </ddscontrol>
          <ddscontrol controlprogid="DdsShapes.DdsObjectManagedBridge.3" tooltip="DimCurbVehicleWeight" left="3492" top="10716" logicalid="37" controlid="4" masterid="0" hint1="0" hint2="0" width="3493" height="3572" noresize="0" nomove="0" nodefaultattachpoints="0" autodrag="1" usedefaultiddshape="1" selectable="1" showselectionhandles="1" allownudging="1" isannotation="0" dontautolayout="0" groupcollapsed="0" tabstop="1" visible="1" snaptogrid="0">
            <control>
              <ddsxmlobjectstreaminitwrapper binary="00080000a50d0000f40d0000" />
            </control>
            <layoutobject>
              <ddsxmlobj>
                <property name="LogicalObject" value="dbo_DimCurbVehicleWeight" vartype="8" />
              </ddsxmlobj>
            </layoutobject>
            <shape groupshapeid="0" groupnode="0" />
          </ddscontrol>
          <ddscontrol controlprogid="DdsShapes.DdsObjectManagedBridge.3" tooltip="DimEngineCapacity" left="14526" top="8930" logicalid="38" controlid="5" masterid="0" hint1="0" hint2="0" width="4842" height="3572" noresize="0" nomove="0" nodefaultattachpoints="0" autodrag="1" usedefaultiddshape="1" selectable="1" showselectionhandles="1" allownudging="1" isannotation="0" dontautolayout="0" groupcollapsed="0" tabstop="1" visible="1" snaptogrid="0">
            <control>
              <ddsxmlobjectstreaminitwrapper binary="00080000ea120000f40d0000" />
            </control>
            <layoutobject>
              <ddsxmlobj>
                <property name="LogicalObject" value="dbo_DimEngineCapacity" vartype="8" />
              </ddsxmlobj>
            </layoutobject>
            <shape groupshapeid="0" groupnode="0" />
          </ddscontrol>
          <ddscontrol controlprogid="DdsShapes.DdsObjectManagedBridge.3" tooltip="DimEnginePowerH" left="9420" top="12502" logicalid="39" controlid="6" masterid="0" hint1="0" hint2="0" width="4710" height="3572" noresize="0" nomove="0" nodefaultattachpoints="0" autodrag="1" usedefaultiddshape="1" selectable="1" showselectionhandles="1" allownudging="1" isannotation="0" dontautolayout="0" groupcollapsed="0" tabstop="1" visible="1" snaptogrid="0">
            <control>
              <ddsxmlobjectstreaminitwrapper binary="0008000066120000f40d0000" />
            </control>
            <layoutobject>
              <ddsxmlobj>
                <property name="LogicalObject" value="dbo_DimEnginePowerH" vartype="8" />
              </ddsxmlobj>
            </layoutobject>
            <shape groupshapeid="0" groupnode="0" />
          </ddscontrol>
          <ddscontrol controlprogid="DdsShapes.DdsObjectManagedBridge.3" tooltip="DimEnginePowerKW" left="0" top="5358" logicalid="40" controlid="7" masterid="0" hint1="0" hint2="0" width="4948" height="3572" noresize="0" nomove="0" nodefaultattachpoints="0" autodrag="1" usedefaultiddshape="1" selectable="1" showselectionhandles="1" allownudging="1" isannotation="0" dontautolayout="0" groupcollapsed="0" tabstop="1" visible="1" snaptogrid="0">
            <control>
              <ddsxmlobjectstreaminitwrapper binary="0008000054130000f40d0000" />
            </control>
            <layoutobject>
              <ddsxmlobj>
                <property name="LogicalObject" value="dbo_DimEnginePowerKW" vartype="8" />
              </ddsxmlobj>
            </layoutobject>
            <shape groupshapeid="0" groupnode="0" />
          </ddscontrol>
          <ddscontrol controlprogid="DdsShapes.DdsObjectManagedBridge.3" tooltip="DimEuroClass" left="16512" top="1362" logicalid="41" controlid="8" masterid="0" hint1="0" hint2="0" width="4128" height="2725" noresize="0" nomove="0" nodefaultattachpoints="0" autodrag="1" usedefaultiddshape="1" selectable="1" showselectionhandles="1" allownudging="1" isannotation="0" dontautolayout="0" groupcollapsed="0" tabstop="1" visible="1" snaptogrid="0">
            <control>
              <ddsxmlobjectstreaminitwrapper binary="0008000020100000a50a0000" />
            </control>
            <layoutobject>
              <ddsxmlobj>
                <property name="LogicalObject" value="dbo_DimEuroClass" vartype="8" />
              </ddsxmlobj>
            </layoutobject>
            <shape groupshapeid="0" groupnode="0" />
          </ddscontrol>
          <ddscontrol controlprogid="DdsShapes.DdsObjectManagedBridge.3" tooltip="DimFuelType" left="16192" top="5448" logicalid="42" controlid="9" masterid="0" hint1="0" hint2="0" width="4048" height="2725" noresize="0" nomove="0" nodefaultattachpoints="0" autodrag="1" usedefaultiddshape="1" selectable="1" showselectionhandles="1" allownudging="1" isannotation="0" dontautolayout="0" groupcollapsed="0" tabstop="1" visible="1" snaptogrid="0">
            <control>
              <ddsxmlobjectstreaminitwrapper binary="00080000d00f0000a50a0000" />
            </control>
            <layoutobject>
              <ddsxmlobj>
                <property name="LogicalObject" value="dbo_DimFuelType" vartype="8" />
              </ddsxmlobj>
            </layoutobject>
            <shape groupshapeid="0" groupnode="0" />
          </ddscontrol>
          <ddscontrol controlprogid="DdsShapes.DdsObjectManagedBridge.3" tooltip="DimGeography" left="6271" top="-4498" logicalid="43" controlid="10" masterid="0" hint1="0" hint2="0" width="3572" height="5000" noresize="0" nomove="0" nodefaultattachpoints="0" autodrag="1" usedefaultiddshape="1" selectable="1" showselectionhandles="1" allownudging="1" isannotation="0" dontautolayout="0" groupcollapsed="0" tabstop="1" visible="1" snaptogrid="0">
            <control>
              <ddsxmlobjectstreaminitwrapper binary="00080000f40d000088130000" />
            </control>
            <layoutobject>
              <ddsxmlobj>
                <property name="LogicalObject" value="dbo_DimGeography" vartype="8" />
              </ddsxmlobj>
            </layoutobject>
            <shape groupshapeid="0" groupnode="0" />
          </ddscontrol>
          <ddscontrol controlprogid="DdsShapes.DdsObjectManagedBridge.3" tooltip="DimGrossVehicleWeight" left="15714" top="14288" logicalid="44" controlid="11" masterid="0" hint1="0" hint2="0" width="3493" height="3572" noresize="0" nomove="0" nodefaultattachpoints="0" autodrag="1" usedefaultiddshape="1" selectable="1" showselectionhandles="1" allownudging="1" isannotation="0" dontautolayout="0" groupcollapsed="0" tabstop="1" visible="1" snaptogrid="0">
            <control>
              <ddsxmlobjectstreaminitwrapper binary="00080000a50d0000f40d0000" />
            </control>
            <layoutobject>
              <ddsxmlobj>
                <property name="LogicalObject" value="dbo_DimGrossVehicleWeight" vartype="8" />
              </ddsxmlobj>
            </layoutobject>
            <shape groupshapeid="0" groupnode="0" />
          </ddscontrol>
          <ddscontrol controlprogid="DdsShapes.DdsObjectManagedBridge.3" tooltip="DimOwnerType" left="19647" top="9534" logicalid="45" controlid="12" masterid="0" hint1="0" hint2="0" width="4366" height="2725" noresize="0" nomove="0" nodefaultattachpoints="0" autodrag="1" usedefaultiddshape="1" selectable="1" showselectionhandles="1" allownudging="1" isannotation="0" dontautolayout="0" groupcollapsed="0" tabstop="1" visible="1" snaptogrid="0">
            <control>
              <ddsxmlobjectstreaminitwrapper binary="000800000e110000a50a0000" />
            </control>
            <layoutobject>
              <ddsxmlobj>
                <property name="LogicalObject" value="dbo_DimOwnerType" vartype="8" />
              </ddsxmlobj>
            </layoutobject>
            <shape groupshapeid="0" groupnode="0" />
          </ddscontrol>
          <ddscontrol controlprogid="DdsShapes.DdsObjectManagedBridge.3" tooltip="DimProdYear" left="0" top="0" logicalid="46" controlid="13" masterid="0" hint1="0" hint2="0" width="4048" height="3149" noresize="0" nomove="0" nodefaultattachpoints="0" autodrag="1" usedefaultiddshape="1" selectable="1" showselectionhandles="1" allownudging="1" isannotation="0" dontautolayout="0" groupcollapsed="0" tabstop="1" visible="1" snaptogrid="0">
            <control>
              <ddsxmlobjectstreaminitwrapper binary="00080000d00f00004d0c0000" />
            </control>
            <layoutobject>
              <ddsxmlobj>
                <property name="LogicalObject" value="dbo_DimProdYear" vartype="8" />
              </ddsxmlobj>
            </layoutobject>
            <shape groupshapeid="0" groupnode="0" />
          </ddscontrol>
          <ddscontrol controlprogid="DdsShapes.DdsObjectManagedBridge.3" tooltip="DimCountry" left="0" top="13620" logicalid="47" controlid="14" masterid="0" hint1="0" hint2="0" width="3000" height="2725" noresize="0" nomove="0" nodefaultattachpoints="0" autodrag="1" usedefaultiddshape="1" selectable="1" showselectionhandles="1" allownudging="1" isannotation="0" dontautolayout="0" groupcollapsed="0" tabstop="1" visible="1" snaptogrid="0">
            <control>
              <ddsxmlobjectstreaminitwrapper binary="00080000b80b0000a50a0000" />
            </control>
            <layoutobject>
              <ddsxmlobj>
                <property name="LogicalObject" value="dbo_DimCountry" vartype="8" />
              </ddsxmlobj>
            </layoutobject>
            <shape groupshapeid="0" groupnode="0" />
          </ddscontrol>
          <ddscontrol controlprogid="DdsShapes.DdsObjectManagedBridge.3" tooltip="DimRegistrationType" left="20216" top="9534" logicalid="48" controlid="15" masterid="0" hint1="0" hint2="0" width="5054" height="2725" noresize="0" nomove="0" nodefaultattachpoints="0" autodrag="1" usedefaultiddshape="1" selectable="1" showselectionhandles="1" allownudging="1" isannotation="0" dontautolayout="0" groupcollapsed="0" tabstop="1" visible="1" snaptogrid="0">
            <control>
              <ddsxmlobjectstreaminitwrapper binary="00080000be130000a50a0000" />
            </control>
            <layoutobject>
              <ddsxmlobj>
                <property name="LogicalObject" value="dbo_DimRegistrationType" vartype="8" />
              </ddsxmlobj>
            </layoutobject>
            <shape groupshapeid="0" groupnode="0" />
          </ddscontrol>
          <ddscontrol controlprogid="DdsShapes.DdsObjectManagedBridge.3" tooltip="DimSteeringWheel" left="21312" top="0" logicalid="49" controlid="16" masterid="0" hint1="0" hint2="0" width="4736" height="2725" noresize="0" nomove="0" nodefaultattachpoints="0" autodrag="1" usedefaultiddshape="1" selectable="1" showselectionhandles="1" allownudging="1" isannotation="0" dontautolayout="0" groupcollapsed="0" tabstop="1" visible="1" snaptogrid="0">
            <control>
              <ddsxmlobjectstreaminitwrapper binary="0008000080120000a50a0000" />
            </control>
            <layoutobject>
              <ddsxmlobj>
                <property name="LogicalObject" value="dbo_DimSteeringWheel" vartype="8" />
              </ddsxmlobj>
            </layoutobject>
            <shape groupshapeid="0" groupnode="0" />
          </ddscontrol>
          <ddscontrol controlprogid="MSDDS.Polyline" left="2201" top="7200" logicalid="50" controlid="17" masterid="0" hint1="0" hint2="0" width="4225" height="6920" noresize="0" nomove="0" nodefaultattachpoints="1" autodrag="0" usedefaultiddshape="0" selectable="1" showselectionhandles="0" allownudging="1" isannotation="0" dontautolayout="0" groupcollapsed="0" tabstop="1" visible="1" snaptogrid="0">
            <control>
              <ddsxmlobj>
                <polyline endtypedst="6" endtypesrc="3" usercolor="0" linestyle="0" linerender="1" customendtypedstid="0" customendtypesrcid="0" adornsvisible="1" />
              </ddsxmlobj>
            </control>
            <layoutobject>
              <ddsxmlobj>
                <property name="LogicalObject" value="dataSet.Relations[vDimModel-DimCountry]" vartype="8" />
                <property name="Virtual" value="0" vartype="11" />
                <property name="VisibleAP" value="0" vartype="3" />
              </ddsxmlobj>
            </layoutobject>
            <connector lineroutestyle="MSDDS.Rectilinear" sourceid="14" destid="2" sourceattachpoint="8" destattachpoint="1" segmenteditmode="0" bendpointeditmode="0" bendpointvisibility="0" relatedid="0" virtual="0">
              <point x="2600" y="13620" />
              <point x="2600" y="10560" />
              <point x="6126" y="10560" />
              <point x="6126" y="7500" />
            </connector>
          </ddscontrol>
          <ddscontrol controlprogid="DdsShapes.DdsObjectManagedBridge.3" tooltip="DimBodyTypeCategory" left="10385" top="-3135" logicalid="51" controlid="18" masterid="0" hint1="0" hint2="0" width="4154" height="4842" noresize="0" nomove="0" nodefaultattachpoints="0" autodrag="1" usedefaultiddshape="1" selectable="1" showselectionhandles="1" allownudging="1" isannotation="0" dontautolayout="0" groupcollapsed="0" tabstop="1" visible="1" snaptogrid="0">
            <control>
              <ddsxmlobjectstreaminitwrapper binary="000800003a100000ea120000" />
            </control>
            <layoutobject>
              <ddsxmlobj>
                <property name="LogicalObject" value="dbo_DimBodyTypeCategory" vartype="8" />
              </ddsxmlobj>
            </layoutobject>
            <shape groupshapeid="0" groupnode="0" />
          </ddscontrol>
          <ddscontrol controlprogid="DdsShapes.DdsObjectManagedBridge.3" tooltip="vFactRegistrationClients" left="0" top="0" logicalid="52" controlid="19" masterid="0" hint1="0" hint2="0" width="3942" height="5000" noresize="0" nomove="0" nodefaultattachpoints="0" autodrag="1" usedefaultiddshape="1" selectable="1" showselectionhandles="1" allownudging="1" isannotation="0" dontautolayout="0" groupcollapsed="0" tabstop="1" visible="1" snaptogrid="0">
            <control>
              <ddsxmlobjectstreaminitwrapper binary="00080000660f000088130000" />
            </control>
            <layoutobject>
              <ddsxmlobj>
                <property name="LogicalObject" value="dbo_vFactRegistrationClients" vartype="8" />
              </ddsxmlobj>
            </layoutobject>
            <shape groupshapeid="0" groupnode="0" />
          </ddscontrol>
          <ddscontrol controlprogid="MSDDS.Polyline" left="3642" top="537" logicalid="53" controlid="20" masterid="0" hint1="0" hint2="0" width="7043" height="799" noresize="0" nomove="0" nodefaultattachpoints="1" autodrag="0" usedefaultiddshape="0" selectable="1" showselectionhandles="0" allownudging="1" isannotation="0" dontautolayout="0" groupcollapsed="0" tabstop="1" visible="1" snaptogrid="0">
            <control>
              <ddsxmlobj>
                <polyline endtypedst="6" endtypesrc="3" usercolor="0" linestyle="0" linerender="1" customendtypedstid="0" customendtypesrcid="0" adornsvisible="1" />
              </ddsxmlobj>
            </control>
            <layoutobject>
              <ddsxmlobj>
                <property name="LogicalObject" value="dataSet.Relations[vFactRegistrationClients-DimBodyTypeCategory]" vartype="8" />
                <property name="Virtual" value="0" vartype="11" />
                <property name="VisibleAP" value="0" vartype="3" />
              </ddsxmlobj>
            </layoutobject>
            <connector lineroutestyle="MSDDS.Rectilinear" sourceid="18" destid="19" sourceattachpoint="28" destattachpoint="17" segmenteditmode="0" bendpointeditmode="0" bendpointvisibility="0" relatedid="0" virtual="0">
              <point x="10385" y="936" />
              <point x="7164" y="936" />
              <point x="7164" y="850" />
              <point x="3942" y="850" />
            </connector>
          </ddscontrol>
          <ddscontrol controlprogid="MSDDS.Polyline" left="551" top="4700" logicalid="54" controlid="21" masterid="0" hint1="0" hint2="0" width="799" height="9420" noresize="0" nomove="0" nodefaultattachpoints="1" autodrag="0" usedefaultiddshape="0" selectable="1" showselectionhandles="0" allownudging="1" isannotation="0" dontautolayout="0" groupcollapsed="0" tabstop="1" visible="1" snaptogrid="0">
            <control>
              <ddsxmlobj>
                <polyline endtypedst="6" endtypesrc="3" usercolor="0" linestyle="0" linerender="1" customendtypedstid="0" customendtypesrcid="0" adornsvisible="1" />
              </ddsxmlobj>
            </control>
            <layoutobject>
              <ddsxmlobj>
                <property name="LogicalObject" value="dataSet.Relations[vFactRegistrationClients-DimCountry]" vartype="8" />
                <property name="Virtual" value="0" vartype="11" />
                <property name="VisibleAP" value="0" vartype="3" />
              </ddsxmlobj>
            </layoutobject>
            <connector lineroutestyle="MSDDS.Rectilinear" sourceid="14" destid="19" sourceattachpoint="2" destattachpoint="3" segmenteditmode="0" bendpointeditmode="0" bendpointvisibility="0" relatedid="0" virtual="0">
              <point x="950" y="13620" />
              <point x="950" y="9310" />
              <point x="871" y="9310" />
              <point x="871" y="5000" />
            </connector>
          </ddscontrol>
          <ddscontrol controlprogid="MSDDS.Polyline" left="3321" top="4700" logicalid="55" controlid="22" masterid="0" hint1="0" hint2="0" width="1217" height="6516" noresize="0" nomove="0" nodefaultattachpoints="1" autodrag="0" usedefaultiddshape="0" selectable="1" showselectionhandles="0" allownudging="1" isannotation="0" dontautolayout="0" groupcollapsed="0" tabstop="1" visible="1" snaptogrid="0">
            <control>
              <ddsxmlobj>
                <polyline endtypedst="6" endtypesrc="3" usercolor="0" linestyle="0" linerender="1" customendtypedstid="0" customendtypesrcid="0" adornsvisible="1" />
              </ddsxmlobj>
            </control>
            <layoutobject>
              <ddsxmlobj>
                <property name="LogicalObject" value="dataSet.Relations[vFactRegistrationClients-DimCurbVehicleWeight]" vartype="8" />
                <property name="Virtual" value="0" vartype="11" />
                <property name="VisibleAP" value="0" vartype="3" />
              </ddsxmlobj>
            </layoutobject>
            <connector lineroutestyle="MSDDS.Rectilinear" sourceid="4" destid="19" sourceattachpoint="0" destattachpoint="13" segmenteditmode="0" bendpointeditmode="0" bendpointvisibility="0" relatedid="0" virtual="0">
              <point x="4138" y="10716" />
              <point x="4138" y="7858" />
              <point x="3621" y="7858" />
              <point x="3621" y="5000" />
            </connector>
          </ddscontrol>
          <ddscontrol controlprogid="MSDDS.Polyline" left="3642" top="3300" logicalid="56" controlid="23" masterid="0" hint1="0" hint2="0" width="11184" height="6166" noresize="0" nomove="0" nodefaultattachpoints="1" autodrag="0" usedefaultiddshape="0" selectable="1" showselectionhandles="0" allownudging="1" isannotation="0" dontautolayout="0" groupcollapsed="0" tabstop="1" visible="1" snaptogrid="0">
            <control>
              <ddsxmlobj>
                <polyline endtypedst="6" endtypesrc="3" usercolor="0" linestyle="0" linerender="1" customendtypedstid="0" customendtypesrcid="0" adornsvisible="1" />
              </ddsxmlobj>
            </control>
            <layoutobject>
              <ddsxmlobj>
                <property name="LogicalObject" value="dataSet.Relations[vFactRegistrationClients-DimEngineCapacity]" vartype="8" />
                <property name="Virtual" value="0" vartype="11" />
                <property name="VisibleAP" value="0" vartype="3" />
              </ddsxmlobj>
            </layoutobject>
            <connector lineroutestyle="MSDDS.Rectilinear" sourceid="5" destid="19" sourceattachpoint="18" destattachpoint="27" segmenteditmode="0" bendpointeditmode="0" bendpointvisibility="0" relatedid="0" virtual="0">
              <point x="14526" y="9066" />
              <point x="9234" y="9066" />
              <point x="9234" y="3600" />
              <point x="3942" y="3600" />
            </connector>
          </ddscontrol>
          <ddscontrol controlprogid="MSDDS.Polyline" left="2771" top="4700" logicalid="57" controlid="24" masterid="0" hint1="0" hint2="0" width="7204" height="8302" noresize="0" nomove="0" nodefaultattachpoints="1" autodrag="0" usedefaultiddshape="0" selectable="1" showselectionhandles="0" allownudging="1" isannotation="0" dontautolayout="0" groupcollapsed="0" tabstop="1" visible="1" snaptogrid="0">
            <control>
              <ddsxmlobj>
                <polyline endtypedst="6" endtypesrc="3" usercolor="0" linestyle="0" linerender="1" customendtypedstid="0" customendtypesrcid="0" adornsvisible="1" />
              </ddsxmlobj>
            </control>
            <layoutobject>
              <ddsxmlobj>
                <property name="LogicalObject" value="dataSet.Relations[vFactRegistrationClients-DimEnginePowerH]" vartype="8" />
                <property name="Virtual" value="0" vartype="11" />
                <property name="VisibleAP" value="0" vartype="3" />
              </ddsxmlobj>
            </layoutobject>
            <connector lineroutestyle="MSDDS.Rectilinear" sourceid="6" destid="19" sourceattachpoint="0" destattachpoint="11" segmenteditmode="0" bendpointeditmode="0" bendpointvisibility="0" relatedid="0" virtual="0">
              <point x="9575" y="12502" />
              <point x="9575" y="8751" />
              <point x="3071" y="8751" />
              <point x="3071" y="5000" />
            </connector>
          </ddscontrol>
          <ddscontrol controlprogid="MSDDS.Polyline" left="-125" top="4700" logicalid="58" controlid="25" masterid="0" hint1="0" hint2="0" width="799" height="1158" noresize="0" nomove="0" nodefaultattachpoints="1" autodrag="0" usedefaultiddshape="0" selectable="1" showselectionhandles="0" allownudging="1" isannotation="0" dontautolayout="0" groupcollapsed="0" tabstop="1" visible="1" snaptogrid="0">
            <control>
              <ddsxmlobj>
                <polyline endtypedst="6" endtypesrc="3" usercolor="0" linestyle="0" linerender="1" customendtypedstid="0" customendtypesrcid="0" adornsvisible="1" />
              </ddsxmlobj>
            </control>
            <layoutobject>
              <ddsxmlobj>
                <property name="LogicalObject" value="dataSet.Relations[vFactRegistrationClients-DimEnginePowerKW]" vartype="8" />
                <property name="Virtual" value="0" vartype="11" />
                <property name="VisibleAP" value="0" vartype="3" />
              </ddsxmlobj>
            </layoutobject>
            <connector lineroutestyle="MSDDS.Rectilinear" sourceid="7" destid="19" sourceattachpoint="0" destattachpoint="1" segmenteditmode="0" bendpointeditmode="0" bendpointvisibility="0" relatedid="0" virtual="0">
              <point x="274" y="5358" />
              <point x="274" y="5179" />
              <point x="321" y="5179" />
              <point x="321" y="5000" />
            </connector>
          </ddscontrol>
          <ddscontrol controlprogid="MSDDS.Polyline" left="3642" top="1100" logicalid="59" controlid="26" masterid="0" hint1="0" hint2="0" width="13170" height="924" noresize="0" nomove="0" nodefaultattachpoints="1" autodrag="0" usedefaultiddshape="0" selectable="1" showselectionhandles="0" allownudging="1" isannotation="0" dontautolayout="0" groupcollapsed="0" tabstop="1" visible="1" snaptogrid="0">
            <control>
              <ddsxmlobj>
                <polyline endtypedst="6" endtypesrc="3" usercolor="0" linestyle="0" linerender="1" customendtypedstid="0" customendtypesrcid="0" adornsvisible="1" />
              </ddsxmlobj>
            </control>
            <layoutobject>
              <ddsxmlobj>
                <property name="LogicalObject" value="dataSet.Relations[vFactRegistrationClients-DimEuroClass]" vartype="8" />
                <property name="Virtual" value="0" vartype="11" />
                <property name="VisibleAP" value="0" vartype="3" />
              </ddsxmlobj>
            </layoutobject>
            <connector lineroutestyle="MSDDS.Rectilinear" sourceid="8" destid="19" sourceattachpoint="14" destattachpoint="19" segmenteditmode="0" bendpointeditmode="0" bendpointvisibility="0" relatedid="0" virtual="0">
              <point x="16512" y="1624" />
              <point x="10227" y="1624" />
              <point x="10227" y="1400" />
              <point x="3942" y="1400" />
            </connector>
          </ddscontrol>
          <ddscontrol controlprogid="MSDDS.Polyline" left="3642" top="2200" logicalid="60" controlid="27" masterid="0" hint1="0" hint2="0" width="12850" height="3910" noresize="0" nomove="0" nodefaultattachpoints="1" autodrag="0" usedefaultiddshape="0" selectable="1" showselectionhandles="0" allownudging="1" isannotation="0" dontautolayout="0" groupcollapsed="0" tabstop="1" visible="1" snaptogrid="0">
            <control>
              <ddsxmlobj>
                <polyline endtypedst="6" endtypesrc="3" usercolor="0" linestyle="0" linerender="1" customendtypedstid="0" customendtypesrcid="0" adornsvisible="1" />
              </ddsxmlobj>
            </control>
            <layoutobject>
              <ddsxmlobj>
                <property name="LogicalObject" value="dataSet.Relations[vFactRegistrationClients-DimFuelType]" vartype="8" />
                <property name="Virtual" value="0" vartype="11" />
                <property name="VisibleAP" value="0" vartype="3" />
              </ddsxmlobj>
            </layoutobject>
            <connector lineroutestyle="MSDDS.Rectilinear" sourceid="9" destid="19" sourceattachpoint="14" destattachpoint="23" segmenteditmode="0" bendpointeditmode="0" bendpointvisibility="0" relatedid="0" virtual="0">
              <point x="16192" y="5710" />
              <point x="10067" y="5710" />
              <point x="10067" y="2500" />
              <point x="3942" y="2500" />
            </connector>
          </ddscontrol>
          <ddscontrol controlprogid="MSDDS.Polyline" left="3642" top="2750" logicalid="61" controlid="28" masterid="0" hint1="0" hint2="0" width="12372" height="12074" noresize="0" nomove="0" nodefaultattachpoints="1" autodrag="0" usedefaultiddshape="0" selectable="1" showselectionhandles="0" allownudging="1" isannotation="0" dontautolayout="0" groupcollapsed="0" tabstop="1" visible="1" snaptogrid="0">
            <control>
              <ddsxmlobj>
                <polyline endtypedst="6" endtypesrc="3" usercolor="0" linestyle="0" linerender="1" customendtypedstid="0" customendtypesrcid="0" adornsvisible="1" />
              </ddsxmlobj>
            </control>
            <layoutobject>
              <ddsxmlobj>
                <property name="LogicalObject" value="dataSet.Relations[vFactRegistrationClients-DimGrossVehicleWeight]" vartype="8" />
                <property name="Virtual" value="0" vartype="11" />
                <property name="VisibleAP" value="0" vartype="3" />
              </ddsxmlobj>
            </layoutobject>
            <connector lineroutestyle="MSDDS.Rectilinear" sourceid="11" destid="19" sourceattachpoint="10" destattachpoint="25" segmenteditmode="0" bendpointeditmode="0" bendpointvisibility="0" relatedid="0" virtual="0">
              <point x="15714" y="14424" />
              <point x="9828" y="14424" />
              <point x="9828" y="3050" />
              <point x="3942" y="3050" />
            </connector>
          </ddscontrol>
          <ddscontrol controlprogid="MSDDS.Polyline" left="3642" top="2401" logicalid="62" controlid="29" masterid="0" hint1="0" hint2="0" width="2490" height="2599" noresize="0" nomove="0" nodefaultattachpoints="1" autodrag="0" usedefaultiddshape="0" selectable="1" showselectionhandles="0" allownudging="1" isannotation="0" dontautolayout="0" groupcollapsed="0" tabstop="1" visible="1" snaptogrid="0">
            <control>
              <ddsxmlobj>
                <polyline endtypedst="6" endtypesrc="3" usercolor="0" linestyle="0" linerender="1" customendtypedstid="0" customendtypesrcid="0" adornsvisible="1" />
              </ddsxmlobj>
            </control>
            <layoutobject>
              <ddsxmlobj>
                <property name="LogicalObject" value="dataSet.Relations[vFactRegistrationClients-vDimModel]" vartype="8" />
                <property name="Virtual" value="0" vartype="11" />
                <property name="VisibleAP" value="0" vartype="3" />
              </ddsxmlobj>
            </layoutobject>
            <connector lineroutestyle="MSDDS.Rectilinear" sourceid="2" destid="19" sourceattachpoint="14" destattachpoint="31" segmenteditmode="0" bendpointeditmode="0" bendpointvisibility="0" relatedid="0" virtual="0">
              <point x="5832" y="2800" />
              <point x="4887" y="2800" />
              <point x="4887" y="4700" />
              <point x="3942" y="4700" />
            </connector>
          </ddscontrol>
          <ddscontrol controlprogid="MSDDS.Polyline" left="3642" top="1650" logicalid="63" controlid="30" masterid="0" hint1="0" hint2="0" width="16305" height="8546" noresize="0" nomove="0" nodefaultattachpoints="1" autodrag="0" usedefaultiddshape="0" selectable="1" showselectionhandles="0" allownudging="1" isannotation="0" dontautolayout="0" groupcollapsed="0" tabstop="1" visible="1" snaptogrid="0">
            <control>
              <ddsxmlobj>
                <polyline endtypedst="6" endtypesrc="3" usercolor="0" linestyle="0" linerender="1" customendtypedstid="0" customendtypesrcid="0" adornsvisible="1" />
              </ddsxmlobj>
            </control>
            <layoutobject>
              <ddsxmlobj>
                <property name="LogicalObject" value="dataSet.Relations[vFactRegistrationClients-DimOwnerType]" vartype="8" />
                <property name="Virtual" value="0" vartype="11" />
                <property name="VisibleAP" value="0" vartype="3" />
              </ddsxmlobj>
            </layoutobject>
            <connector lineroutestyle="MSDDS.Rectilinear" sourceid="12" destid="19" sourceattachpoint="14" destattachpoint="21" segmenteditmode="0" bendpointeditmode="0" bendpointvisibility="0" relatedid="0" virtual="0">
              <point x="19647" y="9796" />
              <point x="11795" y="9796" />
              <point x="11795" y="1950" />
              <point x="3942" y="1950" />
            </connector>
          </ddscontrol>
          <ddscontrol controlprogid="MSDDS.Polyline" left="-700" top="-700" logicalid="64" controlid="31" masterid="0" hint1="0" hint2="0" width="1321" height="1574" noresize="0" nomove="0" nodefaultattachpoints="1" autodrag="0" usedefaultiddshape="0" selectable="1" showselectionhandles="0" allownudging="1" isannotation="0" dontautolayout="0" groupcollapsed="0" tabstop="1" visible="1" snaptogrid="0">
            <control>
              <ddsxmlobj>
                <polyline endtypedst="6" endtypesrc="3" usercolor="0" linestyle="0" linerender="1" customendtypedstid="0" customendtypesrcid="0" adornsvisible="1" />
              </ddsxmlobj>
            </control>
            <layoutobject>
              <ddsxmlobj>
                <property name="LogicalObject" value="dataSet.Relations[vFactRegistrationClients-DimProdYear]" vartype="8" />
                <property name="Virtual" value="0" vartype="11" />
                <property name="VisibleAP" value="0" vartype="3" />
              </ddsxmlobj>
            </layoutobject>
            <connector lineroutestyle="MSDDS.Rectilinear" sourceid="13" destid="19" sourceattachpoint="14" destattachpoint="0" segmenteditmode="0" bendpointeditmode="0" bendpointvisibility="0" relatedid="0" virtual="0">
              <point x="0" y="474" />
              <point x="-400" y="474" />
              <point x="-400" y="-400" />
              <point x="321" y="-400" />
              <point x="321" y="0" />
            </connector>
          </ddscontrol>
          <ddscontrol controlprogid="MSDDS.Polyline" left="3642" top="-137" logicalid="65" controlid="32" masterid="0" hint1="0" hint2="0" width="17970" height="799" noresize="0" nomove="0" nodefaultattachpoints="1" autodrag="0" usedefaultiddshape="0" selectable="1" showselectionhandles="0" allownudging="1" isannotation="0" dontautolayout="0" groupcollapsed="0" tabstop="1" visible="1" snaptogrid="0">
            <control>
              <ddsxmlobj>
                <polyline endtypedst="6" endtypesrc="3" usercolor="0" linestyle="0" linerender="1" customendtypedstid="0" customendtypesrcid="0" adornsvisible="1" />
              </ddsxmlobj>
            </control>
            <layoutobject>
              <ddsxmlobj>
                <property name="LogicalObject" value="dataSet.Relations[vFactRegistrationClients-DimSteeringWheel]" vartype="8" />
                <property name="Virtual" value="0" vartype="11" />
                <property name="VisibleAP" value="0" vartype="3" />
              </ddsxmlobj>
            </layoutobject>
            <connector lineroutestyle="MSDDS.Rectilinear" sourceid="16" destid="19" sourceattachpoint="18" destattachpoint="15" segmenteditmode="0" bendpointeditmode="0" bendpointvisibility="0" relatedid="0" virtual="0">
              <point x="21312" y="262" />
              <point x="12627" y="262" />
              <point x="12627" y="300" />
              <point x="3942" y="300" />
            </connector>
          </ddscontrol>
          <ddscontrol controlprogid="MSDDS.Polyline" left="3642" top="2951" logicalid="66" controlid="33" masterid="0" hint1="0" hint2="0" width="7373" height="1499" noresize="0" nomove="0" nodefaultattachpoints="1" autodrag="0" usedefaultiddshape="0" selectable="1" showselectionhandles="0" allownudging="1" isannotation="0" dontautolayout="0" groupcollapsed="0" tabstop="1" visible="1" snaptogrid="0">
            <control>
              <ddsxmlobj>
                <polyline endtypedst="6" endtypesrc="3" usercolor="0" linestyle="0" linerender="1" customendtypedstid="0" customendtypesrcid="0" adornsvisible="1" />
              </ddsxmlobj>
            </control>
            <layoutobject>
              <ddsxmlobj>
                <property name="LogicalObject" value="dataSet.Relations[vFactRegistrationClients-vCalendarShort]" vartype="8" />
                <property name="Virtual" value="0" vartype="11" />
                <property name="VisibleAP" value="0" vartype="3" />
              </ddsxmlobj>
            </layoutobject>
            <connector lineroutestyle="MSDDS.Rectilinear" sourceid="3" destid="19" sourceattachpoint="16" destattachpoint="29" segmenteditmode="0" bendpointeditmode="0" bendpointvisibility="0" relatedid="0" virtual="0">
              <point x="10715" y="3350" />
              <point x="7329" y="3350" />
              <point x="7329" y="4150" />
              <point x="3942" y="4150" />
            </connector>
          </ddscontrol>
          <ddscontrol controlprogid="DdsShapes.DdsObjectManagedBridge.3" tooltip="DimAgeRange" left="3016" top="-3254" logicalid="68" controlid="35" masterid="0" hint1="0" hint2="0" width="3016" height="2302" noresize="0" nomove="0" nodefaultattachpoints="0" autodrag="1" usedefaultiddshape="1" selectable="1" showselectionhandles="1" allownudging="1" isannotation="0" dontautolayout="0" groupcollapsed="0" tabstop="1" visible="1" snaptogrid="0">
            <control>
              <ddsxmlobjectstreaminitwrapper binary="00080000c80b0000fe080000" />
            </control>
            <layoutobject>
              <ddsxmlobj>
                <property name="LogicalObject" value="dbo_DimAgeRange" vartype="8" />
              </ddsxmlobj>
            </layoutobject>
            <shape groupshapeid="0" groupnode="0" />
          </ddscontrol>
          <ddscontrol controlprogid="MSDDS.Polyline" left="3025" top="-1451" logicalid="69" controlid="36" masterid="0" hint1="0" hint2="0" width="896" height="1751" noresize="0" nomove="0" nodefaultattachpoints="1" autodrag="0" usedefaultiddshape="0" selectable="1" showselectionhandles="0" allownudging="1" isannotation="0" dontautolayout="0" groupcollapsed="0" tabstop="1" visible="1" snaptogrid="0">
            <control>
              <ddsxmlobj>
                <polyline endtypedst="6" endtypesrc="3" usercolor="0" linestyle="0" linerender="1" customendtypedstid="0" customendtypesrcid="0" adornsvisible="1" />
              </ddsxmlobj>
            </control>
            <layoutobject>
              <ddsxmlobj>
                <property name="LogicalObject" value="dataSet.Relations[vFactRegistrationClients-DimAgeRange]" vartype="8" />
                <property name="Virtual" value="0" vartype="11" />
                <property name="VisibleAP" value="0" vartype="3" />
              </ddsxmlobj>
            </layoutobject>
            <connector lineroutestyle="MSDDS.Rectilinear" sourceid="35" destid="19" sourceattachpoint="1" destattachpoint="12" segmenteditmode="0" bendpointeditmode="0" bendpointvisibility="0" relatedid="0" virtual="0">
              <point x="3424" y="-952" />
              <point x="3424" y="-476" />
              <point x="3621" y="-476" />
              <point x="3621" y="0" />
            </connector>
          </ddscontrol>
        </dds>
      </Value>
    </Annotation>
    <Annotation>
      <Name>http://schemas.microsoft.com/DataWarehouse/Designer/1.0:ShowFriendlyNames</Name>
      <Value>true</Value>
    </Annotation>
    <Annotation>
      <Name>http://schemas.microsoft.com/DataWarehouse/Designer/1.0:ShowRelationshipNames</Name>
      <Value>false</Value>
    </Annotation>
    <Annotation>
      <Name>http://schemas.microsoft.com/DataWarehouse/Designer/1.0:UseDiagramDefaultLayout</Name>
      <Value>true</Value>
    </Annotation>
    <Annotation>
      <Name>http://schemas.microsoft.com/DataWarehouse/Designer/1.0:DiagramViewPortLeft</Name>
      <Value>0</Value>
    </Annotation>
    <Annotation>
      <Name>http://schemas.microsoft.com/DataWarehouse/Designer/1.0:DiagramViewPortTop</Name>
      <Value>-5556</Value>
    </Annotation>
    <Annotation>
      <Name>http://schemas.microsoft.com/DataWarehouse/Designer/1.0:DiagramBoundingLeft</Name>
      <Value>0</Value>
    </Annotation>
    <Annotation>
      <Name>http://schemas.microsoft.com/DataWarehouse/Designer/1.0:DiagramBoundingTop</Name>
      <Value>-4498</Value>
    </Annotation>
    <Annotation>
      <Name>http://schemas.microsoft.com/DataWarehouse/Designer/1.0:DiagramZoom</Name>
      <Value>100</Value>
    </Annotation>
  </Annotations>
  <LastProcessed>0001-01-01T00:00:00Z</LastProcessed>
  <State>Unprocessed</State>
  <Dimensions>
    <Dimension dwd:design-time-name="297ede43-424a-44e5-b1e3-0db48dc19ac8">
      <ID>VehicleType</ID>
      <Name>VehicleType</Name>
      <Description>@gMaing@@tVehicleTypet@</Description>
      <DimensionID>VehicleType</DimensionID>
      <Attributes>
        <Attribute dwd:design-time-name="0df084aa-b89e-4208-b88b-3dbcba7853d0">
          <AttributeID>Model Key</AttributeID>
        </Attribute>
        <Attribute dwd:design-time-name="35e541b4-8107-4453-862e-68e3951d03ee">
          <AttributeID>Type Vehicle Code</AttributeID>
        </Attribute>
      </Attributes>
    </Dimension>
    <Dimension dwd:design-time-name="f94da51b-bd8b-48e1-aca6-68f8b1d8911e">
      <ID>Registration Type</ID>
      <Name>Registration Type</Name>
      <Description>@gMaing@@tRegistration Typet@</Description>
      <DimensionID>Registration Type</DimensionID>
      <Attributes>
        <Attribute dwd:design-time-name="9cd394d2-5750-49cf-9147-9bde7bf027bc">
          <AttributeID>Registration Type Key</AttributeID>
        </Attribute>
        <Attribute dwd:design-time-name="20a4413e-a664-42f3-a641-71d1af980ef4">
          <AttributeID>Registration Type En</AttributeID>
        </Attribute>
      </Attributes>
    </Dimension>
    <Dimension dwd:design-time-name="f1772308-3b6a-4af0-8e5c-4f310070e9eb">
      <ID>Owner Type</ID>
      <Name>Owner Type</Name>
      <Description>@gMaing@@tOwner Typet@</Description>
      <DimensionID>Owner Type</DimensionID>
      <Attributes>
        <Attribute dwd:design-time-name="c454e4af-a6bc-46b6-9b04-43704233e148">
          <AttributeID>Owner Type Key</AttributeID>
        </Attribute>
        <Attribute dwd:design-time-name="55aeeccd-1ac5-4162-a825-27898393f14c">
          <AttributeID>Owner Type En</AttributeID>
        </Attribute>
      </Attributes>
    </Dimension>
    <Dimension dwd:design-time-name="f851b8ef-d44d-4920-bea9-294cdb04a6c1">
      <ID>Calendar</ID>
      <Name>Calendar</Name>
      <Description>@gMaing@@tCalendart@</Description>
      <DimensionID>Calendar 1</DimensionID>
      <Attributes>
        <Attribute dwd:design-time-name="e01e94f3-c88d-420d-bc60-8fdb1b27316d">
          <AttributeID>Registration Date Key</AttributeID>
        </Attribute>
        <Attribute dwd:design-time-name="ad4c29a7-b611-41a9-bb5e-24479e21ce98">
          <AttributeID>Month Of Year</AttributeID>
        </Attribute>
        <Attribute dwd:design-time-name="7a9de64b-d7c6-4593-a914-0657fe60e420">
          <AttributeID>Calendar Year</AttributeID>
        </Attribute>
        <Attribute dwd:design-time-name="4fc9cb47-e551-4f79-8c50-ae3c8bdcc641">
          <AttributeID>Quarter Of Year En</AttributeID>
        </Attribute>
        <Attribute dwd:design-time-name="be2cdae6-c87f-420a-873c-dd4edbcfec65">
          <AttributeID>Semester Of Year En</AttributeID>
        </Attribute>
      </Attributes>
      <Hierarchies>
        <Hierarchy dwd:design-time-name="36cb64db-8471-4940-a020-7aa3ddddb1c3">
          <HierarchyID>Hierarchy</HierarchyID>
        </Hierarchy>
      </Hierarchies>
    </Dimension>
    <Dimension dwd:design-time-name="aafaddb5-3474-47ea-83a0-07bccbd17999">
      <ID>Geography</ID>
      <Name>Geography</Name>
      <Description>@gMaing@@tGeographyt@</Description>
      <DimensionID>Geography 1</DimensionID>
      <Attributes>
        <Attribute dwd:design-time-name="0e84f993-4029-406f-beba-d35c27e020a0">
          <AttributeID>Geography Key</AttributeID>
        </Attribute>
        <Attribute dwd:design-time-name="a43fce00-1e6d-4f14-901f-ba755615735f">
          <AttributeID>Province Tr</AttributeID>
        </Attribute>
        <Attribute dwd:design-time-name="991d1880-26e2-470f-8767-08cc2014e73a">
          <AttributeID>Area En Full Name</AttributeID>
        </Attribute>
        <Attribute dwd:design-time-name="af7f48cb-15fb-46fa-b398-830fd4b3d737">
          <AttributeID>Region Tr</AttributeID>
        </Attribute>
      </Attributes>
      <Hierarchies>
        <Hierarchy dwd:design-time-name="7941fc63-17d9-4752-9bf1-3a8bbc00a96c">
          <HierarchyID>Hierarchy</HierarchyID>
        </Hierarchy>
      </Hierarchies>
      <MemberUniqueNameStyle>NamePath</MemberUniqueNameStyle>
    </Dimension>
    <Dimension dwd:design-time-name="38241721-f1c5-4669-b8f6-022f0f062a1f">
      <ID>Brand Model</ID>
      <Name>Brand Model</Name>
      <Description>@gParameters of vehicleg@@tBrand Modelt@</Description>
      <DimensionID>Brand Model</DimensionID>
      <Attributes>
        <Attribute dwd:design-time-name="ddce529e-60af-4f37-9408-749bde2c168b">
          <AttributeID>Model Key</AttributeID>
        </Attribute>
        <Attribute dwd:design-time-name="46ee5584-5394-43fb-a139-1de885f3d51c">
          <AttributeID>Brand</AttributeID>
        </Attribute>
        <Attribute dwd:design-time-name="bc3e16b1-a190-4d8b-8bb4-0d542fec4911">
          <AttributeID>Model</AttributeID>
        </Attribute>
        <Attribute dwd:design-time-name="86661195-71a8-4a93-840b-8d5516be8395">
          <AttributeID>Brand Model</AttributeID>
        </Attribute>
      </Attributes>
      <Hierarchies>
        <Hierarchy dwd:design-time-name="2a445bbc-2e05-40fb-9f1b-4a773e6da7e3">
          <HierarchyID>Hierarchy</HierarchyID>
        </Hierarchy>
        <Hierarchy dwd:design-time-name="4b161395-4dd3-46ac-9c0c-6d0143259511">
          <HierarchyID>Hierarchy 1</HierarchyID>
        </Hierarchy>
      </Hierarchies>
    </Dimension>
    <Dimension dwd:design-time-name="feadf7e8-7654-484e-9e9b-397f8598d0bb">
      <ID>Age</ID>
      <Name>Age</Name>
      <Description>@gParameters of vehicleg@@tAget@</Description>
      <DimensionID>Age</DimensionID>
      <Attributes>
        <Attribute dwd:design-time-name="da864301-2feb-4b6e-9b94-8063642e6c3c">
          <AttributeID>Age Range Key</AttributeID>
        </Attribute>
      </Attributes>
    </Dimension>
    <Dimension dwd:design-time-name="d8ac5390-6182-49db-bb38-2e3a0a512e55">
      <ID>Prod Year</ID>
      <Name>Production Year</Name>
      <Description>@gParameters of vehicleg@@tProduction Yeart@</Description>
      <DimensionID>Prod Year</DimensionID>
      <Attributes>
        <Attribute dwd:design-time-name="47a82d39-c715-4289-b314-f4346bb8e3b2">
          <AttributeID>Prod Year Key</AttributeID>
        </Attribute>
        <Attribute dwd:design-time-name="53ca26ef-6ee7-4f54-8356-5f46a30cdcea">
          <AttributeID>Prod Year1987</AttributeID>
        </Attribute>
      </Attributes>
    </Dimension>
    <Dimension dwd:design-time-name="026b7d49-728f-495a-b75d-58f3d1780c26">
      <ID>Body Type Special</ID>
      <Name>Body Type</Name>
      <Description>@gParameters of vehicleg@@tBody Typet@</Description>
      <DimensionID>Body Type Special</DimensionID>
      <Attributes>
        <Attribute dwd:design-time-name="9675ae48-35e6-4df4-a20b-680933d43ef0">
          <AttributeID>Body Type Special Key</AttributeID>
        </Attribute>
        <Attribute dwd:design-time-name="31372439-9dad-4b56-9f39-a5ce600df8fd">
          <AttributeID>Body Type Special En</AttributeID>
        </Attribute>
        <Attribute dwd:design-time-name="6b1c69d1-e309-405d-bae4-b6f2840e584f">
          <AttributeID>Body Type Category En</AttributeID>
        </Attribute>
      </Attributes>
      <Hierarchies>
        <Hierarchy dwd:design-time-name="2bea36a9-0a2e-487a-82d4-89770b96beb4">
          <HierarchyID>Hierarchy</HierarchyID>
        </Hierarchy>
      </Hierarchies>
    </Dimension>
    <Dimension dwd:design-time-name="59ae77fd-5b91-44d0-a3e0-ea8ccd2b20eb">
      <ID>Body Type</ID>
      <Name>Body Type Old</Name>
      <Description>@gParameters of vehicleg@@tBody Type Oldt@</Description>
      <DimensionID>Body Type</DimensionID>
      <Visible>false</Visible>
      <Attributes>
        <Attribute dwd:design-time-name="b3590957-9627-4adf-9b91-f20000ddc706">
          <AttributeID>Body Type Key</AttributeID>
        </Attribute>
        <Attribute dwd:design-time-name="9403e602-9700-490c-ac70-c60129102a6f">
          <AttributeID>Body Type En</AttributeID>
        </Attribute>
      </Attributes>
    </Dimension>
    <Dimension dwd:design-time-name="f8b6df99-b500-440b-b052-844b60f7bf00">
      <ID>Fuel Type</ID>
      <Name>Fuel Type</Name>
      <Description>@gParameters of vehicleg@@tFuel Typet@</Description>
      <DimensionID>Fuel Type</DimensionID>
      <Attributes>
        <Attribute dwd:design-time-name="7c98c2b4-fb23-404a-9087-1492d2562608">
          <AttributeID>Fuel Type Key</AttributeID>
        </Attribute>
        <Attribute dwd:design-time-name="b362679c-e86b-4fda-b810-cce1928ba059">
          <AttributeID>Fuel Type En</AttributeID>
        </Attribute>
      </Attributes>
    </Dimension>
    <Dimension dwd:design-time-name="c93c75c1-97b2-41a8-8330-dac8f58a6ada">
      <ID>Segment</ID>
      <Name>Segment</Name>
      <Description>@gParameters of vehicleg@@tSegmentt@</Description>
      <DimensionID>Segment</DimensionID>
      <Attributes>
        <Attribute dwd:design-time-name="df973fca-ae26-440f-83d0-5e736736d060">
          <AttributeID>Model Key</AttributeID>
        </Attribute>
        <Attribute dwd:design-time-name="44be1b2c-123c-44ba-940b-8b52d76111e4">
          <AttributeID>Segment Autostat</AttributeID>
        </Attribute>
        <Attribute dwd:design-time-name="ed39bc1b-a7aa-408b-b43b-5ad206582307">
          <AttributeID>Subsegment Autostat</AttributeID>
        </Attribute>
        <Attribute dwd:design-time-name="cdc007ce-fa82-4977-be6a-975de0cfa536">
          <AttributeID>Segment Avtovaz</AttributeID>
        </Attribute>
        <Attribute dwd:design-time-name="4e9d490d-0624-4765-861d-b92c3acce5c9">
          <AttributeID>Segment Daimler</AttributeID>
        </Attribute>
        <Attribute dwd:design-time-name="026ae032-1b3c-4f50-9552-2303c6e30da0">
          <AttributeID>Segment Daimler Van</AttributeID>
        </Attribute>
      </Attributes>
      <Hierarchies>
        <Hierarchy dwd:design-time-name="43b7f0a3-be2f-412c-83cb-7074ac4d61fd">
          <HierarchyID>Hierarchy</HierarchyID>
        </Hierarchy>
        <Hierarchy dwd:design-time-name="07521536-08a6-40c1-8cfa-259715e288fd">
          <HierarchyID>Hierarchy 1</HierarchyID>
        </Hierarchy>
        <Hierarchy dwd:design-time-name="1f4e3673-3994-415e-9892-963f1fbf28b1">
          <HierarchyID>Hierarchy 2</HierarchyID>
        </Hierarchy>
        <Hierarchy dwd:design-time-name="86edbb83-975d-46c8-8795-c679d7c1ac0f">
          <HierarchyID>Hierarchy 3</HierarchyID>
        </Hierarchy>
      </Hierarchies>
    </Dimension>
    <Dimension dwd:design-time-name="10778658-9ffa-4e53-b9dd-f3644d00cc7b">
      <ID>Euro Class</ID>
      <Name>Euro Class</Name>
      <Description>@gParameters of vehicleg@@tEuro Classt@</Description>
      <DimensionID>Euro Class</DimensionID>
      <Attributes>
        <Attribute dwd:design-time-name="5d693df8-fa4a-4640-a1c4-ec55e24fe4cb">
          <AttributeID>Euro Class Key</AttributeID>
        </Attribute>
        <Attribute dwd:design-time-name="6923be78-a76d-4fd9-ab71-d145db1f6233">
          <AttributeID>Euro Class En</AttributeID>
        </Attribute>
      </Attributes>
    </Dimension>
    <Dimension dwd:design-time-name="516d4970-c059-4466-8a78-adcabbe37ba1">
      <ID>Steering Wheel</ID>
      <Name>Steering Wheel</Name>
      <Description>@gParameters of vehicleg@@tSteering Wheelt@</Description>
      <DimensionID>Steering Wheel</DimensionID>
      <Attributes>
        <Attribute dwd:design-time-name="2391c7a8-e32c-4a12-9246-83ca045e6525">
          <AttributeID>Steering Wheel Key</AttributeID>
        </Attribute>
      </Attributes>
    </Dimension>
    <Dimension dwd:design-time-name="91da7cad-5f7e-4ec6-8959-b257163b1ab2">
      <ID>Engine Capacity</ID>
      <Name>Engine Capacity</Name>
      <Description>@gParameters of vehicleg@@tEngine Capacityt@</Description>
      <DimensionID>Engine Capacity</DimensionID>
      <Attributes>
        <Attribute dwd:design-time-name="6d4c7ebf-dabc-494b-8fcb-7c74a059c7f1">
          <AttributeID>Engine Capacity Key</AttributeID>
        </Attribute>
        <Attribute dwd:design-time-name="2bde8650-32e5-41e7-bc78-cdd09863ced2">
          <AttributeID>Engine Capacity Range Key</AttributeID>
        </Attribute>
      </Attributes>
    </Dimension>
    <Dimension dwd:design-time-name="54bf2e71-e320-4652-aa01-34ad0032ea52">
      <ID>Engine Power Hp</ID>
      <Name>Engine Power H</Name>
      <Description>@gParameters of vehicleg@@tEngine Power Ht@</Description>
      <DimensionID>Engine Power H</DimensionID>
      <Attributes>
        <Attribute dwd:design-time-name="611c62ae-0382-4903-a101-43c24935acff">
          <AttributeID>Engine Power H Key</AttributeID>
        </Attribute>
        <Attribute dwd:design-time-name="1435de0e-24d7-4c75-a923-c29da80b6c04">
          <AttributeID>Engine Power H Range Key</AttributeID>
        </Attribute>
      </Attributes>
    </Dimension>
    <Dimension dwd:design-time-name="bb326b33-8196-444d-b091-f618bbdbd698">
      <ID>Engine Power kWt</ID>
      <Name>Engine Power kW</Name>
      <Description>@gParameters of vehicleg@@tEngine Power kWt@</Description>
      <DimensionID>Engine Power KW</DimensionID>
      <Attributes>
        <Attribute dwd:design-time-name="7ff31787-a0a1-4b5d-ba6a-e4e1d918f812">
          <AttributeID>Engine Power KW Key</AttributeID>
        </Attribute>
        <Attribute dwd:design-time-name="96f5e857-47fd-4a2f-a0d7-73b480007240">
          <AttributeID>Engine Power KW Range Key</AttributeID>
        </Attribute>
      </Attributes>
    </Dimension>
    <Dimension dwd:design-time-name="2ba9ae2b-a9bf-47ec-a6dd-b86795b1f1ff">
      <ID>Curb Weight</ID>
      <Name>Curb Weight</Name>
      <Description>@gParameters of vehicleg@@tCurb Weightt@</Description>
      <DimensionID>Curb Weight</DimensionID>
      <Attributes>
        <Attribute dwd:design-time-name="3b388387-b1f3-4119-a2be-7b1ff58fc2e8">
          <AttributeID>CVW Key</AttributeID>
        </Attribute>
        <Attribute dwd:design-time-name="e989dda9-9c84-43e0-99da-e69abcb3f695">
          <AttributeID>CVW Range Key</AttributeID>
        </Attribute>
      </Attributes>
    </Dimension>
    <Dimension dwd:design-time-name="a7235e64-5b2f-4c7b-bd05-fab4960b98be">
      <ID>Gross Weight</ID>
      <Name>Gross Weight</Name>
      <Description>@gParameters of vehicleg@@tGross Weightt@</Description>
      <DimensionID>GVW</DimensionID>
      <Attributes>
        <Attribute dwd:design-time-name="62ce2924-e4bf-4cd5-803e-0e9336b86fa3">
          <AttributeID>GVW Key</AttributeID>
        </Attribute>
        <Attribute dwd:design-time-name="f890c57b-d413-4a87-af1c-c45c57ba156c">
          <AttributeID>GVW Range Key</AttributeID>
        </Attribute>
      </Attributes>
    </Dimension>
    <Dimension dwd:design-time-name="bbdf1b66-9549-493c-a84b-94b8f179f51b">
      <ID>Production Country</ID>
      <Name>Production Country</Name>
      <Description>@gAdditionalg@@tProduction Countryt@</Description>
      <DimensionID>Production Country</DimensionID>
      <Attributes>
        <Attribute dwd:design-time-name="f307146e-8a2f-48ac-8650-1a256d646c9e">
          <AttributeID>Country Key</AttributeID>
        </Attribute>
      </Attributes>
    </Dimension>
    <Dimension dwd:design-time-name="4f1f859b-cb3c-4245-a736-2740a883f3bc">
      <ID>Brand Origin</ID>
      <Name>Brand Country</Name>
      <Description>@gAdditionalg@@tBrand Countryt@</Description>
      <DimensionID>Brand Origin</DimensionID>
      <Attributes>
        <Attribute dwd:design-time-name="9744dab2-f312-4604-af30-77ceaa5c3136">
          <AttributeID>Model Key</AttributeID>
        </Attribute>
        <Attribute dwd:design-time-name="f19d3e83-3c8f-4fbc-a470-8e04624d650c">
          <AttributeID>Brand Country Key</AttributeID>
        </Attribute>
      </Attributes>
    </Dimension>
  </Dimensions>
  <CubePermissions>
    <CubePermission dwd:design-time-name="84f2b5c5-4f35-4c19-8ab4-8fa75c891c69">
      <ID>CubePermission</ID>
      <Name>CubePermission</Name>
      <CreatedTimestamp>0001-01-01T00:00:00Z</CreatedTimestamp>
      <LastSchemaUpdate>0001-01-01T00:00:00Z</LastSchemaUpdate>
      <RoleID>Role</RoleID>
      <Read>Allowed</Read>
      <ReadSourceData>None</ReadSourceData>
      <DimensionPermissions>
        <DimensionPermission dwd:design-time-name="0d62bcaf-4b96-4c15-988f-c2ed610d1c10">
          <CubeDimensionID>VehicleType</CubeDimensionID>
          <Read>Allowed</Read>
          <AttributePermissions>
            <AttributePermission dwd:design-time-name="725b10dd-56f0-481d-872b-4671627d0d81">
              <AttributeID>Model Key</AttributeID>
            </AttributePermission>
            <AttributePermission dwd:design-time-name="cfb4e082-b9d8-42f1-ba0c-13934242ba48">
              <AttributeID>Type Vehicle Code</AttributeID>
              <AllowedSet>{[VehicleType].[VehicleType].&amp;[PC]}</AllowedSet>
              <VisualTotals>1</VisualTotals>
            </AttributePermission>
          </AttributePermissions>
        </DimensionPermission>
        <DimensionPermission dwd:design-time-name="521517a5-217f-4c55-9d91-2b85eef8a2ba">
          <CubeDimensionID>Segment</CubeDimensionID>
          <Read>Allowed</Read>
          <AttributePermissions>
            <AttributePermission dwd:design-time-name="5682c403-5eee-4304-88c3-b6897b114b19">
              <AttributeID>Segment Avtovaz</AttributeID>
              <VisualTotals>1</VisualTotals>
            </AttributePermission>
            <AttributePermission dwd:design-time-name="3d69646f-c04b-4b2c-80cb-cf5dda931452">
              <AttributeID>Segment Daimler</AttributeID>
              <VisualTotals>1</VisualTotals>
            </AttributePermission>
            <AttributePermission dwd:design-time-name="0990c3cd-88b8-4821-8672-39a32e0536f6">
              <AttributeID>Segment Daimler Van</AttributeID>
              <VisualTotals>1</VisualTotals>
            </AttributePermission>
            <AttributePermission dwd:design-time-name="d6b3cf8c-c40f-4245-8e9a-19210445e876">
              <AttributeID>Model Key</AttributeID>
            </AttributePermission>
          </AttributePermissions>
        </DimensionPermission>
      </DimensionPermissions>
    </CubePermission>
  </CubePermissions>
  <MeasureGroups>
    <MeasureGroup dwd:design-time-name="d153d5c9-109f-4f70-bfe3-5df60aaff753">
      <ID>v Fact Registration Clients</ID>
      <Name>Registration</Name>
      <CreatedTimestamp>0001-01-01T00:00:00Z</CreatedTimestamp>
      <LastSchemaUpdate>0001-01-01T00:00:00Z</LastSchemaUpdate>
      <LastProcessed>0001-01-01T00:00:00Z</LastProcessed>
      <State>Unprocessed</State>
      <Measures>
        <Measure dwd:design-time-name="aedc5306-4193-4ff5-96d8-dcca3912447d">
          <ID>Quantity</ID>
          <Name>Units</Name>
          <Source dwd:design-time-name="d3381c18-b842-4b7e-b5af-01d260dcc951">
            <DataType>Integer</DataType>
            <Source xsi:type="ColumnBinding" dwd:design-time-name="47f775b8-9978-4018-8405-c398aeed0589">
              <TableID>dbo_vFactRegistrationClients</TableID>
              <ColumnID>Quantity</ColumnID>
            </Source>
          </Source>
        </Measure>
      </Measures>
      <StorageMode>Molap</StorageMode>
      <StorageLocation>F:\OLAP\</StorageLocation>
      <ProcessingMode>Regular</ProcessingMode>
      <Dimensions>
        <Dimension xsi:type="RegularMeasureGroupDimension" dwd:design-time-name="62415b36-80ec-418e-9ddb-7985ce11961a">
          <CubeDimensionID>Body Type</CubeDimensionID>
          <Attributes>
            <Attribute dwd:design-time-name="d6c34162-f045-4dc1-a0ab-1bad51e3f29f">
              <AttributeID>Body Type Key</AttributeID>
              <KeyColumns>
                <KeyColumn dwd:design-time-name="981b9c00-e3e9-496a-a823-21ce43f3809c">
                  <DataType>SmallInt</DataType>
                  <Source xsi:type="ColumnBinding" dwd:design-time-name="11e6b084-1b28-43ca-acd6-102bdb192ca2">
                    <TableID>dbo_vFactRegistrationClients</TableID>
                    <ColumnID>BodyTypeKey</ColumnID>
                  </Source>
                </KeyColumn>
              </KeyColumns>
              <Type>Granularity</Type>
            </Attribute>
          </Attributes>
        </Dimension>
        <Dimension xsi:type="RegularMeasureGroupDimension" dwd:design-time-name="0d179ddd-0a43-4805-9b76-b51747537ef1">
          <CubeDimensionID>Body Type Special</CubeDimensionID>
          <Attributes>
            <Attribute dwd:design-time-name="baf49a26-77b6-47d1-aa33-ae48d1209eeb">
              <AttributeID>Body Type Special Key</AttributeID>
              <KeyColumns>
                <KeyColumn dwd:design-time-name="feb7b8c3-83b0-4529-8248-bcc6427e21ce">
                  <DataType>Integer</DataType>
                  <Source xsi:type="ColumnBinding" dwd:design-time-name="3424d0bc-0fb4-4003-855b-d60d41b7336e">
                    <TableID>dbo_vFactRegistrationClients</TableID>
                    <ColumnID>BodyTypeSpecialKey</ColumnID>
                  </Source>
                </KeyColumn>
              </KeyColumns>
              <Type>Granularity</Type>
            </Attribute>
          </Attributes>
        </Dimension>
        <Dimension xsi:type="RegularMeasureGroupDimension" dwd:design-time-name="3ac7eff2-ee77-437f-b2f6-66295e0db97a">
          <CubeDimensionID>Production Country</CubeDimensionID>
          <Attributes>
            <Attribute dwd:design-time-name="0eb33b83-086e-457b-b933-eb9639d39b13">
              <AttributeID>Country Key</AttributeID>
              <KeyColumns>
                <KeyColumn dwd:design-time-name="8be9ecc6-4cc8-446c-a8ce-a88f7b63b12f">
                  <DataType>SmallInt</DataType>
                  <Source xsi:type="ColumnBinding" dwd:design-time-name="1951e3a5-f5ec-43f8-8279-6bb45c73a834">
                    <TableID>dbo_vFactRegistrationClients</TableID>
                    <ColumnID>CountryKey</ColumnID>
                  </Source>
                </KeyColumn>
              </KeyColumns>
              <Type>Granularity</Type>
            </Attribute>
          </Attributes>
        </Dimension>
        <Dimension xsi:type="RegularMeasureGroupDimension" dwd:design-time-name="717adbde-8b7d-457c-8c66-077db21baed3">
          <CubeDimensionID>Curb Weight</CubeDimensionID>
          <Attributes>
            <Attribute dwd:design-time-name="58394e35-a4e8-4c1c-9190-5bb573aaa6c7">
              <AttributeID>CVW Key</AttributeID>
              <KeyColumns>
                <KeyColumn dwd:design-time-name="5a87d317-8958-404a-bff8-6205c01e7072">
                  <DataType>Integer</DataType>
                  <Source xsi:type="ColumnBinding" dwd:design-time-name="d69e11ac-e15b-4b50-b4d8-ac4921efa9b5">
                    <TableID>dbo_vFactRegistrationClients</TableID>
                    <ColumnID>CVWKey</ColumnID>
                  </Source>
                </KeyColumn>
              </KeyColumns>
              <Type>Granularity</Type>
            </Attribute>
          </Attributes>
        </Dimension>
        <Dimension xsi:type="RegularMeasureGroupDimension" dwd:design-time-name="7ecbc89e-199c-4d83-847f-e3864ce85cd6">
          <CubeDimensionID>Engine Power Hp</CubeDimensionID>
          <Attributes>
            <Attribute dwd:design-time-name="302a2cb8-d2a9-4f21-847a-d1708b28a8b9">
              <AttributeID>Engine Power H Key</AttributeID>
              <KeyColumns>
                <KeyColumn dwd:design-time-name="1669b947-c8aa-4ef0-ac34-1e255f19b379">
                  <DataType>Integer</DataType>
                  <Source xsi:type="ColumnBinding" dwd:design-time-name="6fe69509-67bd-4079-a6e5-365e83f658d1">
                    <TableID>dbo_vFactRegistrationClients</TableID>
                    <ColumnID>EnginePowerHKey</ColumnID>
                  </Source>
                </KeyColumn>
              </KeyColumns>
              <Type>Granularity</Type>
            </Attribute>
          </Attributes>
        </Dimension>
        <Dimension xsi:type="RegularMeasureGroupDimension" dwd:design-time-name="bfb3cbbc-92a1-4008-822b-f743586f0320">
          <CubeDimensionID>Engine Power kWt</CubeDimensionID>
          <Attributes>
            <Attribute dwd:design-time-name="021f2adf-e733-45db-a027-43e78ca92ced">
              <AttributeID>Engine Power KW Key</AttributeID>
              <KeyColumns>
                <KeyColumn dwd:design-time-name="454096c7-7105-492c-8b6b-bacbe1ed34cf">
                  <DataType>Integer</DataType>
                  <Source xsi:type="ColumnBinding" dwd:design-time-name="0973f8d9-1044-46b8-b83a-94913f8cb653">
                    <TableID>dbo_vFactRegistrationClients</TableID>
                    <ColumnID>EnginePowerKWKey</ColumnID>
                  </Source>
                </KeyColumn>
              </KeyColumns>
              <Type>Granularity</Type>
            </Attribute>
          </Attributes>
        </Dimension>
        <Dimension xsi:type="RegularMeasureGroupDimension" dwd:design-time-name="260372df-619b-4095-8fe5-7a3290479b03">
          <CubeDimensionID>Fuel Type</CubeDimensionID>
          <Attributes>
            <Attribute dwd:design-time-name="c28835b9-9c52-4826-b0f3-1fe4c3146d28">
              <AttributeID>Fuel Type Key</AttributeID>
              <KeyColumns>
                <KeyColumn dwd:design-time-name="3e773a8e-0e8d-48d9-b43c-b044d03e188b">
                  <DataType>SmallInt</DataType>
                  <Source xsi:type="ColumnBinding" dwd:design-time-name="afa01629-bd48-471c-93c7-a185748d4a14">
                    <TableID>dbo_vFactRegistrationClients</TableID>
                    <ColumnID>FuelTypeKey</ColumnID>
                  </Source>
                </KeyColumn>
              </KeyColumns>
              <Type>Granularity</Type>
            </Attribute>
          </Attributes>
        </Dimension>
        <Dimension xsi:type="RegularMeasureGroupDimension" dwd:design-time-name="a7cc121b-e7e7-4f53-b5eb-4b57a7d96ead">
          <CubeDimensionID>Geography</CubeDimensionID>
          <Attributes>
            <Attribute dwd:design-time-name="65d9919d-a80f-41c6-8e39-0b503f0f6551">
              <AttributeID>Geography Key</AttributeID>
              <KeyColumns>
                <KeyColumn dwd:design-time-name="1144f2fa-d473-4eed-a127-8884ea717986">
                  <DataType>Integer</DataType>
                  <Source xsi:type="ColumnBinding" dwd:design-time-name="edd32609-7142-49cf-bcd3-a0d7e8e2f53e">
                    <TableID>dbo_vFactRegistrationClients</TableID>
                    <ColumnID>OwnerGeographyKey</ColumnID>
                  </Source>
                </KeyColumn>
              </KeyColumns>
              <Type>Granularity</Type>
            </Attribute>
          </Attributes>
        </Dimension>
        <Dimension xsi:type="RegularMeasureGroupDimension" dwd:design-time-name="709230da-6add-4e68-bed2-a29e8d09bc66">
          <CubeDimensionID>Gross Weight</CubeDimensionID>
          <Attributes>
            <Attribute dwd:design-time-name="1c278f8a-eb21-44bf-ad51-f08b8ad58ef8">
              <AttributeID>GVW Key</AttributeID>
              <KeyColumns>
                <KeyColumn dwd:design-time-name="065444f6-a5e8-4a28-848c-fda52c4647e3">
                  <DataType>Integer</DataType>
                  <Source xsi:type="ColumnBinding" dwd:design-time-name="e9818472-c49c-4c13-a9ad-d57621d7f180">
                    <TableID>dbo_vFactRegistrationClients</TableID>
                    <ColumnID>GVWKey</ColumnID>
                  </Source>
                </KeyColumn>
              </KeyColumns>
              <Type>Granularity</Type>
            </Attribute>
          </Attributes>
        </Dimension>
        <Dimension xsi:type="RegularMeasureGroupDimension" dwd:design-time-name="1e70644d-120a-497f-bb16-6a5a0acfa577">
          <CubeDimensionID>VehicleType</CubeDimensionID>
          <Attributes>
            <Attribute dwd:design-time-name="c03e40cd-982e-4714-a734-257ec3285c0f">
              <AttributeID>Model Key</AttributeID>
              <KeyColumns>
                <KeyColumn dwd:design-time-name="5fc8770b-ae28-4dbc-b07c-f2ecb46271c8">
                  <DataType>Integer</DataType>
                  <Source xsi:type="ColumnBinding" dwd:design-time-name="910f3df1-38ae-472c-a2ec-e907ff527bb0">
                    <TableID>dbo_vFactRegistrationClients</TableID>
                    <ColumnID>ModelKey</ColumnID>
                  </Source>
                </KeyColumn>
              </KeyColumns>
              <Type>Granularity</Type>
            </Attribute>
          </Attributes>
        </Dimension>
        <Dimension xsi:type="RegularMeasureGroupDimension" dwd:design-time-name="8ffe52d0-b6c2-4e73-9c68-2c26d2062d1e">
          <CubeDimensionID>Owner Type</CubeDimensionID>
          <Attributes>
            <Attribute dwd:design-time-name="42969b3a-1634-4b30-b0c3-aa38d3124375">
              <AttributeID>Owner Type Key</AttributeID>
              <KeyColumns>
                <KeyColumn dwd:design-time-name="7075e9bb-3cdd-444d-98aa-aec62d315e24">
                  <DataType>SmallInt</DataType>
                  <Source xsi:type="ColumnBinding" dwd:design-time-name="acccb0c0-91c0-4b1f-880a-0164bdfd6e02">
                    <TableID>dbo_vFactRegistrationClients</TableID>
                    <ColumnID>OwnerTypeKey</ColumnID>
                  </Source>
                </KeyColumn>
              </KeyColumns>
              <Type>Granularity</Type>
            </Attribute>
          </Attributes>
        </Dimension>
        <Dimension xsi:type="RegularMeasureGroupDimension" dwd:design-time-name="101591ef-7e29-4daf-8377-dfc4eac31e5b">
          <CubeDimensionID>Prod Year</CubeDimensionID>
          <Attributes>
            <Attribute dwd:design-time-name="bf9aa763-66e9-44ea-9984-e0b9435c5848">
              <AttributeID>Prod Year Key</AttributeID>
              <KeyColumns>
                <KeyColumn dwd:design-time-name="d622b132-f776-47cf-8f52-7da1f08c0377">
                  <DataType>Integer</DataType>
                  <Source xsi:type="ColumnBinding" dwd:design-time-name="026ca9a2-c976-4855-b0bd-7969415acab6">
                    <TableID>dbo_vFactRegistrationClients</TableID>
                    <ColumnID>ProdYearKey</ColumnID>
                  </Source>
                </KeyColumn>
              </KeyColumns>
              <Type>Granularity</Type>
            </Attribute>
          </Attributes>
        </Dimension>
        <Dimension xsi:type="RegularMeasureGroupDimension" dwd:design-time-name="6c5bb9e9-c855-4af3-aa25-9caef26eb2b8">
          <CubeDimensionID>Registration Type</CubeDimensionID>
          <Attributes>
            <Attribute dwd:design-time-name="6de9b5cd-da11-4a09-aff9-62a5975ca15a">
              <AttributeID>Registration Type Key</AttributeID>
              <KeyColumns>
                <KeyColumn dwd:design-time-name="860f2864-8606-42a8-9cc8-2f9746d356b6">
                  <DataType>SmallInt</DataType>
                  <Source xsi:type="ColumnBinding" dwd:design-time-name="bb855472-6756-4146-8c9d-5641d5c9dddc">
                    <TableID>dbo_vFactRegistrationClients</TableID>
                    <ColumnID>RegistrationTypeKey</ColumnID>
                  </Source>
                </KeyColumn>
              </KeyColumns>
              <Type>Granularity</Type>
            </Attribute>
          </Attributes>
        </Dimension>
        <Dimension xsi:type="RegularMeasureGroupDimension" dwd:design-time-name="923a447d-5bf0-4e83-8d90-62bc31869f2b">
          <CubeDimensionID>Steering Wheel</CubeDimensionID>
          <Attributes>
            <Attribute dwd:design-time-name="77801f54-f9cb-419e-a039-586bfc4b69bd">
              <AttributeID>Steering Wheel Key</AttributeID>
              <KeyColumns>
                <KeyColumn dwd:design-time-name="d3519ff4-694f-4bea-9f74-c3d3155bfe60">
                  <DataType>SmallInt</DataType>
                  <Source xsi:type="ColumnBinding" dwd:design-time-name="79813c11-1b57-4742-8412-d240198417db">
                    <TableID>dbo_vFactRegistrationClients</TableID>
                    <ColumnID>SteeringWheelKey</ColumnID>
                  </Source>
                </KeyColumn>
              </KeyColumns>
              <Type>Granularity</Type>
            </Attribute>
          </Attributes>
        </Dimension>
        <Dimension xsi:type="RegularMeasureGroupDimension" dwd:design-time-name="42c57463-a23a-45d0-96ad-53ca537ec75b">
          <CubeDimensionID>Calendar</CubeDimensionID>
          <Attributes>
            <Attribute dwd:design-time-name="f1098cfd-d1db-4ef7-ba78-855d63666716">
              <AttributeID>Registration Date Key</AttributeID>
              <KeyColumns>
                <KeyColumn dwd:design-time-name="bcd4c75f-3821-4ec0-b549-8c9c808792b0">
                  <DataType>Integer</DataType>
                  <Source xsi:type="ColumnBinding" dwd:design-time-name="4adff3c5-615a-4282-b456-83f0deb4eb63">
                    <TableID>dbo_vFactRegistrationClients</TableID>
                    <ColumnID>RegistrationDateKey</ColumnID>
                  </Source>
                </KeyColumn>
              </KeyColumns>
              <Type>Granularity</Type>
            </Attribute>
          </Attributes>
        </Dimension>
        <Dimension xsi:type="RegularMeasureGroupDimension" dwd:design-time-name="7e8dc17e-c2f6-4b00-998a-05030790935a">
          <CubeDimensionID>Brand Model</CubeDimensionID>
          <Attributes>
            <Attribute dwd:design-time-name="9261abe0-59d8-4c50-af6b-eaa963dca1c5">
              <AttributeID>Model Key</AttributeID>
              <KeyColumns>
                <KeyColumn dwd:design-time-name="5add6325-1cfc-410b-9c9d-280ecce8814e">
                  <DataType>Integer</DataType>
                  <Source xsi:type="ColumnBinding" dwd:design-time-name="08735d74-f777-4adf-9dbe-c570a24d3d9d">
                    <TableID>dbo_vFactRegistrationClients</TableID>
                    <ColumnID>ModelKey</ColumnID>
                  </Source>
                </KeyColumn>
              </KeyColumns>
              <Type>Granularity</Type>
            </Attribute>
          </Attributes>
        </Dimension>
        <Dimension xsi:type="RegularMeasureGroupDimension" dwd:design-time-name="b92f2e5c-1d0c-4fc1-9a1f-0a2235481494">
          <CubeDimensionID>Segment</CubeDimensionID>
          <Attributes>
            <Attribute dwd:design-time-name="9da56e68-b439-4bff-9744-09d5f839cccb">
              <AttributeID>Model Key</AttributeID>
              <KeyColumns>
                <KeyColumn dwd:design-time-name="23983796-6f5e-4b25-b032-65cf5eb0b947">
                  <DataType>Integer</DataType>
                  <Source xsi:type="ColumnBinding" dwd:design-time-name="95420827-48de-4130-844c-414fc8f943fe">
                    <TableID>dbo_vFactRegistrationClients</TableID>
                    <ColumnID>ModelKey</ColumnID>
                  </Source>
                </KeyColumn>
              </KeyColumns>
              <Type>Granularity</Type>
            </Attribute>
          </Attributes>
        </Dimension>
        <Dimension xsi:type="RegularMeasureGroupDimension" dwd:design-time-name="2e62bc04-47cd-4931-977f-d6e6d83c963f">
          <CubeDimensionID>Euro Class</CubeDimensionID>
          <Attributes>
            <Attribute dwd:design-time-name="feadb679-cb9c-4475-b05e-9e32903e7d1e">
              <AttributeID>Euro Class Key</AttributeID>
              <KeyColumns>
                <KeyColumn dwd:design-time-name="0aeec2ad-7e54-40d2-8c71-decfb0418a6b">
                  <DataType>SmallInt</DataType>
                  <Source xsi:type="ColumnBinding" dwd:design-time-name="e4db193e-5391-4dc0-ab48-0825a36968ff">
                    <TableID>dbo_vFactRegistrationClients</TableID>
                    <ColumnID>EuroClassKey</ColumnID>
                  </Source>
                </KeyColumn>
              </KeyColumns>
              <Type>Granularity</Type>
            </Attribute>
          </Attributes>
        </Dimension>
        <Dimension xsi:type="RegularMeasureGroupDimension" dwd:design-time-name="8acb0ea9-96fb-4cd1-8446-5ee4ba76572c">
          <CubeDimensionID>Engine Capacity</CubeDimensionID>
          <Attributes>
            <Attribute dwd:design-time-name="acdeeaaa-063d-4bf3-b626-b2de76d2cbea">
              <AttributeID>Engine Capacity Key</AttributeID>
              <KeyColumns>
                <KeyColumn dwd:design-time-name="5dc5770a-96a3-413d-a723-5dddd3f7269d">
                  <DataType>Integer</DataType>
                  <Source xsi:type="ColumnBinding" dwd:design-time-name="ff2e1c36-9182-4c58-b1af-8798cb4e37ae">
                    <TableID>dbo_vFactRegistrationClients</TableID>
                    <ColumnID>EngineCapacityKey</ColumnID>
                  </Source>
                </KeyColumn>
              </KeyColumns>
              <Type>Granularity</Type>
            </Attribute>
          </Attributes>
        </Dimension>
        <Dimension xsi:type="RegularMeasureGroupDimension" dwd:design-time-name="1c28c340-471e-46cd-8d75-1ab5554485f6">
          <CubeDimensionID>Brand Origin</CubeDimensionID>
          <Attributes>
            <Attribute dwd:design-time-name="df6c8a79-8ba7-406b-ac18-6666b33e2472">
              <AttributeID>Model Key</AttributeID>
              <KeyColumns>
                <KeyColumn dwd:design-time-name="ca98a1a3-0f75-4435-9a47-68dae04b8fa6">
                  <DataType>Integer</DataType>
                  <Source xsi:type="ColumnBinding" dwd:design-time-name="f774a65a-a5b3-47bf-86a1-8569e14eb5ab">
                    <TableID>dbo_vFactRegistrationClients</TableID>
                    <ColumnID>ModelKey</ColumnID>
                  </Source>
                </KeyColumn>
              </KeyColumns>
              <Type>Granularity</Type>
            </Attribute>
          </Attributes>
        </Dimension>
        <Dimension xsi:type="RegularMeasureGroupDimension" dwd:design-time-name="8e872824-ae1d-4b75-8d48-7834f3a74a56">
          <CubeDimensionID>Age</CubeDimensionID>
          <Attributes>
            <Attribute dwd:design-time-name="e76a9e5b-bee9-4877-9c78-13fa3df7f848">
              <AttributeID>Age Range Key</AttributeID>
              <KeyColumns>
                <KeyColumn dwd:design-time-name="3c40ba5e-266e-4a15-b8ff-dc3e7cf56ef4">
                  <DataType>Integer</DataType>
                  <Source xsi:type="ColumnBinding" dwd:design-time-name="aa3606d7-3cfa-4891-a24d-00fde94f4525">
                    <TableID>dbo_vFactRegistrationClients</TableID>
                    <ColumnID>AgeRangeKey</ColumnID>
                  </Source>
                </KeyColumn>
              </KeyColumns>
              <Type>Granularity</Type>
            </Attribute>
          </Attributes>
        </Dimension>
      </Dimensions>
      <Partitions />
    </MeasureGroup>
  </MeasureGroups>
  <Source dwd:design-time-name="57089309-dd08-47ed-8f6b-82cb692ac88d">
    <DataSourceViewID>Autostat DW New</DataSourceViewID>
  </Source>
  <MdxScripts>
    <MdxScript dwd:design-time-name="12164191-a9fd-4563-8da3-9029ee047f20">
      <ID>MdxScript</ID>
      <Name>MdxScript</Name>
      <CreatedTimestamp>0001-01-01T00:00:00Z</CreatedTimestamp>
      <LastSchemaUpdate>0001-01-01T00:00:00Z</LastSchemaUpdate>
      <Commands>
        <Command>
          <Text>/*
The CALCULATE command controls the aggregation of leaf cells in the cube.
If the CALCULATE command is deleted or modified, the data within the cube is affected.
You should edit this command only if you manually specify how the cube is aggregated.
*/
CALCULATE;  

CREATE MEMBER CURRENTCUBE.[Measures].[Uts prev. Year]
 AS [Measures].[Units], 
NON_EMPTY_BEHAVIOR = { [Units] }, 
VISIBLE = 1 ,  ASSOCIATED_MEASURE_GROUP = 'Registration';  

SCOPE ([Calendar].[Calendar].[Month], [Measures].[Uts prev. Year]);               
THIS = (ParallelPeriod([Calendar].[Calendar].[Month], 12),[Measures].[Units]);  
END SCOPE;               
SCOPE ([Calendar].[Calendar].[Quarter], [Measures].[Uts prev. Year]);               
THIS = (ParallelPeriod([Calendar].[Calendar].[Quarter], 4), [Measures].[Units]);  
END SCOPE;               
SCOPE ([Calendar].[Calendar].[Half-year], [Measures].[Uts prev. Year]);               
THIS = (ParallelPeriod([Calendar].[Calendar].[Half-year], 2), [Measures].[Units]);  
END SCOPE;               
SCOPE ([Calendar].[Calendar].[Year], [Measures].[Uts prev. Year]);               
THIS = (ParallelPeriod([Calendar].[Calendar].[Year], 1), [Measures].[Units]);  
END SCOPE;               

CREATE MEMBER CURRENTCUBE.[Measures].[Diff pY abs]
 AS [Measures].[Units] - [Measures].[Uts prev. Year], 
NON_EMPTY_BEHAVIOR = { [Units] }, 
VISIBLE = 1 ,  ASSOCIATED_MEASURE_GROUP = 'Registration';  

CREATE MEMBER CURRENTCUBE.[Measures].[Diff pY in %]
 AS IIF([Measures].[Uts prev. Year] = 0, 0, Round((([Measures].[Units]/[Measures].[Uts prev. Year])-1)*100, 2)), 
FORMAT_STRING = "Standard", 
NON_EMPTY_BEHAVIOR = { [Units] }, 
VISIBLE = 1 ,  ASSOCIATED_MEASURE_GROUP = 'Registration';  

CREATE MEMBER CURRENTCUBE.[Measures].[Uts ytd]
 AS Aggregate(
        PeriodsToDate(
            [Calendar].[Calendar].[Year], 
            [Calendar].[Calendar].CurrentMember)
,	[Measures].[Units]), 
NON_EMPTY_BEHAVIOR = { [Units] }, 
VISIBLE = 1 ,  ASSOCIATED_MEASURE_GROUP = 'Registration';               

CREATE MEMBER CURRENTCUBE.[Measures].[Uts prev. year ytd]
 AS Aggregate(
        PeriodsToDate(
            [Calendar].[Calendar].[Year], 
            ParallelPeriod([Calendar].[Calendar].[Year], 1, [Calendar].[Calendar].CurrentMember))
,	[Measures].[Units]), 
NON_EMPTY_BEHAVIOR = { [Units] }, 
VISIBLE = 1 ,  ASSOCIATED_MEASURE_GROUP = 'Registration';               

CREATE MEMBER CURRENTCUBE.[Measures].[Diff. pY abs. ytd]
 AS [Measures].[Uts ytd] - [Measures].[Uts prev. year ytd], 
NON_EMPTY_BEHAVIOR = { [Units] }, 
VISIBLE = 1 ,  ASSOCIATED_MEASURE_GROUP = 'Registration';  

CREATE MEMBER CURRENTCUBE.[Measures].[Diff. pY in % ytd] -- AS IIF([Measures].[Uts prev. year ytd] = 0, 0, IIF([Measures].[Uts ytd] = 0, 0, ([Measures].[Uts ytd]/[Measures].[Uts prev. year ytd])*100-100)), 
 
 AS IIF(([Measures].[Uts ytd]/[Measures].[Uts prev. year ytd])*100 &gt; 0, IIF(([Measures].[Uts ytd]/[Measures].[Uts prev. year ytd])*100 &lt; 10000, Round(([Measures].[Uts ytd]/[Measures].[Uts prev. year ytd])*100 - 100, 2), Null), Null), 
FORMAT_STRING = "Standard", 
NON_EMPTY_BEHAVIOR = { [Units] }, 
VISIBLE = 1 ,  ASSOCIATED_MEASURE_GROUP = 'Registration'; </Text>
        </Command>
      </Commands>
    </MdxScript>
  </MdxScripts>
  <StorageLocation>F:\OLAP\</StorageLocation>
</Cube>