﻿<Cube xmlns:xsd="http://www.w3.org/2001/XMLSchema" xmlns:xsi="http://www.w3.org/2001/XMLSchema-instance" xmlns:ddl2="http://schemas.microsoft.com/analysisservices/2003/engine/2" xmlns:ddl2_2="http://schemas.microsoft.com/analysisservices/2003/engine/2/2" xmlns:ddl100_100="http://schemas.microsoft.com/analysisservices/2008/engine/100/100" xmlns:ddl200="http://schemas.microsoft.com/analysisservices/2010/engine/200" xmlns:ddl200_200="http://schemas.microsoft.com/analysisservices/2010/engine/200/200" xmlns:ddl300="http://schemas.microsoft.com/analysisservices/2011/engine/300" xmlns:ddl300_300="http://schemas.microsoft.com/analysisservices/2011/engine/300/300" xmlns:ddl400="http://schemas.microsoft.com/analysisservices/2012/engine/400" xmlns:ddl400_400="http://schemas.microsoft.com/analysisservices/2012/engine/400/400" xmlns:dwd="http://schemas.microsoft.com/DataWarehouse/Designer/1.0" dwd:design-time-name="06d55fce-4112-4f53-8bfb-62290a9bcfba" xmlns="http://schemas.microsoft.com/analysisservices/2003/engine">
  <ID>Парк</ID>
  <Name>Парк</Name>
  <CreatedTimestamp>0001-01-01T00:00:00Z</CreatedTimestamp>
  <LastSchemaUpdate>0001-01-01T00:00:00Z</LastSchemaUpdate>
  <Annotations>
    <Annotation>
      <Name>http://schemas.microsoft.com/DataWarehouse/Designer/1.0:DiagramLayout</Name>
      <Value>
        <dds xmlns="">
          <diagram fontclsid="{0BE35203-8F91-11CE-9DE3-00AA004BB851}" mouseiconclsid="{0BE35204-8F91-11CE-9DE3-00AA004BB851}" defaultlayout="MSDDS.Rectilinear" defaultlineroute="MSDDS.Rectilinear" version="7" nextobject="62" scale="100" pagebreakanchorx="0" pagebreakanchory="0" pagebreaksizex="0" pagebreaksizey="0" scrollleft="-213" scrolltop="-724" gridx="150" gridy="150" marginx="5000" marginy="5000" zoom="81" x="21114" y="13705" backcolor="15334399" defaultpersistence="2" PrintPageNumbersMode="3" PrintMarginTop="0" PrintMarginBottom="635" PrintMarginLeft="0" PrintMarginRight="0" marqueeselectionmode="0" mousepointer="0" snaptogrid="0" autotypeannotation="1" showscrollbars="1" viewpagebreaks="0" donotforceconnectorsbehindshapes="1" backpictureclsid="{00000000-0000-0000-0000-000000000000}">
            <font>
              <ddsxmlobjectstreamwrapper binary="01cc0000900144420100065461686f6d61" />
            </font>
            <mouseicon>
              <ddsxmlobjectstreamwrapper binary="6c74000000000000" />
            </mouseicon>
          </diagram>
          <layoutmanager>
            <ddsxmlobj />
          </layoutmanager>
          <ddscontrol controlprogid="DdsShapes.DdsObjectManagedBridge.3" tooltip="DimProdYear" left="6072" top="3148" logicalid="31" controlid="1" masterid="0" hint1="0" hint2="0" width="4048" height="3149" noresize="0" nomove="0" nodefaultattachpoints="0" autodrag="1" usedefaultiddshape="1" selectable="1" showselectionhandles="1" allownudging="1" isannotation="0" dontautolayout="0" groupcollapsed="0" tabstop="1" visible="1" snaptogrid="0">
            <control>
              <ddsxmlobjectstreaminitwrapper binary="00080000d00f00004d0c0000" />
            </control>
            <layoutobject>
              <ddsxmlobj>
                <property name="LogicalObject" value="dbo_DimProdYear" vartype="8" />
              </ddsxmlobj>
            </layoutobject>
            <shape groupshapeid="0" groupnode="0" />
          </ddscontrol>
          <ddscontrol controlprogid="DdsShapes.DdsObjectManagedBridge.3" tooltip="DimEuroClass" left="10320" top="4086" logicalid="32" controlid="2" masterid="0" hint1="0" hint2="0" width="4128" height="2725" noresize="0" nomove="0" nodefaultattachpoints="0" autodrag="1" usedefaultiddshape="1" selectable="1" showselectionhandles="1" allownudging="1" isannotation="0" dontautolayout="0" groupcollapsed="0" tabstop="1" visible="1" snaptogrid="0">
            <control>
              <ddsxmlobjectstreaminitwrapper binary="0008000020100000a50a0000" />
            </control>
            <layoutobject>
              <ddsxmlobj>
                <property name="LogicalObject" value="dbo_DimEuroClass" vartype="8" />
              </ddsxmlobj>
            </layoutobject>
            <shape groupshapeid="0" groupnode="0" />
          </ddscontrol>
          <ddscontrol controlprogid="DdsShapes.DdsObjectManagedBridge.3" tooltip="DimCountry" left="4500" top="10896" logicalid="33" controlid="3" masterid="0" hint1="0" hint2="0" width="3000" height="2725" noresize="0" nomove="0" nodefaultattachpoints="0" autodrag="1" usedefaultiddshape="1" selectable="1" showselectionhandles="1" allownudging="1" isannotation="0" dontautolayout="0" groupcollapsed="0" tabstop="1" visible="1" snaptogrid="0">
            <control>
              <ddsxmlobjectstreaminitwrapper binary="00080000b80b0000a50a0000" />
            </control>
            <layoutobject>
              <ddsxmlobj>
                <property name="LogicalObject" value="dbo_DimCountry" vartype="8" />
              </ddsxmlobj>
            </layoutobject>
            <shape groupshapeid="0" groupnode="0" />
          </ddscontrol>
          <ddscontrol controlprogid="DdsShapes.DdsObjectManagedBridge.3" tooltip="DimEnginePowerKWPark" left="14844" top="3572" logicalid="34" controlid="4" masterid="0" hint1="0" hint2="0" width="4948" height="3572" noresize="0" nomove="0" nodefaultattachpoints="0" autodrag="1" usedefaultiddshape="1" selectable="1" showselectionhandles="1" allownudging="1" isannotation="0" dontautolayout="0" groupcollapsed="0" tabstop="1" visible="1" snaptogrid="0">
            <control>
              <ddsxmlobjectstreaminitwrapper binary="0008000054130000f40d0000" />
            </control>
            <layoutobject>
              <ddsxmlobj>
                <property name="LogicalObject" value="dbo_DimEnginePowerKWPark" vartype="8" />
              </ddsxmlobj>
            </layoutobject>
            <shape groupshapeid="0" groupnode="0" />
          </ddscontrol>
          <ddscontrol controlprogid="DdsShapes.DdsObjectManagedBridge.3" tooltip="DimEnginePowerHPark" left="18575" top="13024" logicalid="35" controlid="5" masterid="0" hint1="0" hint2="0" width="4710" height="3572" noresize="0" nomove="0" nodefaultattachpoints="0" autodrag="1" usedefaultiddshape="1" selectable="1" showselectionhandles="1" allownudging="1" isannotation="0" dontautolayout="0" groupcollapsed="0" tabstop="1" visible="1" snaptogrid="0">
            <control>
              <ddsxmlobjectstreaminitwrapper binary="0008000066120000f40d0000" />
            </control>
            <layoutobject>
              <ddsxmlobj>
                <property name="LogicalObject" value="dbo_DimEnginePowerHPark" vartype="8" />
              </ddsxmlobj>
            </layoutobject>
            <shape groupshapeid="0" groupnode="0" />
          </ddscontrol>
          <ddscontrol controlprogid="DdsShapes.DdsObjectManagedBridge.3" tooltip="DimEngineCapacityPark" left="9684" top="12502" logicalid="36" controlid="6" masterid="0" hint1="0" hint2="0" width="4842" height="3572" noresize="0" nomove="0" nodefaultattachpoints="0" autodrag="1" usedefaultiddshape="1" selectable="1" showselectionhandles="1" allownudging="1" isannotation="0" dontautolayout="0" groupcollapsed="0" tabstop="1" visible="1" snaptogrid="0">
            <control>
              <ddsxmlobjectstreaminitwrapper binary="00080000ea120000f40d0000" />
            </control>
            <layoutobject>
              <ddsxmlobj>
                <property name="LogicalObject" value="dbo_DimEngineCapacityPark" vartype="8" />
              </ddsxmlobj>
            </layoutobject>
            <shape groupshapeid="0" groupnode="0" />
          </ddscontrol>
          <ddscontrol controlprogid="DdsShapes.DdsObjectManagedBridge.3" tooltip="DimGrossVehicleWeightPark" left="5238" top="7144" logicalid="37" controlid="7" masterid="0" hint1="0" hint2="0" width="3493" height="3572" noresize="0" nomove="0" nodefaultattachpoints="0" autodrag="1" usedefaultiddshape="1" selectable="1" showselectionhandles="1" allownudging="1" isannotation="0" dontautolayout="0" groupcollapsed="0" tabstop="1" visible="1" snaptogrid="0">
            <control>
              <ddsxmlobjectstreaminitwrapper binary="00080000a50d0000f40d0000" />
            </control>
            <layoutobject>
              <ddsxmlobj>
                <property name="LogicalObject" value="dbo_DimGrossVehicleWeightPark" vartype="8" />
              </ddsxmlobj>
            </layoutobject>
            <shape groupshapeid="0" groupnode="0" />
          </ddscontrol>
          <ddscontrol controlprogid="DdsShapes.DdsObjectManagedBridge.3" tooltip="DimSteeringWheel" left="14240" top="9349" logicalid="38" controlid="8" masterid="0" hint1="0" hint2="0" width="4736" height="2725" noresize="0" nomove="0" nodefaultattachpoints="0" autodrag="1" usedefaultiddshape="1" selectable="1" showselectionhandles="1" allownudging="1" isannotation="0" dontautolayout="0" groupcollapsed="0" tabstop="1" visible="1" snaptogrid="0">
            <control>
              <ddsxmlobjectstreaminitwrapper binary="0008000080120000a50a0000" />
            </control>
            <layoutobject>
              <ddsxmlobj>
                <property name="LogicalObject" value="dbo_DimSteeringWheel" vartype="8" />
              </ddsxmlobj>
            </layoutobject>
            <shape groupshapeid="0" groupnode="0" />
          </ddscontrol>
          <ddscontrol controlprogid="DdsShapes.DdsObjectManagedBridge.3" tooltip="DimCurbVehicleWeightPark" left="10476" top="0" logicalid="39" controlid="9" masterid="0" hint1="0" hint2="0" width="3493" height="3572" noresize="0" nomove="0" nodefaultattachpoints="0" autodrag="1" usedefaultiddshape="1" selectable="1" showselectionhandles="1" allownudging="1" isannotation="0" dontautolayout="0" groupcollapsed="0" tabstop="1" visible="1" snaptogrid="0">
            <control>
              <ddsxmlobjectstreaminitwrapper binary="00080000a50d0000f40d0000" />
            </control>
            <layoutobject>
              <ddsxmlobj>
                <property name="LogicalObject" value="dbo_DimCurbVehicleWeightPark" vartype="8" />
              </ddsxmlobj>
            </layoutobject>
            <shape groupshapeid="0" groupnode="0" />
          </ddscontrol>
          <ddscontrol controlprogid="DdsShapes.DdsObjectManagedBridge.3" tooltip="DimOwnerType" left="0" top="12258" logicalid="40" controlid="10" masterid="0" hint1="0" hint2="0" width="4366" height="2725" noresize="0" nomove="0" nodefaultattachpoints="0" autodrag="1" usedefaultiddshape="1" selectable="1" showselectionhandles="1" allownudging="1" isannotation="0" dontautolayout="0" groupcollapsed="0" tabstop="1" visible="1" snaptogrid="0">
            <control>
              <ddsxmlobjectstreaminitwrapper binary="000800000e110000a50a0000" />
            </control>
            <layoutobject>
              <ddsxmlobj>
                <property name="LogicalObject" value="dbo_DimOwnerType" vartype="8" />
              </ddsxmlobj>
            </layoutobject>
            <shape groupshapeid="0" groupnode="0" />
          </ddscontrol>
          <ddscontrol controlprogid="DdsShapes.DdsObjectManagedBridge.3" tooltip="DimBodyTypeCategory" left="0" top="7263" logicalid="41" controlid="11" masterid="0" hint1="0" hint2="0" width="4154" height="4842" noresize="0" nomove="0" nodefaultattachpoints="0" autodrag="1" usedefaultiddshape="1" selectable="1" showselectionhandles="1" allownudging="1" isannotation="0" dontautolayout="0" groupcollapsed="0" tabstop="1" visible="1" snaptogrid="0">
            <control>
              <ddsxmlobjectstreaminitwrapper binary="000800003a100000ea120000" />
            </control>
            <layoutobject>
              <ddsxmlobj>
                <property name="LogicalObject" value="dbo_DimBodyTypeCategory" vartype="8" />
              </ddsxmlobj>
            </layoutobject>
            <shape groupshapeid="0" groupnode="0" />
          </ddscontrol>
          <ddscontrol controlprogid="DdsShapes.DdsObjectManagedBridge.3" tooltip="DimFuelType" left="6072" top="0" logicalid="42" controlid="12" masterid="0" hint1="0" hint2="0" width="4048" height="2725" noresize="0" nomove="0" nodefaultattachpoints="0" autodrag="1" usedefaultiddshape="1" selectable="1" showselectionhandles="1" allownudging="1" isannotation="0" dontautolayout="0" groupcollapsed="0" tabstop="1" visible="1" snaptogrid="0">
            <control>
              <ddsxmlobjectstreaminitwrapper binary="00080000d00f0000a50a0000" />
            </control>
            <layoutobject>
              <ddsxmlobj>
                <property name="LogicalObject" value="dbo_DimFuelType" vartype="8" />
              </ddsxmlobj>
            </layoutobject>
            <shape groupshapeid="0" groupnode="0" />
          </ddscontrol>
          <ddscontrol controlprogid="DdsShapes.DdsObjectManagedBridge.3" tooltip="vDimModels_PC_LCV" left="4523" top="14276" logicalid="43" controlid="13" masterid="0" hint1="0" hint2="0" width="4736" height="5000" noresize="0" nomove="0" nodefaultattachpoints="0" autodrag="1" usedefaultiddshape="1" selectable="1" showselectionhandles="1" allownudging="1" isannotation="0" dontautolayout="0" groupcollapsed="0" tabstop="1" visible="1" snaptogrid="0">
            <control>
              <ddsxmlobjectstreaminitwrapper binary="000800008012000088130000" />
            </control>
            <layoutobject>
              <ddsxmlobj>
                <property name="LogicalObject" value="dbo_vDimModels_PC_LCV" vartype="8" />
              </ddsxmlobj>
            </layoutobject>
            <shape groupshapeid="0" groupnode="0" />
          </ddscontrol>
          <ddscontrol controlprogid="MSDDS.Polyline" left="4495" top="13122" logicalid="44" controlid="14" masterid="0" hint1="0" hint2="0" width="1596" height="1454" noresize="0" nomove="0" nodefaultattachpoints="1" autodrag="0" usedefaultiddshape="0" selectable="1" showselectionhandles="0" allownudging="1" isannotation="0" dontautolayout="0" groupcollapsed="0" tabstop="1" visible="1" snaptogrid="0">
            <control>
              <ddsxmlobj>
                <polyline endtypedst="6" endtypesrc="3" usercolor="0" linestyle="0" linerender="1" customendtypedstid="0" customendtypesrcid="0" adornsvisible="1" />
              </ddsxmlobj>
            </control>
            <layoutobject>
              <ddsxmlobj>
                <property name="LogicalObject" value="dataSet.Relations[vDimModels_PC_LCV-DimCountry]" vartype="8" />
                <property name="Virtual" value="0" vartype="11" />
                <property name="VisibleAP" value="0" vartype="3" />
              </ddsxmlobj>
            </layoutobject>
            <connector lineroutestyle="MSDDS.Rectilinear" sourceid="3" destid="13" sourceattachpoint="1" destattachpoint="4" segmenteditmode="0" bendpointeditmode="0" bendpointvisibility="0" relatedid="0" virtual="0">
              <point x="4900" y="13621" />
              <point x="4900" y="14021" />
              <point x="4795" y="14021" />
              <point x="4795" y="13876" />
              <point x="5791" y="13876" />
              <point x="5791" y="14276" />
            </connector>
          </ddscontrol>
          <ddscontrol controlprogid="DdsShapes.DdsObjectManagedBridge.3" tooltip="vDimGeography" left="20621" top="-724" logicalid="45" controlid="15" masterid="0" hint1="0" hint2="0" width="3789" height="5000" noresize="0" nomove="0" nodefaultattachpoints="0" autodrag="1" usedefaultiddshape="1" selectable="1" showselectionhandles="1" allownudging="1" isannotation="0" dontautolayout="0" groupcollapsed="0" tabstop="1" visible="1" snaptogrid="0">
            <control>
              <ddsxmlobjectstreaminitwrapper binary="00080000cd0e000088130000" />
            </control>
            <layoutobject>
              <ddsxmlobj>
                <property name="LogicalObject" value="dbo_vDimGeography" vartype="8" />
              </ddsxmlobj>
            </layoutobject>
            <shape groupshapeid="0" groupnode="0" />
          </ddscontrol>
          <ddscontrol controlprogid="DdsShapes.DdsObjectManagedBridge.3" tooltip="vFactParkPSA" left="0" top="0" logicalid="46" controlid="16" masterid="0" hint1="0" hint2="0" width="4181" height="5000" noresize="0" nomove="0" nodefaultattachpoints="0" autodrag="1" usedefaultiddshape="1" selectable="1" showselectionhandles="1" allownudging="1" isannotation="0" dontautolayout="0" groupcollapsed="0" tabstop="1" visible="1" snaptogrid="0">
            <control>
              <ddsxmlobjectstreaminitwrapper binary="000800005510000088130000" />
            </control>
            <layoutobject>
              <ddsxmlobj>
                <property name="LogicalObject" value="dbo_vFactParkPSA" vartype="8" />
              </ddsxmlobj>
            </layoutobject>
            <shape groupshapeid="0" groupnode="0" />
          </ddscontrol>
          <ddscontrol controlprogid="MSDDS.Polyline" left="28" top="4700" logicalid="47" controlid="17" masterid="0" hint1="0" hint2="0" width="799" height="3063" noresize="0" nomove="0" nodefaultattachpoints="1" autodrag="0" usedefaultiddshape="0" selectable="1" showselectionhandles="0" allownudging="1" isannotation="0" dontautolayout="0" groupcollapsed="0" tabstop="1" visible="1" snaptogrid="0">
            <control>
              <ddsxmlobj>
                <polyline endtypedst="6" endtypesrc="3" usercolor="0" linestyle="0" linerender="1" customendtypedstid="0" customendtypesrcid="0" adornsvisible="1" />
              </ddsxmlobj>
            </control>
            <layoutobject>
              <ddsxmlobj>
                <property name="LogicalObject" value="dataSet.Relations[vFactParkPSA-DimBodyTypeCategory]" vartype="8" />
                <property name="Virtual" value="0" vartype="11" />
                <property name="VisibleAP" value="0" vartype="3" />
              </ddsxmlobj>
            </layoutobject>
            <connector lineroutestyle="MSDDS.Rectilinear" sourceid="11" destid="16" sourceattachpoint="0" destattachpoint="1" segmenteditmode="0" bendpointeditmode="0" bendpointvisibility="0" relatedid="0" virtual="0">
              <point x="427" y="7263" />
              <point x="427" y="6132" />
              <point x="440" y="6132" />
              <point x="440" y="5000" />
            </connector>
          </ddscontrol>
          <ddscontrol controlprogid="MSDDS.Polyline" left="2890" top="4700" logicalid="48" controlid="18" masterid="0" hint1="0" hint2="0" width="2410" height="6696" noresize="0" nomove="0" nodefaultattachpoints="1" autodrag="0" usedefaultiddshape="0" selectable="1" showselectionhandles="0" allownudging="1" isannotation="0" dontautolayout="0" groupcollapsed="0" tabstop="1" visible="1" snaptogrid="0">
            <control>
              <ddsxmlobj>
                <polyline endtypedst="6" endtypesrc="3" usercolor="0" linestyle="0" linerender="1" customendtypedstid="0" customendtypesrcid="0" adornsvisible="1" />
              </ddsxmlobj>
            </control>
            <layoutobject>
              <ddsxmlobj>
                <property name="LogicalObject" value="dataSet.Relations[vFactParkPSA-DimCountry]" vartype="8" />
                <property name="Virtual" value="0" vartype="11" />
                <property name="VisibleAP" value="0" vartype="3" />
              </ddsxmlobj>
            </layoutobject>
            <connector lineroutestyle="MSDDS.Rectilinear" sourceid="3" destid="16" sourceattachpoint="0" destattachpoint="11" segmenteditmode="0" bendpointeditmode="0" bendpointvisibility="0" relatedid="0" virtual="0">
              <point x="4900" y="10896" />
              <point x="4900" y="7948" />
              <point x="3190" y="7948" />
              <point x="3190" y="5000" />
            </connector>
          </ddscontrol>
          <ddscontrol controlprogid="MSDDS.Polyline" left="3881" top="-263" logicalid="49" controlid="19" masterid="0" hint1="0" hint2="0" width="6895" height="1413" noresize="0" nomove="0" nodefaultattachpoints="1" autodrag="0" usedefaultiddshape="0" selectable="1" showselectionhandles="0" allownudging="1" isannotation="0" dontautolayout="0" groupcollapsed="0" tabstop="1" visible="1" snaptogrid="0">
            <control>
              <ddsxmlobj>
                <polyline endtypedst="6" endtypesrc="3" usercolor="0" linestyle="0" linerender="1" customendtypedstid="0" customendtypesrcid="0" adornsvisible="1" />
              </ddsxmlobj>
            </control>
            <layoutobject>
              <ddsxmlobj>
                <property name="LogicalObject" value="dataSet.Relations[vFactParkPSA-DimCurbVehicleWeightPark]" vartype="8" />
                <property name="Virtual" value="0" vartype="11" />
                <property name="VisibleAP" value="0" vartype="3" />
              </ddsxmlobj>
            </layoutobject>
            <connector lineroutestyle="MSDDS.Rectilinear" sourceid="9" destid="16" sourceattachpoint="10" destattachpoint="17" segmenteditmode="0" bendpointeditmode="0" bendpointvisibility="0" relatedid="0" virtual="0">
              <point x="10476" y="136" />
              <point x="7329" y="136" />
              <point x="7329" y="850" />
              <point x="4181" y="850" />
            </connector>
          </ddscontrol>
          <ddscontrol controlprogid="MSDDS.Polyline" left="2340" top="4700" logicalid="50" controlid="20" masterid="0" hint1="0" hint2="0" width="7965" height="8302" noresize="0" nomove="0" nodefaultattachpoints="1" autodrag="0" usedefaultiddshape="0" selectable="1" showselectionhandles="0" allownudging="1" isannotation="0" dontautolayout="0" groupcollapsed="0" tabstop="1" visible="1" snaptogrid="0">
            <control>
              <ddsxmlobj>
                <polyline endtypedst="6" endtypesrc="3" usercolor="0" linestyle="0" linerender="1" customendtypedstid="0" customendtypesrcid="0" adornsvisible="1" />
              </ddsxmlobj>
            </control>
            <layoutobject>
              <ddsxmlobj>
                <property name="LogicalObject" value="dataSet.Relations[vFactParkPSA-DimEngineCapacityPark]" vartype="8" />
                <property name="Virtual" value="0" vartype="11" />
                <property name="VisibleAP" value="0" vartype="3" />
              </ddsxmlobj>
            </layoutobject>
            <connector lineroutestyle="MSDDS.Rectilinear" sourceid="6" destid="16" sourceattachpoint="0" destattachpoint="9" segmenteditmode="0" bendpointeditmode="0" bendpointvisibility="0" relatedid="0" virtual="0">
              <point x="9905" y="12502" />
              <point x="9905" y="8751" />
              <point x="2640" y="8751" />
              <point x="2640" y="5000" />
            </connector>
          </ddscontrol>
          <ddscontrol controlprogid="MSDDS.Polyline" left="3881" top="2200" logicalid="51" controlid="21" masterid="0" hint1="0" hint2="0" width="14994" height="11360" noresize="0" nomove="0" nodefaultattachpoints="1" autodrag="0" usedefaultiddshape="0" selectable="1" showselectionhandles="0" allownudging="1" isannotation="0" dontautolayout="0" groupcollapsed="0" tabstop="1" visible="1" snaptogrid="0">
            <control>
              <ddsxmlobj>
                <polyline endtypedst="6" endtypesrc="3" usercolor="0" linestyle="0" linerender="1" customendtypedstid="0" customendtypesrcid="0" adornsvisible="1" />
              </ddsxmlobj>
            </control>
            <layoutobject>
              <ddsxmlobj>
                <property name="LogicalObject" value="dataSet.Relations[vFactParkPSA-DimEnginePowerHPark]" vartype="8" />
                <property name="Virtual" value="0" vartype="11" />
                <property name="VisibleAP" value="0" vartype="3" />
              </ddsxmlobj>
            </layoutobject>
            <connector lineroutestyle="MSDDS.Rectilinear" sourceid="5" destid="16" sourceattachpoint="18" destattachpoint="23" segmenteditmode="0" bendpointeditmode="0" bendpointvisibility="0" relatedid="0" virtual="0">
              <point x="18575" y="13160" />
              <point x="11378" y="13160" />
              <point x="11378" y="2500" />
              <point x="4181" y="2500" />
            </connector>
          </ddscontrol>
          <ddscontrol controlprogid="MSDDS.Polyline" left="3881" top="3300" logicalid="52" controlid="22" masterid="0" hint1="0" hint2="0" width="11263" height="808" noresize="0" nomove="0" nodefaultattachpoints="1" autodrag="0" usedefaultiddshape="0" selectable="1" showselectionhandles="0" allownudging="1" isannotation="0" dontautolayout="0" groupcollapsed="0" tabstop="1" visible="1" snaptogrid="0">
            <control>
              <ddsxmlobj>
                <polyline endtypedst="6" endtypesrc="3" usercolor="0" linestyle="0" linerender="1" customendtypedstid="0" customendtypesrcid="0" adornsvisible="1" />
              </ddsxmlobj>
            </control>
            <layoutobject>
              <ddsxmlobj>
                <property name="LogicalObject" value="dataSet.Relations[vFactParkPSA-DimEnginePowerKWPark]" vartype="8" />
                <property name="Virtual" value="0" vartype="11" />
                <property name="VisibleAP" value="0" vartype="3" />
              </ddsxmlobj>
            </layoutobject>
            <connector lineroutestyle="MSDDS.Rectilinear" sourceid="4" destid="16" sourceattachpoint="18" destattachpoint="27" segmenteditmode="0" bendpointeditmode="0" bendpointvisibility="0" relatedid="0" virtual="0">
              <point x="14844" y="3708" />
              <point x="9513" y="3708" />
              <point x="9513" y="3600" />
              <point x="4181" y="3600" />
            </connector>
          </ddscontrol>
          <ddscontrol controlprogid="MSDDS.Polyline" left="3881" top="2750" logicalid="53" controlid="23" masterid="0" hint1="0" hint2="0" width="6739" height="1998" noresize="0" nomove="0" nodefaultattachpoints="1" autodrag="0" usedefaultiddshape="0" selectable="1" showselectionhandles="0" allownudging="1" isannotation="0" dontautolayout="0" groupcollapsed="0" tabstop="1" visible="1" snaptogrid="0">
            <control>
              <ddsxmlobj>
                <polyline endtypedst="6" endtypesrc="3" usercolor="0" linestyle="0" linerender="1" customendtypedstid="0" customendtypesrcid="0" adornsvisible="1" />
              </ddsxmlobj>
            </control>
            <layoutobject>
              <ddsxmlobj>
                <property name="LogicalObject" value="dataSet.Relations[vFactParkPSA-DimEuroClass]" vartype="8" />
                <property name="Virtual" value="0" vartype="11" />
                <property name="VisibleAP" value="0" vartype="3" />
              </ddsxmlobj>
            </layoutobject>
            <connector lineroutestyle="MSDDS.Rectilinear" sourceid="2" destid="16" sourceattachpoint="14" destattachpoint="25" segmenteditmode="0" bendpointeditmode="0" bendpointvisibility="0" relatedid="0" virtual="0">
              <point x="10320" y="4348" />
              <point x="7251" y="4348" />
              <point x="7251" y="3050" />
              <point x="4181" y="3050" />
            </connector>
          </ddscontrol>
          <ddscontrol controlprogid="MSDDS.Polyline" left="3881" top="-137" logicalid="54" controlid="24" masterid="0" hint1="0" hint2="0" width="2491" height="799" noresize="0" nomove="0" nodefaultattachpoints="1" autodrag="0" usedefaultiddshape="0" selectable="1" showselectionhandles="0" allownudging="1" isannotation="0" dontautolayout="0" groupcollapsed="0" tabstop="1" visible="1" snaptogrid="0">
            <control>
              <ddsxmlobj>
                <polyline endtypedst="6" endtypesrc="3" usercolor="0" linestyle="0" linerender="1" customendtypedstid="0" customendtypesrcid="0" adornsvisible="1" />
              </ddsxmlobj>
            </control>
            <layoutobject>
              <ddsxmlobj>
                <property name="LogicalObject" value="dataSet.Relations[vFactParkPSA-DimFuelType]" vartype="8" />
                <property name="Virtual" value="0" vartype="11" />
                <property name="VisibleAP" value="0" vartype="3" />
              </ddsxmlobj>
            </layoutobject>
            <connector lineroutestyle="MSDDS.Rectilinear" sourceid="12" destid="16" sourceattachpoint="14" destattachpoint="15" segmenteditmode="0" bendpointeditmode="0" bendpointvisibility="0" relatedid="0" virtual="0">
              <point x="6072" y="262" />
              <point x="5127" y="262" />
              <point x="5127" y="300" />
              <point x="4181" y="300" />
            </connector>
          </ddscontrol>
          <ddscontrol controlprogid="MSDDS.Polyline" left="3440" top="4700" logicalid="55" controlid="25" masterid="0" hint1="0" hint2="0" width="2844" height="2944" noresize="0" nomove="0" nodefaultattachpoints="1" autodrag="0" usedefaultiddshape="0" selectable="1" showselectionhandles="0" allownudging="1" isannotation="0" dontautolayout="0" groupcollapsed="0" tabstop="1" visible="1" snaptogrid="0">
            <control>
              <ddsxmlobj>
                <polyline endtypedst="6" endtypesrc="3" usercolor="0" linestyle="0" linerender="1" customendtypedstid="0" customendtypesrcid="0" adornsvisible="1" />
              </ddsxmlobj>
            </control>
            <layoutobject>
              <ddsxmlobj>
                <property name="LogicalObject" value="dataSet.Relations[vFactParkPSA-DimGrossVehicleWeightPark]" vartype="8" />
                <property name="Virtual" value="0" vartype="11" />
                <property name="VisibleAP" value="0" vartype="3" />
              </ddsxmlobj>
            </layoutobject>
            <connector lineroutestyle="MSDDS.Rectilinear" sourceid="7" destid="16" sourceattachpoint="0" destattachpoint="13" segmenteditmode="0" bendpointeditmode="0" bendpointvisibility="0" relatedid="0" virtual="0">
              <point x="5884" y="7144" />
              <point x="5884" y="6072" />
              <point x="3740" y="6072" />
              <point x="3740" y="5000" />
            </connector>
          </ddscontrol>
          <ddscontrol controlprogid="MSDDS.Polyline" left="684" top="4700" logicalid="56" controlid="26" masterid="0" hint1="0" hint2="0" width="799" height="8058" noresize="0" nomove="0" nodefaultattachpoints="1" autodrag="0" usedefaultiddshape="0" selectable="1" showselectionhandles="0" allownudging="1" isannotation="0" dontautolayout="0" groupcollapsed="0" tabstop="1" visible="1" snaptogrid="0">
            <control>
              <ddsxmlobj>
                <polyline endtypedst="6" endtypesrc="3" usercolor="0" linestyle="0" linerender="1" customendtypedstid="0" customendtypesrcid="0" adornsvisible="1" />
              </ddsxmlobj>
            </control>
            <layoutobject>
              <ddsxmlobj>
                <property name="LogicalObject" value="dataSet.Relations[vFactParkPSA-DimOwnerType]" vartype="8" />
                <property name="Virtual" value="0" vartype="11" />
                <property name="VisibleAP" value="0" vartype="3" />
              </ddsxmlobj>
            </layoutobject>
            <connector lineroutestyle="MSDDS.Rectilinear" sourceid="10" destid="16" sourceattachpoint="2" destattachpoint="3" segmenteditmode="0" bendpointeditmode="0" bendpointvisibility="0" relatedid="0" virtual="0">
              <point x="1083" y="12258" />
              <point x="1083" y="8629" />
              <point x="990" y="8629" />
              <point x="990" y="5000" />
            </connector>
          </ddscontrol>
          <ddscontrol controlprogid="MSDDS.Polyline" left="3881" top="3773" logicalid="57" controlid="27" masterid="0" hint1="0" hint2="0" width="2491" height="1227" noresize="0" nomove="0" nodefaultattachpoints="1" autodrag="0" usedefaultiddshape="0" selectable="1" showselectionhandles="0" allownudging="1" isannotation="0" dontautolayout="0" groupcollapsed="0" tabstop="1" visible="1" snaptogrid="0">
            <control>
              <ddsxmlobj>
                <polyline endtypedst="6" endtypesrc="3" usercolor="0" linestyle="0" linerender="1" customendtypedstid="0" customendtypesrcid="0" adornsvisible="1" />
              </ddsxmlobj>
            </control>
            <layoutobject>
              <ddsxmlobj>
                <property name="LogicalObject" value="dataSet.Relations[vFactParkPSA-DimProdYear]" vartype="8" />
                <property name="Virtual" value="0" vartype="11" />
                <property name="VisibleAP" value="0" vartype="3" />
              </ddsxmlobj>
            </layoutobject>
            <connector lineroutestyle="MSDDS.Rectilinear" sourceid="1" destid="16" sourceattachpoint="16" destattachpoint="31" segmenteditmode="0" bendpointeditmode="0" bendpointvisibility="0" relatedid="0" virtual="0">
              <point x="6072" y="4172" />
              <point x="5127" y="4172" />
              <point x="5127" y="4700" />
              <point x="4181" y="4700" />
            </connector>
          </ddscontrol>
          <ddscontrol controlprogid="MSDDS.Polyline" left="3881" top="3850" logicalid="58" controlid="28" masterid="0" hint1="0" hint2="0" width="10659" height="6711" noresize="0" nomove="0" nodefaultattachpoints="1" autodrag="0" usedefaultiddshape="0" selectable="1" showselectionhandles="0" allownudging="1" isannotation="0" dontautolayout="0" groupcollapsed="0" tabstop="1" visible="1" snaptogrid="0">
            <control>
              <ddsxmlobj>
                <polyline endtypedst="6" endtypesrc="3" usercolor="0" linestyle="0" linerender="1" customendtypedstid="0" customendtypesrcid="0" adornsvisible="1" />
              </ddsxmlobj>
            </control>
            <layoutobject>
              <ddsxmlobj>
                <property name="LogicalObject" value="dataSet.Relations[vFactParkPSA-DimSteeringWheel]" vartype="8" />
                <property name="Virtual" value="0" vartype="11" />
                <property name="VisibleAP" value="0" vartype="3" />
              </ddsxmlobj>
            </layoutobject>
            <connector lineroutestyle="MSDDS.Rectilinear" sourceid="8" destid="16" sourceattachpoint="20" destattachpoint="29" segmenteditmode="0" bendpointeditmode="0" bendpointvisibility="0" relatedid="0" virtual="0">
              <point x="14240" y="10161" />
              <point x="9211" y="10161" />
              <point x="9211" y="4150" />
              <point x="4181" y="4150" />
            </connector>
          </ddscontrol>
          <ddscontrol controlprogid="MSDDS.Polyline" left="1790" top="4700" logicalid="59" controlid="29" masterid="0" hint1="0" hint2="0" width="3851" height="10076" noresize="0" nomove="0" nodefaultattachpoints="1" autodrag="0" usedefaultiddshape="0" selectable="1" showselectionhandles="0" allownudging="1" isannotation="0" dontautolayout="0" groupcollapsed="0" tabstop="1" visible="1" snaptogrid="0">
            <control>
              <ddsxmlobj>
                <polyline endtypedst="6" endtypesrc="3" usercolor="0" linestyle="0" linerender="1" customendtypedstid="0" customendtypesrcid="0" adornsvisible="1" />
              </ddsxmlobj>
            </control>
            <layoutobject>
              <ddsxmlobj>
                <property name="LogicalObject" value="dataSet.Relations[vFactParkPSA-vDimModels_PC_LCV]" vartype="8" />
                <property name="Virtual" value="0" vartype="11" />
                <property name="VisibleAP" value="0" vartype="3" />
              </ddsxmlobj>
            </layoutobject>
            <connector lineroutestyle="MSDDS.Rectilinear" sourceid="13" destid="16" sourceattachpoint="2" destattachpoint="7" segmenteditmode="0" bendpointeditmode="0" bendpointvisibility="0" relatedid="0" virtual="0">
              <point x="5241" y="14276" />
              <point x="5241" y="9638" />
              <point x="2090" y="9638" />
              <point x="2090" y="5000" />
            </connector>
          </ddscontrol>
          <ddscontrol controlprogid="MSDDS.Polyline" left="3881" top="-273" logicalid="60" controlid="30" masterid="0" hint1="0" hint2="0" width="17040" height="1973" noresize="0" nomove="0" nodefaultattachpoints="1" autodrag="0" usedefaultiddshape="0" selectable="1" showselectionhandles="0" allownudging="1" isannotation="0" dontautolayout="0" groupcollapsed="0" tabstop="1" visible="1" snaptogrid="0">
            <control>
              <ddsxmlobj>
                <polyline endtypedst="6" endtypesrc="3" usercolor="0" linestyle="0" linerender="1" customendtypedstid="0" customendtypesrcid="0" adornsvisible="1" />
              </ddsxmlobj>
            </control>
            <layoutobject>
              <ddsxmlobj>
                <property name="LogicalObject" value="dataSet.Relations[vFactParkPSA-vDimGeography]" vartype="8" />
                <property name="Virtual" value="0" vartype="11" />
                <property name="VisibleAP" value="0" vartype="3" />
              </ddsxmlobj>
            </layoutobject>
            <connector lineroutestyle="MSDDS.Rectilinear" sourceid="15" destid="16" sourceattachpoint="16" destattachpoint="19" segmenteditmode="0" bendpointeditmode="0" bendpointvisibility="0" relatedid="0" virtual="0">
              <point x="20621" y="126" />
              <point x="12401" y="126" />
              <point x="12401" y="1400" />
              <point x="4181" y="1400" />
            </connector>
          </ddscontrol>
        </dds>
      </Value>
    </Annotation>
    <Annotation>
      <Name>http://schemas.microsoft.com/DataWarehouse/Designer/1.0:ShowFriendlyNames</Name>
      <Value>true</Value>
    </Annotation>
    <Annotation>
      <Name>http://schemas.microsoft.com/DataWarehouse/Designer/1.0:ShowRelationshipNames</Name>
      <Value>false</Value>
    </Annotation>
    <Annotation>
      <Name>http://schemas.microsoft.com/DataWarehouse/Designer/1.0:UseDiagramDefaultLayout</Name>
      <Value>true</Value>
    </Annotation>
    <Annotation>
      <Name>http://schemas.microsoft.com/DataWarehouse/Designer/1.0:DiagramViewPortLeft</Name>
      <Value>-213</Value>
    </Annotation>
    <Annotation>
      <Name>http://schemas.microsoft.com/DataWarehouse/Designer/1.0:DiagramViewPortTop</Name>
      <Value>-724</Value>
    </Annotation>
    <Annotation>
      <Name>http://schemas.microsoft.com/DataWarehouse/Designer/1.0:DiagramBoundingLeft</Name>
      <Value>0</Value>
    </Annotation>
    <Annotation>
      <Name>http://schemas.microsoft.com/DataWarehouse/Designer/1.0:DiagramBoundingTop</Name>
      <Value>-724</Value>
    </Annotation>
    <Annotation>
      <Name>http://schemas.microsoft.com/DataWarehouse/Designer/1.0:DiagramZoom</Name>
      <Value>81</Value>
    </Annotation>
  </Annotations>
  <LastProcessed>0001-01-01T00:00:00Z</LastProcessed>
  <State>Unprocessed</State>
  <Dimensions>
    <Dimension dwd:design-time-name="01b98ba7-ba60-4c3a-9a65-29882ccfa0a8">
      <ID>Тип ТС</ID>
      <Name>Тип ТС</Name>
      <Description>@gОсновныеg@@tТип Транспортного средстваt@</Description>
      <DimensionID>Тип ТС</DimensionID>
      <Attributes>
        <Attribute dwd:design-time-name="473299b0-5e03-492c-b6c0-f4c375fca416">
          <AttributeID>Model Key</AttributeID>
        </Attribute>
        <Attribute dwd:design-time-name="d5108e02-581e-4e78-b29e-03115e7597f9">
          <AttributeID>Type Vehicle Code</AttributeID>
        </Attribute>
      </Attributes>
    </Dimension>
    <Dimension dwd:design-time-name="0174bf45-9a92-406f-9c08-5033f75f7234">
      <ID>Тип владельца</ID>
      <Name>Тип владельца</Name>
      <Description>@gОсновныеg@@tТип владельцаt@</Description>
      <DimensionID>Тип владельца</DimensionID>
      <Attributes>
        <Attribute dwd:design-time-name="f112f6db-574c-4ed5-b8f1-adbbc1b73307">
          <AttributeID>Owner Type Key</AttributeID>
        </Attribute>
      </Attributes>
    </Dimension>
    <Dimension dwd:design-time-name="3c233dc8-d618-4c5f-ad5e-cff4aa169057">
      <ID>География</ID>
      <Name>География</Name>
      <Description>@gОсновныеg@@tГеографияt@</Description>
      <DimensionID>География э</DimensionID>
      <Attributes>
        <Attribute dwd:design-time-name="676a697c-fa7d-4755-8eec-f8465f4f221f">
          <AttributeID>Geography Key</AttributeID>
        </Attribute>
        <Attribute dwd:design-time-name="fe04aee1-66a2-4f0a-a4a1-c6a0b51100d9">
          <AttributeID>Area Ru Short Name</AttributeID>
        </Attribute>
        <Attribute dwd:design-time-name="8d3ffbaf-eca5-42a2-a426-8a8cbc461529">
          <AttributeID>Region Ru</AttributeID>
        </Attribute>
        <Attribute dwd:design-time-name="db14f6ff-0f55-4908-b003-c473ff207cab">
          <AttributeID>Province Ru</AttributeID>
        </Attribute>
      </Attributes>
      <Hierarchies>
        <Hierarchy dwd:design-time-name="a86e0092-2b35-4783-a67a-c8ed9849a17b">
          <HierarchyID>Hierarchy 1</HierarchyID>
        </Hierarchy>
      </Hierarchies>
      <MemberUniqueNameStyle>NamePath</MemberUniqueNameStyle>
    </Dimension>
    <Dimension dwd:design-time-name="10aee7c4-1808-4dc8-9a37-4b8bd710c990">
      <ID>Марка Модель</ID>
      <Name>Марка Модель</Name>
      <Description>@gХарактеристики ТСg@@tМарка Модельt@</Description>
      <DimensionID>Марка Модель</DimensionID>
      <Attributes>
        <Attribute dwd:design-time-name="7896970e-aaed-4d57-a951-e1b185ce3fa7">
          <AttributeID>Model Key</AttributeID>
        </Attribute>
        <Attribute dwd:design-time-name="6379485e-81da-4dfa-984c-cc6ff3c12207">
          <AttributeID>Brand</AttributeID>
        </Attribute>
        <Attribute dwd:design-time-name="e11fa5b2-0282-494b-82df-5c9a8574fca0">
          <AttributeID>Model</AttributeID>
        </Attribute>
        <Attribute dwd:design-time-name="28d6bc83-6964-4f1c-bf5a-4081f111c074">
          <AttributeID>Brand Model</AttributeID>
        </Attribute>
      </Attributes>
      <Hierarchies>
        <Hierarchy dwd:design-time-name="6bf52bb7-fc21-4391-9fef-ac2a98528563">
          <HierarchyID>Hierarchy</HierarchyID>
        </Hierarchy>
        <Hierarchy dwd:design-time-name="18f5a63e-ba48-42af-9216-f998e4394480">
          <HierarchyID>Hierarchy 1</HierarchyID>
        </Hierarchy>
      </Hierarchies>
    </Dimension>
    <Dimension dwd:design-time-name="10dd50b6-2bd1-49f1-b638-13331cb7be18">
      <ID>Год выпуска</ID>
      <Name>Год выпуска</Name>
      <Description>@gХарактеристики ТСg@@tГод выпускаt@</Description>
      <DimensionID>Год выпуска</DimensionID>
      <Attributes>
        <Attribute dwd:design-time-name="ebde4d3c-3724-41bc-a491-8a9ec5655b63">
          <AttributeID>Prod Year Key</AttributeID>
        </Attribute>
        <Attribute dwd:design-time-name="a1ecd5c8-254b-4ff5-af5d-a688a4e8c441">
          <AttributeID>Prod Year1987</AttributeID>
        </Attribute>
      </Attributes>
    </Dimension>
    <Dimension dwd:design-time-name="83a7d7e8-94b5-4f23-9300-1a9f61e834dd">
      <ID>Сегмент</ID>
      <Name>Сегмент</Name>
      <Description>@gХарактеристики ТСg@@tСегментt@</Description>
      <DimensionID>Сегмент</DimensionID>
      <Attributes>
        <Attribute dwd:design-time-name="5b506fee-e996-4970-83c0-353e6931a6a8">
          <AttributeID>Model Key</AttributeID>
        </Attribute>
        <Attribute dwd:design-time-name="8bb90b04-2ec2-4a05-a2c8-bd26c84966dd">
          <AttributeID>Segment Autostat</AttributeID>
        </Attribute>
        <Attribute dwd:design-time-name="515c7d9a-97c0-4136-b49b-7effbbe287a5">
          <AttributeID>Subsegment Autostat</AttributeID>
        </Attribute>
      </Attributes>
      <Hierarchies>
        <Hierarchy dwd:design-time-name="89787865-1793-4e0a-8972-79e11f07ba6d">
          <HierarchyID>Hierarchy</HierarchyID>
        </Hierarchy>
      </Hierarchies>
    </Dimension>
    <Dimension dwd:design-time-name="4a317846-5371-4c7d-9a16-b9b2f3384009">
      <ID>PSA Segment</ID>
      <Name>PSA Segment</Name>
      <Description>@gХарактеристики ТСg@@tPSA Segmentt@</Description>
      <DimensionID>PSA Segment</DimensionID>
      <Attributes>
        <Attribute dwd:design-time-name="7389bf67-cbf6-4174-8ebc-d822ccca50ea">
          <AttributeID>Model Key</AttributeID>
        </Attribute>
        <Attribute dwd:design-time-name="40bb774c-b484-4513-aab1-abb1d9c9e860">
          <AttributeID>PSA Segment</AttributeID>
        </Attribute>
      </Attributes>
    </Dimension>
    <Dimension dwd:design-time-name="ac77a763-d329-4ef1-a7e7-ebdbc1b672f3">
      <ID>PSA Body</ID>
      <Name>PSA Body</Name>
      <Description>@gХарактеристики ТСg@@tPSA Bodyt@</Description>
      <DimensionID>PSA Body</DimensionID>
      <Attributes>
        <Attribute dwd:design-time-name="21a1ff2d-899a-481d-93b2-8fc287be4e15">
          <AttributeID>Model Key</AttributeID>
        </Attribute>
        <Attribute dwd:design-time-name="e3dccfc9-2d86-46d8-8a9a-c3a7705305d4">
          <AttributeID>PSA Body</AttributeID>
        </Attribute>
      </Attributes>
    </Dimension>
    <Dimension dwd:design-time-name="55e44fda-a2ff-4ac0-941c-75223cf8efb9">
      <ID>PSA Class</ID>
      <Name>PSA Class</Name>
      <Description>@gХарактеристики ТСg@@tPSA Classt@</Description>
      <DimensionID>Class PSA</DimensionID>
      <Attributes>
        <Attribute dwd:design-time-name="554bd2aa-b9c5-4891-8529-f2e118f870ca">
          <AttributeID>Model Key</AttributeID>
        </Attribute>
        <Attribute dwd:design-time-name="b07b3e9d-766b-4467-a391-48a7ae6165d4">
          <AttributeID>PSA Class</AttributeID>
        </Attribute>
      </Attributes>
    </Dimension>
    <Dimension dwd:design-time-name="9dbeb744-2af8-4378-89f5-b68e513a9cb5">
      <ID>Тип кузова</ID>
      <Name>Тип кузова</Name>
      <Description>@gХарактеристики ТСg@@tТип кузоваt@@tТип кузоваt@</Description>
      <DimensionID>Тип кузова 1</DimensionID>
      <Attributes>
        <Attribute dwd:design-time-name="5d48cbc0-d5fe-4bd1-b39b-0baaf4d791b1">
          <AttributeID>Body Type Special Key</AttributeID>
        </Attribute>
        <Attribute dwd:design-time-name="74dbfc9c-f371-47c5-b30c-29badf9add55">
          <AttributeID>Body Type Category Ru</AttributeID>
        </Attribute>
        <Attribute dwd:design-time-name="77fe74b3-2368-4053-80f1-5345be4f8987">
          <AttributeID>Body Type Special Ru</AttributeID>
        </Attribute>
      </Attributes>
      <Hierarchies>
        <Hierarchy dwd:design-time-name="f201c66f-66e5-4d33-b831-2531dbc0d250">
          <HierarchyID>Hierarchy</HierarchyID>
        </Hierarchy>
      </Hierarchies>
    </Dimension>
    <Dimension dwd:design-time-name="68272976-2226-418a-be7e-652b303f40c0">
      <ID>Тип топлива</ID>
      <Name>Тип топлива</Name>
      <Description>@gХарактеристики ТСg@@tТип топливаt@</Description>
      <DimensionID>Тип топлива</DimensionID>
      <Attributes>
        <Attribute dwd:design-time-name="8c18df05-81f5-4455-a901-e4da50ff575b">
          <AttributeID>Fuel Type Key</AttributeID>
        </Attribute>
      </Attributes>
    </Dimension>
    <Dimension dwd:design-time-name="d39780db-755d-49f0-afe9-70912f8a9f1e">
      <ID>Еврокласс</ID>
      <Name>Еврокласс</Name>
      <Description>@gХарактеристики ТСg@@tЕвроклассt@</Description>
      <DimensionID>Еврокласс</DimensionID>
      <Attributes>
        <Attribute dwd:design-time-name="e1213518-f8cc-4505-98e2-b4e5fb5fd778">
          <AttributeID>Euro Class Key</AttributeID>
        </Attribute>
      </Attributes>
    </Dimension>
    <Dimension dwd:design-time-name="69724d51-09d1-4e33-8f1a-89547ebfca44">
      <ID>Расположение руля</ID>
      <Name>Расположение руля</Name>
      <Description>@gХарактеристики ТСg@@tРасположение руляt@</Description>
      <DimensionID>Расположение руля</DimensionID>
      <Attributes>
        <Attribute dwd:design-time-name="d6d3891e-ee9e-481f-b08b-e09a2ffd9a05">
          <AttributeID>Steering Wheel Key</AttributeID>
        </Attribute>
      </Attributes>
    </Dimension>
    <Dimension dwd:design-time-name="01f37c91-ce42-4ed1-98a0-6a849a3ed762">
      <ID>Объем двигателя парк</ID>
      <Name>Объем двигателя</Name>
      <Description>@gХарактеристики ТСg@@tДиапазоны объемов двигателяt@</Description>
      <DimensionID>Объем двигателя парк</DimensionID>
      <Attributes>
        <Attribute dwd:design-time-name="87c1223f-acfc-45dd-9d02-73ad7088ee3b">
          <AttributeID>Engine Capacity Key</AttributeID>
        </Attribute>
        <Attribute dwd:design-time-name="020d5d5f-354f-4233-ac7d-5e290f5564bd">
          <AttributeID>Engine Capacity Range Key</AttributeID>
        </Attribute>
      </Attributes>
    </Dimension>
    <Dimension dwd:design-time-name="360fdc44-d5a4-4bb6-acd2-28f08a6ea161">
      <ID>Мощность двигателя лс парк</ID>
      <Name>Мощность двигателя лс</Name>
      <Description>@gХарактеристики ТСg@@tДиапазоны объемов двигателя лсt@</Description>
      <DimensionID>Мощность двигателя лс парк</DimensionID>
      <Attributes>
        <Attribute dwd:design-time-name="8570f46b-e912-478b-900d-d5373de47199">
          <AttributeID>Engine Power H Key</AttributeID>
        </Attribute>
        <Attribute dwd:design-time-name="41fd9f58-0197-43a3-be2e-cfd8bbb7ac02">
          <AttributeID>Engine Power H Range Key</AttributeID>
        </Attribute>
      </Attributes>
    </Dimension>
    <Dimension dwd:design-time-name="97ff374e-48a9-403b-843f-97a28c2d9c1e">
      <ID>Мощность двигателя кВт парк</ID>
      <Name>Мощность двигателя кВт</Name>
      <Description>@gХарактеристики ТСg@@tДиапазоны мощностей двигателя квтt@</Description>
      <DimensionID>Мощность двигателя кВт парк</DimensionID>
      <Attributes>
        <Attribute dwd:design-time-name="86900bb4-65f0-4ee0-84f3-dc50f4223958">
          <AttributeID>Engine Power KW Key</AttributeID>
        </Attribute>
        <Attribute dwd:design-time-name="c8f2353a-1d14-4dd1-a348-dae3903db71a">
          <AttributeID>Engine Power KW Range Key</AttributeID>
        </Attribute>
      </Attributes>
    </Dimension>
    <Dimension dwd:design-time-name="efe4781e-7548-40bc-936c-7d2b62364824">
      <ID>Снаряженная масса парк</ID>
      <Name>Снаряженная масса</Name>
      <Description>@gХарактеристики ТСg@@tДиапазоны снаряженных массt@</Description>
      <DimensionID>Снаряженная масса парк</DimensionID>
      <Attributes>
        <Attribute dwd:design-time-name="96ddce77-d9ab-460e-a1dd-a7645b7e196d">
          <AttributeID>CVW Key</AttributeID>
        </Attribute>
        <Attribute dwd:design-time-name="782c7d17-03db-4008-9f92-f394dd4158a5">
          <AttributeID>CVW Range Key</AttributeID>
        </Attribute>
      </Attributes>
    </Dimension>
    <Dimension dwd:design-time-name="b32c47c5-dbc5-4a5a-908b-b487e59ab318">
      <ID>Полная масса парк</ID>
      <Name>Полная масса</Name>
      <Description>@gХарактеристики ТСg@@tДиапазоны полных массt@</Description>
      <DimensionID>Полная масса парк</DimensionID>
      <Attributes>
        <Attribute dwd:design-time-name="5b4c60a0-02b6-4202-afa2-ea102317a4a8">
          <AttributeID>GVW Key</AttributeID>
        </Attribute>
        <Attribute dwd:design-time-name="83d92451-282a-476d-9d44-663bc0ca8036">
          <AttributeID>GVW Range Key</AttributeID>
        </Attribute>
      </Attributes>
    </Dimension>
    <Dimension dwd:design-time-name="f8bfc274-ce15-4a4d-b854-1caf12634ad7">
      <ID>Место производства</ID>
      <Name>Место производства</Name>
      <Description>@gДополнительныеg@@tМесто производстваt@</Description>
      <DimensionID>Место производства</DimensionID>
      <Attributes>
        <Attribute dwd:design-time-name="e3472e1e-230e-4fc8-b34c-8879c6774c4b">
          <AttributeID>Country Key</AttributeID>
        </Attribute>
      </Attributes>
    </Dimension>
    <Dimension dwd:design-time-name="8e91b59a-e0a9-4cca-9b20-302c5d2ca076">
      <ID>Происхождение марки</ID>
      <Name>Происхождение марки</Name>
      <Description>@gДополнительныеg@@tПроисхождение маркиt@</Description>
      <DimensionID>Происхождение марки</DimensionID>
      <Attributes>
        <Attribute dwd:design-time-name="1d3c070c-c23a-4772-880e-45f39dc04fd2">
          <AttributeID>Model Key</AttributeID>
        </Attribute>
        <Attribute dwd:design-time-name="29f710e6-9656-47c9-9ee5-a72c7fd9e6e3">
          <AttributeID>Country Key</AttributeID>
        </Attribute>
      </Attributes>
    </Dimension>
  </Dimensions>
  <CubePermissions>
    <CubePermission dwd:design-time-name="a6a5cfee-8a3f-4c98-b393-cb2d125e3a2e">
      <ID>CubePermission</ID>
      <Name>CubePermission</Name>
      <CreatedTimestamp>0001-01-01T00:00:00Z</CreatedTimestamp>
      <LastSchemaUpdate>0001-01-01T00:00:00Z</LastSchemaUpdate>
      <RoleID>Role</RoleID>
      <Read>Allowed</Read>
      <ReadSourceData>None</ReadSourceData>
    </CubePermission>
  </CubePermissions>
  <MeasureGroups>
    <MeasureGroup dwd:design-time-name="45e4a69f-cb98-4c42-8884-5a72db552f71">
      <ID>v Fact Park PSA</ID>
      <Name>Парк</Name>
      <CreatedTimestamp>0001-01-01T00:00:00Z</CreatedTimestamp>
      <LastSchemaUpdate>0001-01-01T00:00:00Z</LastSchemaUpdate>
      <LastProcessed>0001-01-01T00:00:00Z</LastProcessed>
      <State>Unprocessed</State>
      <Measures>
        <Measure dwd:design-time-name="eb8a24fa-1923-46f5-b89c-c05347ac541c">
          <ID>Quantity</ID>
          <Name>Количество</Name>
          <Source dwd:design-time-name="221ad12e-8b93-45be-a0dc-9fcdbc824361">
            <DataType>Integer</DataType>
            <Source xsi:type="ColumnBinding" dwd:design-time-name="613ec9f8-6da4-432f-bab4-ac6af9db4fb6">
              <TableID>dbo_vFactParkPSA</TableID>
              <ColumnID>Quantity</ColumnID>
            </Source>
          </Source>
        </Measure>
      </Measures>
      <StorageMode>Molap</StorageMode>
      <StorageLocation>F:\OLAP\</StorageLocation>
      <ProcessingMode>Regular</ProcessingMode>
      <Dimensions>
        <Dimension xsi:type="RegularMeasureGroupDimension" dwd:design-time-name="458fdb5c-c8ec-4e01-9c34-0eda9a5eb7f6">
          <CubeDimensionID>Тип кузова</CubeDimensionID>
          <Attributes>
            <Attribute dwd:design-time-name="9b8c9146-9989-4280-b1c3-525a04e518b2">
              <AttributeID>Body Type Special Key</AttributeID>
              <KeyColumns>
                <KeyColumn dwd:design-time-name="5ffadfab-81a5-4fc6-ada3-cedd33c07878">
                  <DataType>Integer</DataType>
                  <Source xsi:type="ColumnBinding" dwd:design-time-name="b4a18cf9-31d8-4f88-ba35-69483ec06da6">
                    <TableID>dbo_vFactParkPSA</TableID>
                    <ColumnID>BodyTypeSpecialKey</ColumnID>
                  </Source>
                </KeyColumn>
              </KeyColumns>
              <Type>Granularity</Type>
            </Attribute>
          </Attributes>
        </Dimension>
        <Dimension xsi:type="RegularMeasureGroupDimension" dwd:design-time-name="be0f6118-9a64-4167-ba7e-5c9e95db60b0">
          <CubeDimensionID>Место производства</CubeDimensionID>
          <Attributes>
            <Attribute dwd:design-time-name="ddc0db50-93f4-495d-9ebd-935c9bf2ba2c">
              <AttributeID>Country Key</AttributeID>
              <KeyColumns>
                <KeyColumn dwd:design-time-name="58765053-2e13-425e-9f4f-d6097a81be7e">
                  <DataType>SmallInt</DataType>
                  <Source xsi:type="ColumnBinding" dwd:design-time-name="238c68ae-79c5-491c-b13d-f8be201f8b06">
                    <TableID>dbo_vFactParkPSA</TableID>
                    <ColumnID>CountryKey</ColumnID>
                  </Source>
                </KeyColumn>
              </KeyColumns>
              <Type>Granularity</Type>
            </Attribute>
          </Attributes>
        </Dimension>
        <Dimension xsi:type="RegularMeasureGroupDimension" dwd:design-time-name="8e2f5718-6599-4f6e-86a2-a7c04ac4a140">
          <CubeDimensionID>Снаряженная масса парк</CubeDimensionID>
          <Attributes>
            <Attribute dwd:design-time-name="c4bcd177-ff9e-401d-9b46-b094ce22c0cd">
              <AttributeID>CVW Key</AttributeID>
              <KeyColumns>
                <KeyColumn dwd:design-time-name="2cde08d0-d9ff-4331-90d3-7abdcd3f4116">
                  <DataType>Integer</DataType>
                  <Source xsi:type="ColumnBinding" dwd:design-time-name="ab002abf-a253-4d8d-a181-7edc964701bd">
                    <TableID>dbo_vFactParkPSA</TableID>
                    <ColumnID>CVWKey</ColumnID>
                  </Source>
                </KeyColumn>
              </KeyColumns>
              <Type>Granularity</Type>
            </Attribute>
          </Attributes>
        </Dimension>
        <Dimension xsi:type="RegularMeasureGroupDimension" dwd:design-time-name="5c151682-c1b1-4cf2-afe6-969693d3b16c">
          <CubeDimensionID>Объем двигателя парк</CubeDimensionID>
          <Attributes>
            <Attribute dwd:design-time-name="583463dd-a5bc-4806-a6bb-a99a54e064e7">
              <AttributeID>Engine Capacity Key</AttributeID>
              <KeyColumns>
                <KeyColumn dwd:design-time-name="a4f41660-a7cd-4d84-a63e-e878aed7fb8d">
                  <DataType>Integer</DataType>
                  <Source xsi:type="ColumnBinding" dwd:design-time-name="c5e64fc9-b6b3-4f48-9d33-f06ba2d056d8">
                    <TableID>dbo_vFactParkPSA</TableID>
                    <ColumnID>EngineCapacityKey</ColumnID>
                  </Source>
                </KeyColumn>
              </KeyColumns>
              <Type>Granularity</Type>
            </Attribute>
          </Attributes>
        </Dimension>
        <Dimension xsi:type="RegularMeasureGroupDimension" dwd:design-time-name="e865d321-8ef6-4376-9ec1-4de66d8846b7">
          <CubeDimensionID>Мощность двигателя лс парк</CubeDimensionID>
          <Attributes>
            <Attribute dwd:design-time-name="6fcc2e26-b38c-44e5-95ab-910b0b562149">
              <AttributeID>Engine Power H Key</AttributeID>
              <KeyColumns>
                <KeyColumn dwd:design-time-name="7744f471-4b54-46e2-acb6-11c23f3be569">
                  <DataType>Integer</DataType>
                  <Source xsi:type="ColumnBinding" dwd:design-time-name="3e488dbc-d3d6-42a1-9210-8fa4ae803ecc">
                    <TableID>dbo_vFactParkPSA</TableID>
                    <ColumnID>EnginePowerHKey</ColumnID>
                  </Source>
                </KeyColumn>
              </KeyColumns>
              <Type>Granularity</Type>
            </Attribute>
          </Attributes>
        </Dimension>
        <Dimension xsi:type="RegularMeasureGroupDimension" dwd:design-time-name="e28b68b9-fb01-40da-8c63-baa1f86a1a70">
          <CubeDimensionID>Мощность двигателя кВт парк</CubeDimensionID>
          <Attributes>
            <Attribute dwd:design-time-name="f6ebbd30-79ce-438a-b52f-62523cbd35df">
              <AttributeID>Engine Power KW Key</AttributeID>
              <KeyColumns>
                <KeyColumn dwd:design-time-name="5854b4de-b6ec-4228-835a-c3dba58398e8">
                  <DataType>Integer</DataType>
                  <Source xsi:type="ColumnBinding" dwd:design-time-name="64b7ede2-1398-4c78-84eb-41d12c80e952">
                    <TableID>dbo_vFactParkPSA</TableID>
                    <ColumnID>EnginePowerKWKey</ColumnID>
                  </Source>
                </KeyColumn>
              </KeyColumns>
              <Type>Granularity</Type>
            </Attribute>
          </Attributes>
        </Dimension>
        <Dimension xsi:type="RegularMeasureGroupDimension" dwd:design-time-name="471683cf-0827-43e4-90dd-b6836857c8ac">
          <CubeDimensionID>Еврокласс</CubeDimensionID>
          <Attributes>
            <Attribute dwd:design-time-name="e3d38c91-3d85-453b-a526-ad6862d8fa16">
              <AttributeID>Euro Class Key</AttributeID>
              <KeyColumns>
                <KeyColumn dwd:design-time-name="2c3013d6-ad7d-4b27-8d73-ea4f78fed085">
                  <DataType>SmallInt</DataType>
                  <Source xsi:type="ColumnBinding" dwd:design-time-name="29451ac2-503e-46ed-b0b6-654b89c1ca74">
                    <TableID>dbo_vFactParkPSA</TableID>
                    <ColumnID>EuroClassKey</ColumnID>
                  </Source>
                </KeyColumn>
              </KeyColumns>
              <Type>Granularity</Type>
            </Attribute>
          </Attributes>
        </Dimension>
        <Dimension xsi:type="RegularMeasureGroupDimension" dwd:design-time-name="53492be5-be1b-43c5-a168-3b0200bc0ddd">
          <CubeDimensionID>Тип топлива</CubeDimensionID>
          <Attributes>
            <Attribute dwd:design-time-name="760c1f03-1a11-4563-aa88-a6b7c81a9dbc">
              <AttributeID>Fuel Type Key</AttributeID>
              <KeyColumns>
                <KeyColumn dwd:design-time-name="8679b7ed-d1c0-481a-b9bb-e821e6c0c095">
                  <DataType>SmallInt</DataType>
                  <Source xsi:type="ColumnBinding" dwd:design-time-name="93310353-286f-4f78-9316-698306bf588d">
                    <TableID>dbo_vFactParkPSA</TableID>
                    <ColumnID>FuelTypeKey</ColumnID>
                  </Source>
                </KeyColumn>
              </KeyColumns>
              <Type>Granularity</Type>
            </Attribute>
          </Attributes>
        </Dimension>
        <Dimension xsi:type="RegularMeasureGroupDimension" dwd:design-time-name="c9c35833-0b0d-4b8f-97bd-2db089a39e72">
          <CubeDimensionID>Полная масса парк</CubeDimensionID>
          <Attributes>
            <Attribute dwd:design-time-name="d8b0aaef-77f1-4211-9c5e-6a37c48c78c8">
              <AttributeID>GVW Key</AttributeID>
              <KeyColumns>
                <KeyColumn dwd:design-time-name="892f82db-97a9-45ae-b4a1-99e4931145f9">
                  <DataType>Integer</DataType>
                  <Source xsi:type="ColumnBinding" dwd:design-time-name="8cf92536-e32d-45f3-8ec0-ec168ef685bc">
                    <TableID>dbo_vFactParkPSA</TableID>
                    <ColumnID>GVWKey</ColumnID>
                  </Source>
                </KeyColumn>
              </KeyColumns>
              <Type>Granularity</Type>
            </Attribute>
          </Attributes>
        </Dimension>
        <Dimension xsi:type="RegularMeasureGroupDimension" dwd:design-time-name="80fd3ab9-9f68-4494-b907-84c6ffc7fa34">
          <CubeDimensionID>Тип владельца</CubeDimensionID>
          <Attributes>
            <Attribute dwd:design-time-name="236157df-8e56-4286-aad7-467f27a7ba22">
              <AttributeID>Owner Type Key</AttributeID>
              <KeyColumns>
                <KeyColumn dwd:design-time-name="76ffa0df-ea63-4191-968e-da8960182cd3">
                  <DataType>SmallInt</DataType>
                  <Source xsi:type="ColumnBinding" dwd:design-time-name="a4a20254-1e25-4c8e-9082-518e8e3440b0">
                    <TableID>dbo_vFactParkPSA</TableID>
                    <ColumnID>OwnerTypeKey</ColumnID>
                  </Source>
                </KeyColumn>
              </KeyColumns>
              <Type>Granularity</Type>
            </Attribute>
          </Attributes>
        </Dimension>
        <Dimension xsi:type="RegularMeasureGroupDimension" dwd:design-time-name="9409d3ee-4f5a-4680-8096-025887e8231f">
          <CubeDimensionID>Год выпуска</CubeDimensionID>
          <Attributes>
            <Attribute dwd:design-time-name="767a40c4-322a-42c4-b8c4-b81e0038f86e">
              <AttributeID>Prod Year Key</AttributeID>
              <KeyColumns>
                <KeyColumn dwd:design-time-name="3b584057-7ee7-4a33-98d0-71694e27f17a">
                  <DataType>Integer</DataType>
                  <Source xsi:type="ColumnBinding" dwd:design-time-name="3b962c60-7aac-4ddf-8fdf-5e9045ae61a6">
                    <TableID>dbo_vFactParkPSA</TableID>
                    <ColumnID>ProdYearKey</ColumnID>
                  </Source>
                </KeyColumn>
              </KeyColumns>
              <Type>Granularity</Type>
            </Attribute>
          </Attributes>
        </Dimension>
        <Dimension xsi:type="RegularMeasureGroupDimension" dwd:design-time-name="b8246caf-d804-46b6-88cb-3b2cb32c431b">
          <CubeDimensionID>Расположение руля</CubeDimensionID>
          <Attributes>
            <Attribute dwd:design-time-name="2af85f4c-82f2-45c7-8b45-e5a02f56d5a9">
              <AttributeID>Steering Wheel Key</AttributeID>
              <KeyColumns>
                <KeyColumn dwd:design-time-name="cd1ffa23-726d-403a-adf7-72c499e12c62">
                  <DataType>SmallInt</DataType>
                  <Source xsi:type="ColumnBinding" dwd:design-time-name="cb96406d-ed12-4044-a249-c3041ec16468">
                    <TableID>dbo_vFactParkPSA</TableID>
                    <ColumnID>SteeringWheelKey</ColumnID>
                  </Source>
                </KeyColumn>
              </KeyColumns>
              <Type>Granularity</Type>
            </Attribute>
          </Attributes>
        </Dimension>
        <Dimension xsi:type="RegularMeasureGroupDimension" dwd:design-time-name="584496a8-ae91-4888-8e69-f3d2f6841420">
          <CubeDimensionID>Тип ТС</CubeDimensionID>
          <Attributes>
            <Attribute dwd:design-time-name="74941ed8-2134-46e1-8f9d-3caa2293966e">
              <AttributeID>Model Key</AttributeID>
              <KeyColumns>
                <KeyColumn dwd:design-time-name="bfef6711-4977-4d1e-908d-e62959d4da84">
                  <DataType>Integer</DataType>
                  <Source xsi:type="ColumnBinding" dwd:design-time-name="592e37d3-26f2-425b-96c8-877c17365b14">
                    <TableID>dbo_vFactParkPSA</TableID>
                    <ColumnID>ModelKey</ColumnID>
                  </Source>
                </KeyColumn>
              </KeyColumns>
              <Type>Granularity</Type>
            </Attribute>
          </Attributes>
        </Dimension>
        <Dimension xsi:type="RegularMeasureGroupDimension" dwd:design-time-name="0e1d3b71-ae58-4cfa-80c7-6d0c34524e2b">
          <CubeDimensionID>География</CubeDimensionID>
          <Attributes>
            <Attribute dwd:design-time-name="6ae83623-e901-479b-9a10-5dc61beae626">
              <AttributeID>Geography Key</AttributeID>
              <KeyColumns>
                <KeyColumn dwd:design-time-name="864feef7-22c1-4ff4-88e9-4989bed41495">
                  <DataType>Integer</DataType>
                  <Source xsi:type="ColumnBinding" dwd:design-time-name="ba39b779-19ee-4c02-95ea-7a93181bae6a">
                    <TableID>dbo_vFactParkPSA</TableID>
                    <ColumnID>GeographyKey</ColumnID>
                  </Source>
                </KeyColumn>
              </KeyColumns>
              <Type>Granularity</Type>
            </Attribute>
          </Attributes>
        </Dimension>
        <Dimension xsi:type="RegularMeasureGroupDimension" dwd:design-time-name="45fecc87-8ed9-467f-a427-69d37bec2dd7">
          <CubeDimensionID>Марка Модель</CubeDimensionID>
          <Attributes>
            <Attribute dwd:design-time-name="c5ae2b29-f6ab-4986-9b1a-67132a87330a">
              <AttributeID>Model Key</AttributeID>
              <KeyColumns>
                <KeyColumn dwd:design-time-name="247215a0-ef9d-4ee7-a24a-f1c42628036d">
                  <DataType>Integer</DataType>
                  <Source xsi:type="ColumnBinding" dwd:design-time-name="9a1e3ed0-986a-4a21-88a0-f811fbed6086">
                    <TableID>dbo_vFactParkPSA</TableID>
                    <ColumnID>ModelKey</ColumnID>
                  </Source>
                </KeyColumn>
              </KeyColumns>
              <Type>Granularity</Type>
            </Attribute>
          </Attributes>
        </Dimension>
        <Dimension xsi:type="RegularMeasureGroupDimension" dwd:design-time-name="f6b5f0bb-396b-45bc-9435-aaae855a0e7e">
          <CubeDimensionID>Сегмент</CubeDimensionID>
          <Attributes>
            <Attribute dwd:design-time-name="8bae8cf6-06fc-4381-8e1e-8e7cb849e277">
              <AttributeID>Model Key</AttributeID>
              <KeyColumns>
                <KeyColumn dwd:design-time-name="2eb8f3cf-181f-4cbe-880e-d60a6b5b38ba">
                  <DataType>Integer</DataType>
                  <Source xsi:type="ColumnBinding" dwd:design-time-name="922f3278-67de-4b9e-9b33-ff6fdae27b8a">
                    <TableID>dbo_vFactParkPSA</TableID>
                    <ColumnID>ModelKey</ColumnID>
                  </Source>
                </KeyColumn>
              </KeyColumns>
              <Type>Granularity</Type>
            </Attribute>
          </Attributes>
        </Dimension>
        <Dimension xsi:type="RegularMeasureGroupDimension" dwd:design-time-name="05ccb256-a743-4e8b-b561-823a56ccbb14">
          <CubeDimensionID>PSA Segment</CubeDimensionID>
          <Attributes>
            <Attribute dwd:design-time-name="f4f1a2d8-a41a-4d5a-8028-c46c88717302">
              <AttributeID>Model Key</AttributeID>
              <KeyColumns>
                <KeyColumn dwd:design-time-name="a9dd5e1b-e3b2-40f5-b178-05d95175ea8c">
                  <DataType>Integer</DataType>
                  <Source xsi:type="ColumnBinding" dwd:design-time-name="9bebb4cb-b27a-461b-9d57-ccbb580346c5">
                    <TableID>dbo_vFactParkPSA</TableID>
                    <ColumnID>ModelKey</ColumnID>
                  </Source>
                </KeyColumn>
              </KeyColumns>
              <Type>Granularity</Type>
            </Attribute>
          </Attributes>
        </Dimension>
        <Dimension xsi:type="RegularMeasureGroupDimension" dwd:design-time-name="171e39d7-8f5b-46a5-8207-3d090ef745b4">
          <CubeDimensionID>PSA Body</CubeDimensionID>
          <Attributes>
            <Attribute dwd:design-time-name="42e158a2-1381-43d1-9375-87b34e74b8e5">
              <AttributeID>Model Key</AttributeID>
              <KeyColumns>
                <KeyColumn dwd:design-time-name="2afb208d-1521-440c-87c3-7f30aa5b3596">
                  <DataType>Integer</DataType>
                  <Source xsi:type="ColumnBinding" dwd:design-time-name="f4cbd112-f841-4d62-b8ae-c3c69c28f086">
                    <TableID>dbo_vFactParkPSA</TableID>
                    <ColumnID>ModelKey</ColumnID>
                  </Source>
                </KeyColumn>
              </KeyColumns>
              <Type>Granularity</Type>
            </Attribute>
          </Attributes>
        </Dimension>
        <Dimension xsi:type="RegularMeasureGroupDimension" dwd:design-time-name="291f36d2-bdf6-417b-9de5-17a2abc079de">
          <CubeDimensionID>Происхождение марки</CubeDimensionID>
          <Attributes>
            <Attribute dwd:design-time-name="8c31bf7a-fb76-4dbd-a795-6f92c4e1716a">
              <AttributeID>Model Key</AttributeID>
              <KeyColumns>
                <KeyColumn dwd:design-time-name="a3bd052f-f4ef-4d5b-8160-b9ef4d14cd8a">
                  <DataType>Integer</DataType>
                  <Source xsi:type="ColumnBinding" dwd:design-time-name="74c242c2-e116-4c05-a32e-100deb0cf597">
                    <TableID>dbo_vFactParkPSA</TableID>
                    <ColumnID>ModelKey</ColumnID>
                  </Source>
                </KeyColumn>
              </KeyColumns>
              <Type>Granularity</Type>
            </Attribute>
          </Attributes>
        </Dimension>
        <Dimension xsi:type="RegularMeasureGroupDimension" dwd:design-time-name="dade9e5b-e7c2-4514-b69a-d2fe3660dc67">
          <CubeDimensionID>PSA Class</CubeDimensionID>
          <Attributes>
            <Attribute dwd:design-time-name="bd3cda13-e4bb-490b-ad7b-e61e8897383a">
              <AttributeID>PSA Class</AttributeID>
              <KeyColumns>
                <KeyColumn dwd:design-time-name="220633ac-8c06-4eca-8d9b-083dd471a734">
                  <DataType>WChar</DataType>
                  <DataSize>255</DataSize>
                  <Source xsi:type="ColumnBinding" dwd:design-time-name="6dc62d7b-6fae-42ec-ba11-877bba27694a">
                    <TableID>dbo_vFactParkPSA</TableID>
                    <ColumnID>ModelKey</ColumnID>
                  </Source>
                </KeyColumn>
              </KeyColumns>
            </Attribute>
            <Attribute dwd:design-time-name="4202e0a1-a2c5-4975-8522-764954376be6">
              <AttributeID>Model Key</AttributeID>
              <KeyColumns>
                <KeyColumn dwd:design-time-name="28c9e37b-8d07-4ffe-ad21-81f6700edef7">
                  <DataType>Integer</DataType>
                  <Source xsi:type="ColumnBinding" dwd:design-time-name="5d8a75f1-8fc4-4c58-a081-e0ba44a3b525">
                    <TableID>dbo_vFactParkPSA</TableID>
                    <ColumnID>ModelKey</ColumnID>
                  </Source>
                </KeyColumn>
              </KeyColumns>
              <Type>Granularity</Type>
            </Attribute>
          </Attributes>
        </Dimension>
      </Dimensions>
    </MeasureGroup>
  </MeasureGroups>
  <Source dwd:design-time-name="2cd417e2-c37a-4ee9-bd39-8df1b6554803">
    <DataSourceViewID>Autostat DW New</DataSourceViewID>
  </Source>
  <StorageLocation>F:\OLAP\</StorageLocation>
</Cube>