﻿<Cube xmlns:xsd="http://www.w3.org/2001/XMLSchema" xmlns:xsi="http://www.w3.org/2001/XMLSchema-instance" xmlns:ddl2="http://schemas.microsoft.com/analysisservices/2003/engine/2" xmlns:ddl2_2="http://schemas.microsoft.com/analysisservices/2003/engine/2/2" xmlns:ddl100_100="http://schemas.microsoft.com/analysisservices/2008/engine/100/100" xmlns:ddl200="http://schemas.microsoft.com/analysisservices/2010/engine/200" xmlns:ddl200_200="http://schemas.microsoft.com/analysisservices/2010/engine/200/200" xmlns:ddl300="http://schemas.microsoft.com/analysisservices/2011/engine/300" xmlns:ddl300_300="http://schemas.microsoft.com/analysisservices/2011/engine/300/300" xmlns:ddl400="http://schemas.microsoft.com/analysisservices/2012/engine/400" xmlns:ddl400_400="http://schemas.microsoft.com/analysisservices/2012/engine/400/400" xmlns:dwd="http://schemas.microsoft.com/DataWarehouse/Designer/1.0" dwd:design-time-name="9de31102-33b5-4e03-9e0c-9b960403f584" xmlns="http://schemas.microsoft.com/analysisservices/2003/engine">
  <ID>Шины TR</ID>
  <Name>Шины TR</Name>
  <CreatedTimestamp>0001-01-01T00:00:00Z</CreatedTimestamp>
  <LastSchemaUpdate>0001-01-01T00:00:00Z</LastSchemaUpdate>
  <Annotations>
    <Annotation>
      <Name>http://schemas.microsoft.com/DataWarehouse/Designer/1.0:DiagramLayout</Name>
      <Value>
        <dds xmlns="">
          <diagram fontclsid="{0BE35203-8F91-11CE-9DE3-00AA004BB851}" mouseiconclsid="{0BE35204-8F91-11CE-9DE3-00AA004BB851}" defaultlayout="MSDDS.Rectilinear" defaultlineroute="MSDDS.Rectilinear" version="7" nextobject="18" scale="100" pagebreakanchorx="0" pagebreakanchory="0" pagebreaksizex="0" pagebreaksizey="0" scrollleft="0" scrolltop="0" gridx="150" gridy="150" marginx="5000" marginy="5000" zoom="100" x="19738" y="13864" backcolor="15334399" defaultpersistence="2" PrintPageNumbersMode="3" PrintMarginTop="0" PrintMarginBottom="635" PrintMarginLeft="0" PrintMarginRight="0" marqueeselectionmode="0" mousepointer="0" snaptogrid="0" autotypeannotation="1" showscrollbars="1" viewpagebreaks="0" donotforceconnectorsbehindshapes="1" backpictureclsid="{00000000-0000-0000-0000-000000000000}">
            <font>
              <ddsxmlobjectstreamwrapper binary="01cc0000900144420100065461686f6d61" />
            </font>
            <mouseicon>
              <ddsxmlobjectstreamwrapper binary="6c74000000000000" />
            </mouseicon>
          </diagram>
          <layoutmanager>
            <ddsxmlobj />
          </layoutmanager>
          <ddscontrol controlprogid="DdsShapes.DdsObjectManagedBridge.3" tooltip="DimGeography" left="8930" top="6627" logicalid="1" controlid="1" masterid="0" hint1="0" hint2="0" width="3572" height="4419" noresize="0" nomove="0" nodefaultattachpoints="0" autodrag="1" usedefaultiddshape="1" selectable="1" showselectionhandles="1" allownudging="1" isannotation="0" dontautolayout="0" groupcollapsed="0" tabstop="1" visible="1" snaptogrid="0">
            <control>
              <ddsxmlobjectstreaminitwrapper binary="00080000f40d000043110000" />
            </control>
            <layoutobject>
              <ddsxmlobj>
                <property name="LogicalObject" value="dbo_DimGeography" vartype="8" />
              </ddsxmlobj>
            </layoutobject>
            <shape groupshapeid="0" groupnode="0" />
          </ddscontrol>
          <ddscontrol controlprogid="DdsShapes.DdsObjectManagedBridge.3" tooltip="DimProdYear" left="6072" top="3148" logicalid="2" controlid="2" masterid="0" hint1="0" hint2="0" width="4048" height="3149" noresize="0" nomove="0" nodefaultattachpoints="0" autodrag="1" usedefaultiddshape="1" selectable="1" showselectionhandles="1" allownudging="1" isannotation="0" dontautolayout="0" groupcollapsed="0" tabstop="1" visible="1" snaptogrid="0">
            <control>
              <ddsxmlobjectstreaminitwrapper binary="00080000d00f00004d0c0000" />
            </control>
            <layoutobject>
              <ddsxmlobj>
                <property name="LogicalObject" value="dbo_DimProdYear" vartype="8" />
              </ddsxmlobj>
            </layoutobject>
            <shape groupshapeid="0" groupnode="0" />
          </ddscontrol>
          <ddscontrol controlprogid="DdsShapes.DdsObjectManagedBridge.3" tooltip="vDimModelTR" left="10398" top="1997" logicalid="3" controlid="3" masterid="0" hint1="0" hint2="0" width="3466" height="3995" noresize="0" nomove="0" nodefaultattachpoints="0" autodrag="1" usedefaultiddshape="1" selectable="1" showselectionhandles="1" allownudging="1" isannotation="0" dontautolayout="0" groupcollapsed="0" tabstop="1" visible="1" snaptogrid="0">
            <control>
              <ddsxmlobjectstreaminitwrapper binary="000800008a0d00009b0f0000" />
            </control>
            <layoutobject>
              <ddsxmlobj>
                <property name="LogicalObject" value="dbo_vDimModelTR" vartype="8" />
              </ddsxmlobj>
            </layoutobject>
            <shape groupshapeid="0" groupnode="0" />
          </ddscontrol>
          <ddscontrol controlprogid="DdsShapes.DdsObjectManagedBridge.3" tooltip="DimOrigin" left="12684" top="6810" logicalid="4" controlid="4" masterid="0" hint1="0" hint2="0" width="3625" height="2725" noresize="0" nomove="0" nodefaultattachpoints="0" autodrag="1" usedefaultiddshape="1" selectable="1" showselectionhandles="1" allownudging="1" isannotation="0" dontautolayout="0" groupcollapsed="0" tabstop="1" visible="1" snaptogrid="0">
            <control>
              <ddsxmlobjectstreaminitwrapper binary="00080000290e0000a50a0000" />
            </control>
            <layoutobject>
              <ddsxmlobj>
                <property name="LogicalObject" value="dbo_DimOrigin" vartype="8" />
              </ddsxmlobj>
            </layoutobject>
            <shape groupshapeid="0" groupnode="0" />
          </ddscontrol>
          <ddscontrol controlprogid="DdsShapes.DdsObjectManagedBridge.3" tooltip="DimCountry" left="13500" top="10896" logicalid="5" controlid="5" masterid="0" hint1="0" hint2="0" width="3000" height="2725" noresize="0" nomove="0" nodefaultattachpoints="0" autodrag="1" usedefaultiddshape="1" selectable="1" showselectionhandles="1" allownudging="1" isannotation="0" dontautolayout="0" groupcollapsed="0" tabstop="1" visible="1" snaptogrid="0">
            <control>
              <ddsxmlobjectstreaminitwrapper binary="00080000b80b0000a50a0000" />
            </control>
            <layoutobject>
              <ddsxmlobj>
                <property name="LogicalObject" value="dbo_DimCountry" vartype="8" />
              </ddsxmlobj>
            </layoutobject>
            <shape groupshapeid="0" groupnode="0" />
          </ddscontrol>
          <ddscontrol controlprogid="MSDDS.Polyline" left="13547" top="9036" logicalid="6" controlid="6" masterid="0" hint1="0" hint2="0" width="799" height="2160" noresize="0" nomove="0" nodefaultattachpoints="1" autodrag="0" usedefaultiddshape="0" selectable="1" showselectionhandles="0" allownudging="1" isannotation="0" dontautolayout="0" groupcollapsed="0" tabstop="1" visible="1" snaptogrid="0">
            <control>
              <ddsxmlobj>
                <polyline endtypedst="6" endtypesrc="3" usercolor="0" linestyle="0" linerender="1" customendtypedstid="0" customendtypesrcid="0" adornsvisible="1" />
              </ddsxmlobj>
            </control>
            <layoutobject>
              <ddsxmlobj>
                <property name="LogicalObject" value="dataSet.Relations[DimCountry-DimOrigin]" vartype="8" />
                <property name="Virtual" value="0" vartype="11" />
                <property name="VisibleAP" value="0" vartype="3" />
              </ddsxmlobj>
            </layoutobject>
            <connector lineroutestyle="MSDDS.Rectilinear" sourceid="4" destid="5" sourceattachpoint="5" destattachpoint="0" segmenteditmode="0" bendpointeditmode="0" bendpointvisibility="0" relatedid="0" virtual="0">
              <point x="13946" y="9535" />
              <point x="13946" y="10215" />
              <point x="13900" y="10215" />
              <point x="13900" y="10896" />
            </connector>
          </ddscontrol>
          <ddscontrol controlprogid="DdsShapes.DdsObjectManagedBridge.3" tooltip="vDimCVTireSegment" left="14760" top="3453" logicalid="7" controlid="7" masterid="0" hint1="0" hint2="0" width="3281" height="2302" noresize="0" nomove="0" nodefaultattachpoints="0" autodrag="1" usedefaultiddshape="1" selectable="1" showselectionhandles="1" allownudging="1" isannotation="0" dontautolayout="0" groupcollapsed="0" tabstop="1" visible="1" snaptogrid="0">
            <control>
              <ddsxmlobjectstreaminitwrapper binary="00080000d10c0000fe080000" />
            </control>
            <layoutobject>
              <ddsxmlobj>
                <property name="LogicalObject" value="dbo_vDimCVTireSegment" vartype="8" />
              </ddsxmlobj>
            </layoutobject>
            <shape groupshapeid="0" groupnode="0" />
          </ddscontrol>
          <ddscontrol controlprogid="DdsShapes.DdsObjectManagedBridge.3" tooltip="DimTiresTR" left="4920" top="10359" logicalid="8" controlid="8" masterid="0" hint1="0" hint2="0" width="3281" height="2302" noresize="0" nomove="0" nodefaultattachpoints="0" autodrag="1" usedefaultiddshape="1" selectable="1" showselectionhandles="1" allownudging="1" isannotation="0" dontautolayout="0" groupcollapsed="0" tabstop="1" visible="1" snaptogrid="0">
            <control>
              <ddsxmlobjectstreaminitwrapper binary="00080000d10c0000fe080000" />
            </control>
            <layoutobject>
              <ddsxmlobj>
                <property name="LogicalObject" value="dbo_DimTiresTR" vartype="8" />
              </ddsxmlobj>
            </layoutobject>
            <shape groupshapeid="0" groupnode="0" />
          </ddscontrol>
          <ddscontrol controlprogid="DdsShapes.DdsObjectManagedBridge.3" tooltip="FactTiresTR" left="0" top="0" logicalid="9" controlid="9" masterid="0" hint1="0" hint2="0" width="3836" height="3995" noresize="0" nomove="0" nodefaultattachpoints="0" autodrag="1" usedefaultiddshape="1" selectable="1" showselectionhandles="1" allownudging="1" isannotation="0" dontautolayout="0" groupcollapsed="0" tabstop="1" visible="1" snaptogrid="0">
            <control>
              <ddsxmlobjectstreaminitwrapper binary="00080000fc0e00009b0f0000" />
            </control>
            <layoutobject>
              <ddsxmlobj>
                <property name="LogicalObject" value="dbo_FactTiresTR" vartype="8" />
              </ddsxmlobj>
            </layoutobject>
            <shape groupshapeid="0" groupnode="0" />
          </ddscontrol>
          <ddscontrol controlprogid="MSDDS.Polyline" left="3536" top="2797" logicalid="10" controlid="10" masterid="0" hint1="0" hint2="0" width="5694" height="4789" noresize="0" nomove="0" nodefaultattachpoints="1" autodrag="0" usedefaultiddshape="0" selectable="1" showselectionhandles="0" allownudging="1" isannotation="0" dontautolayout="0" groupcollapsed="0" tabstop="1" visible="1" snaptogrid="0">
            <control>
              <ddsxmlobj>
                <polyline endtypedst="6" endtypesrc="3" usercolor="0" linestyle="0" linerender="1" customendtypedstid="0" customendtypesrcid="0" adornsvisible="1" />
              </ddsxmlobj>
            </control>
            <layoutobject>
              <ddsxmlobj>
                <property name="LogicalObject" value="dataSet.Relations[FactTiresTR-DimGeography]" vartype="8" />
                <property name="Virtual" value="0" vartype="11" />
                <property name="VisibleAP" value="0" vartype="3" />
              </ddsxmlobj>
            </layoutobject>
            <connector lineroutestyle="MSDDS.Rectilinear" sourceid="1" destid="9" sourceattachpoint="14" destattachpoint="25" segmenteditmode="0" bendpointeditmode="0" bendpointvisibility="0" relatedid="0" virtual="0">
              <point x="8930" y="7186" />
              <point x="6383" y="7186" />
              <point x="6383" y="3097" />
              <point x="3836" y="3097" />
            </connector>
          </ddscontrol>
          <ddscontrol controlprogid="MSDDS.Polyline" left="3536" top="2797" logicalid="11" controlid="11" masterid="0" hint1="0" hint2="0" width="2836" height="1225" noresize="0" nomove="0" nodefaultattachpoints="1" autodrag="0" usedefaultiddshape="0" selectable="1" showselectionhandles="0" allownudging="1" isannotation="0" dontautolayout="0" groupcollapsed="0" tabstop="1" visible="1" snaptogrid="0">
            <control>
              <ddsxmlobj>
                <polyline endtypedst="6" endtypesrc="3" usercolor="0" linestyle="0" linerender="1" customendtypedstid="0" customendtypesrcid="0" adornsvisible="1" />
              </ddsxmlobj>
            </control>
            <layoutobject>
              <ddsxmlobj>
                <property name="LogicalObject" value="dataSet.Relations[FactTiresTR-DimProdYear]" vartype="8" />
                <property name="Virtual" value="0" vartype="11" />
                <property name="VisibleAP" value="0" vartype="3" />
              </ddsxmlobj>
            </layoutobject>
            <connector lineroutestyle="MSDDS.Rectilinear" sourceid="2" destid="9" sourceattachpoint="14" destattachpoint="25" segmenteditmode="0" bendpointeditmode="0" bendpointvisibility="0" relatedid="0" virtual="0">
              <point x="6072" y="3622" />
              <point x="4954" y="3622" />
              <point x="4954" y="3097" />
              <point x="3836" y="3097" />
            </connector>
          </ddscontrol>
          <ddscontrol controlprogid="MSDDS.Polyline" left="3268" top="3695" logicalid="12" controlid="12" masterid="0" hint1="0" hint2="0" width="2592" height="7164" noresize="0" nomove="0" nodefaultattachpoints="1" autodrag="0" usedefaultiddshape="0" selectable="1" showselectionhandles="0" allownudging="1" isannotation="0" dontautolayout="0" groupcollapsed="0" tabstop="1" visible="1" snaptogrid="0">
            <control>
              <ddsxmlobj>
                <polyline endtypedst="6" endtypesrc="3" usercolor="0" linestyle="0" linerender="1" customendtypedstid="0" customendtypesrcid="0" adornsvisible="1" />
              </ddsxmlobj>
            </control>
            <layoutobject>
              <ddsxmlobj>
                <property name="LogicalObject" value="dataSet.Relations[FactTiresTR-DimTiresTR]" vartype="8" />
                <property name="Virtual" value="0" vartype="11" />
                <property name="VisibleAP" value="0" vartype="3" />
              </ddsxmlobj>
            </layoutobject>
            <connector lineroutestyle="MSDDS.Rectilinear" sourceid="8" destid="9" sourceattachpoint="0" destattachpoint="13" segmenteditmode="0" bendpointeditmode="0" bendpointvisibility="0" relatedid="0" virtual="0">
              <point x="5460" y="10359" />
              <point x="5460" y="7177" />
              <point x="3568" y="7177" />
              <point x="3568" y="3995" />
            </connector>
          </ddscontrol>
          <ddscontrol controlprogid="MSDDS.Polyline" left="3536" top="1697" logicalid="13" controlid="13" masterid="0" hint1="0" hint2="0" width="7162" height="1047" noresize="0" nomove="0" nodefaultattachpoints="1" autodrag="0" usedefaultiddshape="0" selectable="1" showselectionhandles="0" allownudging="1" isannotation="0" dontautolayout="0" groupcollapsed="0" tabstop="1" visible="1" snaptogrid="0">
            <control>
              <ddsxmlobj>
                <polyline endtypedst="6" endtypesrc="3" usercolor="0" linestyle="0" linerender="1" customendtypedstid="0" customendtypesrcid="0" adornsvisible="1" />
              </ddsxmlobj>
            </control>
            <layoutobject>
              <ddsxmlobj>
                <property name="LogicalObject" value="dataSet.Relations[FactTiresTR-vDimModelTR]" vartype="8" />
                <property name="Virtual" value="0" vartype="11" />
                <property name="VisibleAP" value="0" vartype="3" />
              </ddsxmlobj>
            </layoutobject>
            <connector lineroutestyle="MSDDS.Rectilinear" sourceid="3" destid="9" sourceattachpoint="10" destattachpoint="21" segmenteditmode="0" bendpointeditmode="0" bendpointvisibility="0" relatedid="0" virtual="0">
              <point x="10398" y="2344" />
              <point x="7117" y="2344" />
              <point x="7117" y="1997" />
              <point x="3836" y="1997" />
            </connector>
          </ddscontrol>
          <ddscontrol controlprogid="DdsShapes.DdsObjectManagedBridge.3" tooltip="vDimBodyTypeCategoryTR" left="16616" top="7263" logicalid="14" controlid="14" masterid="0" hint1="0" hint2="0" width="4154" height="4842" noresize="0" nomove="0" nodefaultattachpoints="0" autodrag="1" usedefaultiddshape="1" selectable="1" showselectionhandles="1" allownudging="1" isannotation="0" dontautolayout="0" groupcollapsed="0" tabstop="1" visible="1" snaptogrid="0">
            <control>
              <ddsxmlobjectstreaminitwrapper binary="000800003a100000ea120000" />
            </control>
            <layoutobject>
              <ddsxmlobj>
                <property name="LogicalObject" value="dbo_vDimBodyTypeCategoryTR" vartype="8" />
              </ddsxmlobj>
            </layoutobject>
            <shape groupshapeid="0" groupnode="0" />
          </ddscontrol>
          <ddscontrol controlprogid="MSDDS.Polyline" left="3536" top="47" logicalid="15" controlid="15" masterid="0" hint1="0" hint2="0" width="17207" height="7716" noresize="0" nomove="0" nodefaultattachpoints="1" autodrag="0" usedefaultiddshape="0" selectable="1" showselectionhandles="0" allownudging="1" isannotation="0" dontautolayout="0" groupcollapsed="0" tabstop="1" visible="1" snaptogrid="0">
            <control>
              <ddsxmlobj>
                <polyline endtypedst="6" endtypesrc="3" usercolor="0" linestyle="0" linerender="1" customendtypedstid="0" customendtypesrcid="0" adornsvisible="1" />
              </ddsxmlobj>
            </control>
            <layoutobject>
              <ddsxmlobj>
                <property name="LogicalObject" value="dataSet.Relations[FactTiresTR-vDimBodyTypeCategoryTR]" vartype="8" />
                <property name="Virtual" value="0" vartype="11" />
                <property name="VisibleAP" value="0" vartype="3" />
              </ddsxmlobj>
            </layoutobject>
            <connector lineroutestyle="MSDDS.Rectilinear" sourceid="14" destid="9" sourceattachpoint="12" destattachpoint="15" segmenteditmode="0" bendpointeditmode="0" bendpointvisibility="0" relatedid="0" virtual="0">
              <point x="20343" y="7263" />
              <point x="20343" y="347" />
              <point x="3836" y="347" />
            </connector>
          </ddscontrol>
          <ddscontrol controlprogid="DdsShapes.DdsObjectManagedBridge.3" tooltip="FactTireLimitTR" left="0" top="0" logicalid="16" controlid="16" masterid="0" hint1="0" hint2="0" width="3836" height="3149" noresize="0" nomove="0" nodefaultattachpoints="0" autodrag="1" usedefaultiddshape="1" selectable="1" showselectionhandles="1" allownudging="1" isannotation="0" dontautolayout="0" groupcollapsed="0" tabstop="1" visible="1" snaptogrid="0">
            <control>
              <ddsxmlobjectstreaminitwrapper binary="00080000fc0e00004d0c0000" />
            </control>
            <layoutobject>
              <ddsxmlobj>
                <property name="LogicalObject" value="dbo_FactTireLimitTR" vartype="8" />
              </ddsxmlobj>
            </layoutobject>
            <shape groupshapeid="0" groupnode="0" />
          </ddscontrol>
          <ddscontrol controlprogid="MSDDS.Polyline" left="3536" top="2374" logicalid="17" controlid="17" masterid="0" hint1="0" hint2="0" width="9448" height="5098" noresize="0" nomove="0" nodefaultattachpoints="1" autodrag="0" usedefaultiddshape="0" selectable="1" showselectionhandles="0" allownudging="1" isannotation="0" dontautolayout="0" groupcollapsed="0" tabstop="1" visible="1" snaptogrid="0">
            <control>
              <ddsxmlobj>
                <polyline endtypedst="6" endtypesrc="3" usercolor="0" linestyle="0" linerender="1" customendtypedstid="0" customendtypesrcid="0" adornsvisible="1" />
              </ddsxmlobj>
            </control>
            <layoutobject>
              <ddsxmlobj>
                <property name="LogicalObject" value="dataSet.Relations[FactTireLimitTR-DimOrigin]" vartype="8" />
                <property name="Virtual" value="0" vartype="11" />
                <property name="VisibleAP" value="0" vartype="3" />
              </ddsxmlobj>
            </layoutobject>
            <connector lineroutestyle="MSDDS.Rectilinear" sourceid="4" destid="16" sourceattachpoint="14" destattachpoint="23" segmenteditmode="0" bendpointeditmode="0" bendpointvisibility="0" relatedid="0" virtual="0">
              <point x="12684" y="7072" />
              <point x="8260" y="7072" />
              <point x="8260" y="2674" />
              <point x="3836" y="2674" />
            </connector>
          </ddscontrol>
        </dds>
      </Value>
    </Annotation>
    <Annotation>
      <Name>http://schemas.microsoft.com/DataWarehouse/Designer/1.0:ShowFriendlyNames</Name>
      <Value>true</Value>
    </Annotation>
    <Annotation>
      <Name>http://schemas.microsoft.com/DataWarehouse/Designer/1.0:ShowRelationshipNames</Name>
      <Value>false</Value>
    </Annotation>
    <Annotation>
      <Name>http://schemas.microsoft.com/DataWarehouse/Designer/1.0:UseDiagramDefaultLayout</Name>
      <Value>true</Value>
    </Annotation>
    <Annotation>
      <Name>http://schemas.microsoft.com/DataWarehouse/Designer/1.0:DiagramViewPortLeft</Name>
      <Value>0</Value>
    </Annotation>
    <Annotation>
      <Name>http://schemas.microsoft.com/DataWarehouse/Designer/1.0:DiagramViewPortTop</Name>
      <Value>0</Value>
    </Annotation>
    <Annotation>
      <Name>http://schemas.microsoft.com/DataWarehouse/Designer/1.0:DiagramBoundingLeft</Name>
      <Value>0</Value>
    </Annotation>
    <Annotation>
      <Name>http://schemas.microsoft.com/DataWarehouse/Designer/1.0:DiagramBoundingTop</Name>
      <Value>0</Value>
    </Annotation>
    <Annotation>
      <Name>http://schemas.microsoft.com/DataWarehouse/Designer/1.0:DiagramZoom</Name>
      <Value>100</Value>
    </Annotation>
  </Annotations>
  <LastProcessed>0001-01-01T00:00:00Z</LastProcessed>
  <State>Unprocessed</State>
  <Dimensions>
    <Dimension dwd:design-time-name="789129d0-1508-4d3c-8de4-2ba6fa9584e2">
      <ID>География</ID>
      <Name>География</Name>
      <DimensionID>География</DimensionID>
      <Attributes>
        <Attribute dwd:design-time-name="09df9ec8-432b-4b53-a63c-370c0efc91cf">
          <AttributeID>Geography Key</AttributeID>
        </Attribute>
        <Attribute dwd:design-time-name="5d976618-6d30-46e1-9ad5-c4bd6e2a5c00">
          <AttributeID>Area Key</AttributeID>
        </Attribute>
        <Attribute dwd:design-time-name="7f1604d7-f3f2-471c-bb3d-28a5015188f3">
          <AttributeID>Region Key</AttributeID>
        </Attribute>
        <Attribute dwd:design-time-name="e7db808d-29b3-4e3a-98c8-ba269c12e27b">
          <AttributeID>Province Ru</AttributeID>
        </Attribute>
      </Attributes>
      <Hierarchies>
        <Hierarchy dwd:design-time-name="cfa7fcea-13ff-45b5-ba21-0413182edc57">
          <HierarchyID>Hierarchy</HierarchyID>
        </Hierarchy>
      </Hierarchies>
    </Dimension>
    <Dimension dwd:design-time-name="bcaea927-c47d-43ee-ae4e-f9ca72640b06">
      <ID>Год выпуска</ID>
      <Name>Год выпуска</Name>
      <DimensionID>Год выпуска</DimensionID>
      <Attributes>
        <Attribute dwd:design-time-name="cf471289-a26e-4347-965b-c6e324ffa607">
          <AttributeID>Prod Year Key</AttributeID>
        </Attribute>
        <Attribute dwd:design-time-name="a0673626-356a-4ecb-8169-b6b7e0a87008">
          <AttributeID>Prod Year1987</AttributeID>
        </Attribute>
        <Attribute dwd:design-time-name="0a012351-9820-4322-b07f-660bc781357f">
          <AttributeID>Prod Year1987 1</AttributeID>
        </Attribute>
      </Attributes>
    </Dimension>
    <Dimension dwd:design-time-name="78672c71-9dac-4f53-9227-94fad7afe9dd">
      <ID>Модели TR</ID>
      <Name>Модели TR</Name>
      <DimensionID>Модели TR</DimensionID>
      <Attributes>
        <Attribute dwd:design-time-name="da896ce9-73a1-440f-b564-f97849b4f329">
          <AttributeID>Model Key</AttributeID>
        </Attribute>
        <Attribute dwd:design-time-name="d01bf2df-83b4-4948-b197-87b15dd9c42c">
          <AttributeID>Brand</AttributeID>
        </Attribute>
        <Attribute dwd:design-time-name="8452a870-5089-4fe6-9063-5dedc9cb6b52">
          <AttributeID>Model</AttributeID>
        </Attribute>
        <Attribute dwd:design-time-name="0a6cd6d1-1e0f-40d9-b9bd-c37ade787cf8">
          <AttributeID>Brand Model</AttributeID>
        </Attribute>
      </Attributes>
    </Dimension>
    <Dimension dwd:design-time-name="b7de22ff-e89a-4f2c-ba49-fdc861fc5eab">
      <ID>Сегмент шин</ID>
      <Name>Сегмент шин</Name>
      <DimensionID>Сегмент шин</DimensionID>
      <Attributes>
        <Attribute dwd:design-time-name="2438d90a-2117-4be1-b292-2b1d5a1fad85">
          <AttributeID>Tire Segment Key</AttributeID>
        </Attribute>
      </Attributes>
    </Dimension>
    <Dimension dwd:design-time-name="2ff49eb0-4529-4cf9-9a6a-e5e882d11481">
      <ID>Тип шин TR</ID>
      <Name>Тип шин TR</Name>
      <DimensionID>Тип шин TR</DimensionID>
      <Attributes>
        <Attribute dwd:design-time-name="0c4fdbcd-5060-43d1-8a6f-c62a35bb9a78">
          <AttributeID>Tire Type Key</AttributeID>
        </Attribute>
      </Attributes>
    </Dimension>
    <Dimension dwd:design-time-name="86fe8fb5-70d3-4be0-95b6-617715b38ef5">
      <ID>Тип кузова TR</ID>
      <Name>Тип кузова TR</Name>
      <DimensionID>Тип кузова TR</DimensionID>
      <Attributes>
        <Attribute dwd:design-time-name="f18c9ec9-96ee-462c-8aa6-7bdb27d4c8da">
          <AttributeID>Body Type Special Key</AttributeID>
        </Attribute>
      </Attributes>
    </Dimension>
  </Dimensions>
  <MeasureGroups>
    <MeasureGroup dwd:design-time-name="ed04f64b-644a-43da-bc66-dea3db7e8e13">
      <ID>Fact Tires TR</ID>
      <Name>Парк</Name>
      <CreatedTimestamp>0001-01-01T00:00:00Z</CreatedTimestamp>
      <LastSchemaUpdate>0001-01-01T00:00:00Z</LastSchemaUpdate>
      <LastProcessed>0001-01-01T00:00:00Z</LastProcessed>
      <State>Unprocessed</State>
      <Measures>
        <Measure dwd:design-time-name="6719dfc2-dd60-474d-a0c5-3c25ddd4a0d7">
          <ID>Quantity Tires</ID>
          <Name>Количество шин</Name>
          <Source dwd:design-time-name="18fb779f-ed8d-4d21-8e39-d26edb730523">
            <DataType>Double</DataType>
            <Source xsi:type="ColumnBinding" dwd:design-time-name="2a2bd8b7-77a7-4a32-9b59-3ff3cf079b97">
              <TableID>dbo_FactTiresTR</TableID>
              <ColumnID>QuantityTires</ColumnID>
            </Source>
          </Source>
        </Measure>
      </Measures>
      <StorageMode>Molap</StorageMode>
      <ProcessingMode>Regular</ProcessingMode>
      <Dimensions>
        <Dimension xsi:type="RegularMeasureGroupDimension" dwd:design-time-name="00802ed5-b1f3-40a5-a44b-afd50a0e86a8">
          <CubeDimensionID>География</CubeDimensionID>
          <Attributes>
            <Attribute dwd:design-time-name="e5d39121-c79a-4e7f-b7aa-1139c56694f1">
              <AttributeID>Geography Key</AttributeID>
              <KeyColumns>
                <KeyColumn dwd:design-time-name="8a025001-16d5-4cc3-a191-b50ae43fa0fe">
                  <DataType>Integer</DataType>
                  <Source xsi:type="ColumnBinding" dwd:design-time-name="992c6b0f-4bd3-4161-8d86-163fcb5c7a25">
                    <TableID>dbo_FactTiresTR</TableID>
                    <ColumnID>GeographyKey</ColumnID>
                  </Source>
                </KeyColumn>
              </KeyColumns>
              <Type>Granularity</Type>
            </Attribute>
          </Attributes>
        </Dimension>
        <Dimension xsi:type="RegularMeasureGroupDimension" dwd:design-time-name="0d66ac7a-7e1e-4ff1-ab7b-8e85549ed8af">
          <CubeDimensionID>Год выпуска</CubeDimensionID>
          <Attributes>
            <Attribute dwd:design-time-name="de7298a8-7083-490f-a4db-ebbe8fdba2eb">
              <AttributeID>Prod Year Key</AttributeID>
              <KeyColumns>
                <KeyColumn dwd:design-time-name="753f16bb-5c9b-48a3-9e96-f924dc79c8b8">
                  <DataType>Integer</DataType>
                  <Source xsi:type="ColumnBinding" dwd:design-time-name="cb66d454-2f22-449e-ba7f-8ca4b82cdc66">
                    <TableID>dbo_FactTiresTR</TableID>
                    <ColumnID>ProdYearKey</ColumnID>
                  </Source>
                </KeyColumn>
              </KeyColumns>
              <Type>Granularity</Type>
            </Attribute>
          </Attributes>
        </Dimension>
        <Dimension xsi:type="RegularMeasureGroupDimension" dwd:design-time-name="43b7816f-fc00-4bed-bc3c-e2ac7aa603f3">
          <CubeDimensionID>Тип шин TR</CubeDimensionID>
          <Attributes>
            <Attribute dwd:design-time-name="2e9988ca-f231-43f3-8aff-9e2327f5c343">
              <AttributeID>Tire Type Key</AttributeID>
              <KeyColumns>
                <KeyColumn dwd:design-time-name="0ea05f0a-c632-4d66-9717-f0726c162bc1">
                  <DataType>Integer</DataType>
                  <Source xsi:type="ColumnBinding" dwd:design-time-name="8e1cc923-da4c-46c1-8aaf-8d17e36830d0">
                    <TableID>dbo_FactTiresTR</TableID>
                    <ColumnID>TireTypeKey</ColumnID>
                  </Source>
                </KeyColumn>
              </KeyColumns>
              <Type>Granularity</Type>
            </Attribute>
          </Attributes>
        </Dimension>
        <Dimension xsi:type="RegularMeasureGroupDimension" dwd:design-time-name="34018046-7d91-46c7-a93b-0738ab75076a">
          <CubeDimensionID>Модели TR</CubeDimensionID>
          <Attributes>
            <Attribute dwd:design-time-name="20791136-6297-4401-8e71-c4cac954338b">
              <AttributeID>Model Key</AttributeID>
              <KeyColumns>
                <KeyColumn dwd:design-time-name="d9003f24-35a9-4501-854e-1b8414808d86">
                  <DataType>Integer</DataType>
                  <Source xsi:type="ColumnBinding" dwd:design-time-name="3b27914c-3942-49bd-981e-d791b6f32965">
                    <TableID>dbo_FactTiresTR</TableID>
                    <ColumnID>ModelKey</ColumnID>
                  </Source>
                </KeyColumn>
              </KeyColumns>
              <Type>Granularity</Type>
            </Attribute>
          </Attributes>
        </Dimension>
        <Dimension xsi:type="RegularMeasureGroupDimension" dwd:design-time-name="83415e38-5771-4601-a54c-75f32da9e544">
          <CubeDimensionID>Тип кузова TR</CubeDimensionID>
          <Attributes>
            <Attribute dwd:design-time-name="0f1aadfa-9d53-4dda-b35e-b9e011786196">
              <AttributeID>Body Type Special Key</AttributeID>
              <KeyColumns>
                <KeyColumn dwd:design-time-name="35929b37-087a-45b6-b62b-42b9ac466611">
                  <DataType>Integer</DataType>
                  <Source xsi:type="ColumnBinding" dwd:design-time-name="5abde0f6-82a9-4598-ba97-da8d21dcfcf4">
                    <TableID>dbo_FactTiresTR</TableID>
                    <ColumnID>BodyTypeSpecialKey</ColumnID>
                  </Source>
                </KeyColumn>
              </KeyColumns>
              <Type>Granularity</Type>
            </Attribute>
          </Attributes>
        </Dimension>
      </Dimensions>
      <Partitions />
    </MeasureGroup>
    <MeasureGroup dwd:design-time-name="51170d1b-b398-4351-8849-e492958709b6">
      <ID>Fact Tire Limit TR</ID>
      <Name>Срок службы шин</Name>
      <CreatedTimestamp>0001-01-01T00:00:00Z</CreatedTimestamp>
      <LastSchemaUpdate>0001-01-01T00:00:00Z</LastSchemaUpdate>
      <LastProcessed>0001-01-01T00:00:00Z</LastProcessed>
      <State>Unprocessed</State>
      <Measures>
        <Measure dwd:design-time-name="36b3f4fc-77ff-4a3a-b465-e8f45cf390c9">
          <ID>Value</ID>
          <Name>Значение</Name>
          <Source dwd:design-time-name="6b1442bc-60b8-4a28-aec9-96062eb41e55">
            <DataType>Double</DataType>
            <Source xsi:type="ColumnBinding" dwd:design-time-name="f20e94a6-b53b-4afd-98d6-22684d012b8a">
              <TableID>dbo_FactTireLimitTR</TableID>
              <ColumnID>Value</ColumnID>
            </Source>
          </Source>
        </Measure>
      </Measures>
      <StorageMode>Molap</StorageMode>
      <ProcessingMode>Regular</ProcessingMode>
      <Dimensions>
        <Dimension xsi:type="RegularMeasureGroupDimension" dwd:design-time-name="66d42402-1ca0-497f-a9f5-55def7af2efe">
          <CubeDimensionID>Сегмент шин</CubeDimensionID>
          <Attributes>
            <Attribute dwd:design-time-name="65beb963-6a23-4726-a048-7b07d718fcf9">
              <AttributeID>Tire Segment Key</AttributeID>
              <KeyColumns>
                <KeyColumn dwd:design-time-name="7139ae34-49ea-4b74-98cd-758e8d525182">
                  <DataType>Integer</DataType>
                  <Source xsi:type="ColumnBinding" dwd:design-time-name="c312b849-90a8-4249-9c23-87d5437d0837">
                    <TableID>dbo_FactTireLimitTR</TableID>
                    <ColumnID>TireSegmentKey</ColumnID>
                  </Source>
                </KeyColumn>
              </KeyColumns>
              <Type>Granularity</Type>
            </Attribute>
          </Attributes>
        </Dimension>
        <Dimension xsi:type="RegularMeasureGroupDimension" dwd:design-time-name="6b59deb7-4e9f-4c10-a3e2-c068cfbbd12f">
          <CubeDimensionID>Тип кузова TR</CubeDimensionID>
          <Attributes>
            <Attribute dwd:design-time-name="a5b5ded3-c605-4845-a399-cfe29b916061">
              <AttributeID>Body Type Special Key</AttributeID>
              <KeyColumns>
                <KeyColumn dwd:design-time-name="e2df4c23-f245-4d94-a0a6-86b707fad815">
                  <DataType>Integer</DataType>
                  <Source xsi:type="ColumnBinding" dwd:design-time-name="5581b911-5930-4e7d-83bd-8de15d3edefa">
                    <TableID>dbo_FactTireLimitTR</TableID>
                    <ColumnID>BodyTypeSpecialKey</ColumnID>
                  </Source>
                </KeyColumn>
              </KeyColumns>
              <Type>Granularity</Type>
            </Attribute>
          </Attributes>
        </Dimension>
      </Dimensions>
      <Partitions />
    </MeasureGroup>
  </MeasureGroups>
  <Source dwd:design-time-name="d7edbe8a-59bb-421e-8b60-37f67785806f">
    <DataSourceViewID>Razbor Vin DW</DataSourceViewID>
  </Source>
</Cube>