﻿<Cube xmlns:xsd="http://www.w3.org/2001/XMLSchema" xmlns:xsi="http://www.w3.org/2001/XMLSchema-instance" xmlns:ddl2="http://schemas.microsoft.com/analysisservices/2003/engine/2" xmlns:ddl2_2="http://schemas.microsoft.com/analysisservices/2003/engine/2/2" xmlns:ddl100_100="http://schemas.microsoft.com/analysisservices/2008/engine/100/100" xmlns:ddl200="http://schemas.microsoft.com/analysisservices/2010/engine/200" xmlns:ddl200_200="http://schemas.microsoft.com/analysisservices/2010/engine/200/200" xmlns:ddl300="http://schemas.microsoft.com/analysisservices/2011/engine/300" xmlns:ddl300_300="http://schemas.microsoft.com/analysisservices/2011/engine/300/300" xmlns:dwd="http://schemas.microsoft.com/DataWarehouse/Designer/1.0" dwd:design-time-name="0ca6d22e-8806-403f-b357-6e95d2534685" xmlns="http://schemas.microsoft.com/analysisservices/2003/engine">
  <ID>Парк_</ID>
  <Name>Парк_PC_LCV</Name>
  <CreatedTimestamp>0001-01-01T00:00:00Z</CreatedTimestamp>
  <LastSchemaUpdate>0001-01-01T00:00:00Z</LastSchemaUpdate>
  <Annotations>
    <Annotation>
      <Name>http://schemas.microsoft.com/DataWarehouse/Designer/1.0:DiagramLayout</Name>
      <Value>
        <dds xmlns="">
          <diagram fontclsid="{0BE35203-8F91-11CE-9DE3-00AA004BB851}" mouseiconclsid="{0BE35204-8F91-11CE-9DE3-00AA004BB851}" defaultlayout="MSDDS.Rectilinear" defaultlineroute="MSDDS.Rectilinear" version="7" nextobject="76" scale="100" pagebreakanchorx="0" pagebreakanchory="0" pagebreaksizex="0" pagebreaksizey="0" scrollleft="-4517" scrolltop="1116" gridx="150" gridy="150" marginx="5000" marginy="5000" zoom="83" x="16642" y="18045" backcolor="15334399" defaultpersistence="2" PrintPageNumbersMode="3" PrintMarginTop="0" PrintMarginBottom="635" PrintMarginLeft="0" PrintMarginRight="0" marqueeselectionmode="0" mousepointer="0" snaptogrid="0" autotypeannotation="1" showscrollbars="1" viewpagebreaks="0" donotforceconnectorsbehindshapes="1" backpictureclsid="{00000000-0000-0000-0000-000000000000}">
            <font>
              <ddsxmlobjectstreamwrapper binary="01cc0000900144420100065461686f6d61" />
            </font>
            <mouseicon>
              <ddsxmlobjectstreamwrapper binary="6c74000000000000" />
            </mouseicon>
          </diagram>
          <layoutmanager>
            <ddsxmlobj />
          </layoutmanager>
          <ddscontrol controlprogid="DdsShapes.DdsObjectManagedBridge.3" tooltip="DimGeography" left="7088" top="7500" logicalid="38" controlid="1" masterid="0" hint1="0" hint2="0" width="3545" height="5000" noresize="0" nomove="0" nodefaultattachpoints="0" autodrag="1" usedefaultiddshape="1" selectable="1" showselectionhandles="1" allownudging="1" isannotation="0" dontautolayout="0" groupcollapsed="0" tabstop="1" visible="1" snaptogrid="0">
            <control>
              <ddsxmlobjectstreaminitwrapper binary="00080000d90d000088130000" />
            </control>
            <layoutobject>
              <ddsxmlobj>
                <property name="LogicalObject" value="dbo_DimGeography" vartype="8" />
              </ddsxmlobj>
            </layoutobject>
            <shape groupshapeid="0" groupnode="0" />
          </ddscontrol>
          <ddscontrol controlprogid="DdsShapes.DdsObjectManagedBridge.3" tooltip="DimProdYear" left="2935" top="7273" logicalid="39" controlid="2" masterid="0" hint1="0" hint2="0" width="4022" height="3149" noresize="0" nomove="0" nodefaultattachpoints="0" autodrag="1" usedefaultiddshape="1" selectable="1" showselectionhandles="1" allownudging="1" isannotation="0" dontautolayout="0" groupcollapsed="0" tabstop="1" visible="1" snaptogrid="0">
            <control>
              <ddsxmlobjectstreaminitwrapper binary="00080000b60f00004d0c0000" />
            </control>
            <layoutobject>
              <ddsxmlobj>
                <property name="LogicalObject" value="dbo_DimProdYear" vartype="8" />
              </ddsxmlobj>
            </layoutobject>
            <shape groupshapeid="0" groupnode="0" />
          </ddscontrol>
          <ddscontrol controlprogid="DdsShapes.DdsObjectManagedBridge.3" tooltip="vUpdatingDatePark" left="10395" top="4381" logicalid="40" controlid="3" masterid="0" hint1="0" hint2="0" width="4260" height="5000" noresize="0" nomove="0" nodefaultattachpoints="0" autodrag="1" usedefaultiddshape="1" selectable="1" showselectionhandles="1" allownudging="1" isannotation="0" dontautolayout="0" groupcollapsed="0" tabstop="1" visible="1" snaptogrid="0">
            <control>
              <ddsxmlobjectstreaminitwrapper binary="00080000a410000088130000" />
            </control>
            <layoutobject>
              <ddsxmlobj>
                <property name="LogicalObject" value="dbo_vUpdatingDatePark" vartype="8" />
              </ddsxmlobj>
            </layoutobject>
            <shape groupshapeid="0" groupnode="0" />
          </ddscontrol>
          <ddscontrol controlprogid="DdsShapes.DdsObjectManagedBridge.3" tooltip="DimEuroClass" left="2050" top="10896" logicalid="41" controlid="4" masterid="0" hint1="0" hint2="0" width="4101" height="2725" noresize="0" nomove="0" nodefaultattachpoints="0" autodrag="1" usedefaultiddshape="1" selectable="1" showselectionhandles="1" allownudging="1" isannotation="0" dontautolayout="0" groupcollapsed="0" tabstop="1" visible="1" snaptogrid="0">
            <control>
              <ddsxmlobjectstreaminitwrapper binary="0008000005100000a50a0000" />
            </control>
            <layoutobject>
              <ddsxmlobj>
                <property name="LogicalObject" value="dbo_DimEuroClass" vartype="8" />
              </ddsxmlobj>
            </layoutobject>
            <shape groupshapeid="0" groupnode="0" />
          </ddscontrol>
          <ddscontrol controlprogid="DdsShapes.DdsObjectManagedBridge.3" tooltip="vDimModels_PC_LCV" left="10915" top="10000" logicalid="42" controlid="5" masterid="0" hint1="0" hint2="0" width="4366" height="5000" noresize="0" nomove="0" nodefaultattachpoints="0" autodrag="1" usedefaultiddshape="1" selectable="1" showselectionhandles="1" allownudging="1" isannotation="0" dontautolayout="0" groupcollapsed="0" tabstop="1" visible="1" snaptogrid="0">
            <control>
              <ddsxmlobjectstreaminitwrapper binary="000800000e11000088130000" />
            </control>
            <layoutobject>
              <ddsxmlobj>
                <property name="LogicalObject" value="dbo_vDimModels_PC_LCV" vartype="8" />
              </ddsxmlobj>
            </layoutobject>
            <shape groupshapeid="0" groupnode="0" />
          </ddscontrol>
          <ddscontrol controlprogid="DdsShapes.DdsObjectManagedBridge.3" tooltip="DimCountry" left="6644" top="1052" logicalid="43" controlid="6" masterid="0" hint1="0" hint2="0" width="3000" height="2725" noresize="0" nomove="0" nodefaultattachpoints="0" autodrag="1" usedefaultiddshape="1" selectable="1" showselectionhandles="1" allownudging="1" isannotation="0" dontautolayout="0" groupcollapsed="0" tabstop="1" visible="1" snaptogrid="0">
            <control>
              <ddsxmlobjectstreaminitwrapper binary="00080000b80b0000a50a0000" />
            </control>
            <layoutobject>
              <ddsxmlobj>
                <property name="LogicalObject" value="dbo_DimCountry" vartype="8" />
              </ddsxmlobj>
            </layoutobject>
            <shape groupshapeid="0" groupnode="0" />
          </ddscontrol>
          <ddscontrol controlprogid="DdsShapes.DdsObjectManagedBridge.3" tooltip="DimOrigin" left="6083" top="0" logicalid="44" controlid="7" masterid="0" hint1="0" hint2="0" width="3598" height="2725" noresize="0" nomove="0" nodefaultattachpoints="0" autodrag="1" usedefaultiddshape="1" selectable="1" showselectionhandles="1" allownudging="1" isannotation="0" dontautolayout="0" groupcollapsed="0" tabstop="1" visible="1" snaptogrid="0">
            <control>
              <ddsxmlobjectstreaminitwrapper binary="000800000e0e0000a50a0000" />
            </control>
            <layoutobject>
              <ddsxmlobj>
                <property name="LogicalObject" value="dbo_DimOrigin" vartype="8" />
              </ddsxmlobj>
            </layoutobject>
            <shape groupshapeid="0" groupnode="0" />
          </ddscontrol>
          <ddscontrol controlprogid="MSDDS.Polyline" left="4983" top="614" logicalid="45" controlid="8" masterid="0" hint1="0" hint2="0" width="1961" height="1148" noresize="0" nomove="0" nodefaultattachpoints="1" autodrag="0" usedefaultiddshape="0" selectable="1" showselectionhandles="0" allownudging="1" isannotation="0" dontautolayout="0" groupcollapsed="0" tabstop="1" visible="1" snaptogrid="0">
            <control>
              <ddsxmlobj>
                <polyline endtypedst="6" endtypesrc="3" usercolor="0" linestyle="0" linerender="1" customendtypedstid="0" customendtypesrcid="0" adornsvisible="1" />
              </ddsxmlobj>
            </control>
            <layoutobject>
              <ddsxmlobj>
                <property name="LogicalObject" value="dataSet.Relations[FK_DimCountry_DimOrigin]" vartype="8" />
                <property name="Virtual" value="0" vartype="11" />
                <property name="VisibleAP" value="0" vartype="3" />
              </ddsxmlobj>
            </layoutobject>
            <connector lineroutestyle="MSDDS.Rectilinear" sourceid="7" destid="6" sourceattachpoint="18" destattachpoint="10" segmenteditmode="0" bendpointeditmode="0" bendpointvisibility="0" relatedid="0" virtual="0">
              <point x="6083" y="1362" />
              <point x="5683" y="1362" />
              <point x="5683" y="914" />
              <point x="5283" y="914" />
              <point x="5283" y="1314" />
              <point x="6644" y="1314" />
            </connector>
          </ddscontrol>
          <ddscontrol controlprogid="DdsShapes.DdsObjectManagedBridge.3" tooltip="DimEnginePowerKWPark" left="17220" top="1574" logicalid="46" controlid="9" masterid="0" hint1="0" hint2="0" width="4921" height="3149" noresize="0" nomove="0" nodefaultattachpoints="0" autodrag="1" usedefaultiddshape="1" selectable="1" showselectionhandles="1" allownudging="1" isannotation="0" dontautolayout="0" groupcollapsed="0" tabstop="1" visible="1" snaptogrid="0">
            <control>
              <ddsxmlobjectstreaminitwrapper binary="00080000391300004d0c0000" />
            </control>
            <layoutobject>
              <ddsxmlobj>
                <property name="LogicalObject" value="dbo_DimEnginePowerKWPark" vartype="8" />
              </ddsxmlobj>
            </layoutobject>
            <shape groupshapeid="0" groupnode="0" />
          </ddscontrol>
          <ddscontrol controlprogid="DdsShapes.DdsObjectManagedBridge.3" tooltip="DimEnginePowerHPark" left="16387" top="1574" logicalid="47" controlid="10" masterid="0" hint1="0" hint2="0" width="4683" height="3149" noresize="0" nomove="0" nodefaultattachpoints="0" autodrag="1" usedefaultiddshape="1" selectable="1" showselectionhandles="1" allownudging="1" isannotation="0" dontautolayout="0" groupcollapsed="0" tabstop="1" visible="1" snaptogrid="0">
            <control>
              <ddsxmlobjectstreaminitwrapper binary="000800004b1200004d0c0000" />
            </control>
            <layoutobject>
              <ddsxmlobj>
                <property name="LogicalObject" value="dbo_DimEnginePowerHPark" vartype="8" />
              </ddsxmlobj>
            </layoutobject>
            <shape groupshapeid="0" groupnode="0" />
          </ddscontrol>
          <ddscontrol controlprogid="DdsShapes.DdsObjectManagedBridge.3" tooltip="DimEngineCapacityPark" left="16849" top="1574" logicalid="48" controlid="11" masterid="0" hint1="0" hint2="0" width="4815" height="3149" noresize="0" nomove="0" nodefaultattachpoints="0" autodrag="1" usedefaultiddshape="1" selectable="1" showselectionhandles="1" allownudging="1" isannotation="0" dontautolayout="0" groupcollapsed="0" tabstop="1" visible="1" snaptogrid="0">
            <control>
              <ddsxmlobjectstreaminitwrapper binary="00080000cf1200004d0c0000" />
            </control>
            <layoutobject>
              <ddsxmlobj>
                <property name="LogicalObject" value="dbo_DimEngineCapacityPark" vartype="8" />
              </ddsxmlobj>
            </layoutobject>
            <shape groupshapeid="0" groupnode="0" />
          </ddscontrol>
          <ddscontrol controlprogid="DdsShapes.DdsObjectManagedBridge.3" tooltip="DimGrossVehicleWeightPark" left="3466" top="14166" logicalid="49" controlid="12" masterid="0" hint1="0" hint2="0" width="3466" height="3149" noresize="0" nomove="0" nodefaultattachpoints="0" autodrag="1" usedefaultiddshape="1" selectable="1" showselectionhandles="1" allownudging="1" isannotation="0" dontautolayout="0" groupcollapsed="0" tabstop="1" visible="1" snaptogrid="0">
            <control>
              <ddsxmlobjectstreaminitwrapper binary="000800008a0d00004d0c0000" />
            </control>
            <layoutobject>
              <ddsxmlobj>
                <property name="LogicalObject" value="dbo_DimGrossVehicleWeightPark" vartype="8" />
              </ddsxmlobj>
            </layoutobject>
            <shape groupshapeid="0" groupnode="0" />
          </ddscontrol>
          <ddscontrol controlprogid="DdsShapes.DdsObjectManagedBridge.3" tooltip="DimModel" left="0" top="5125" logicalid="50" controlid="13" masterid="0" hint1="0" hint2="0" width="4366" height="5000" noresize="0" nomove="0" nodefaultattachpoints="0" autodrag="1" usedefaultiddshape="1" selectable="1" showselectionhandles="1" allownudging="1" isannotation="0" dontautolayout="0" groupcollapsed="0" tabstop="1" visible="1" snaptogrid="0">
            <control>
              <ddsxmlobjectstreaminitwrapper binary="000800000e11000088130000" />
            </control>
            <layoutobject>
              <ddsxmlobj>
                <property name="LogicalObject" value="dbo_DimModel" vartype="8" />
              </ddsxmlobj>
            </layoutobject>
            <shape groupshapeid="0" groupnode="0" />
          </ddscontrol>
          <ddscontrol controlprogid="MSDDS.Polyline" left="4066" top="3115" logicalid="51" controlid="14" masterid="0" hint1="0" hint2="0" width="2878" height="2610" noresize="0" nomove="0" nodefaultattachpoints="1" autodrag="0" usedefaultiddshape="0" selectable="1" showselectionhandles="0" allownudging="1" isannotation="0" dontautolayout="0" groupcollapsed="0" tabstop="1" visible="1" snaptogrid="0">
            <control>
              <ddsxmlobj>
                <polyline endtypedst="6" endtypesrc="3" usercolor="0" linestyle="0" linerender="1" customendtypedstid="0" customendtypesrcid="0" adornsvisible="1" />
              </ddsxmlobj>
            </control>
            <layoutobject>
              <ddsxmlobj>
                <property name="LogicalObject" value="dataSet.Relations[FK_DimModel_DimCountryBrand]" vartype="8" />
                <property name="Virtual" value="0" vartype="11" />
                <property name="VisibleAP" value="0" vartype="3" />
              </ddsxmlobj>
            </layoutobject>
            <connector lineroutestyle="MSDDS.Rectilinear" sourceid="6" destid="13" sourceattachpoint="18" destattachpoint="15" segmenteditmode="0" bendpointeditmode="0" bendpointvisibility="0" relatedid="0" virtual="0">
              <point x="6644" y="3514" />
              <point x="5505" y="3514" />
              <point x="5505" y="5425" />
              <point x="4366" y="5425" />
            </connector>
          </ddscontrol>
          <ddscontrol controlprogid="DdsShapes.DdsObjectManagedBridge.3" tooltip="DimSteeringWheel" left="16485" top="2724" logicalid="52" controlid="15" masterid="0" hint1="0" hint2="0" width="4710" height="2725" noresize="0" nomove="0" nodefaultattachpoints="0" autodrag="1" usedefaultiddshape="1" selectable="1" showselectionhandles="1" allownudging="1" isannotation="0" dontautolayout="0" groupcollapsed="0" tabstop="1" visible="1" snaptogrid="0">
            <control>
              <ddsxmlobjectstreaminitwrapper binary="0008000066120000a50a0000" />
            </control>
            <layoutobject>
              <ddsxmlobj>
                <property name="LogicalObject" value="dbo_DimSteeringWheel" vartype="8" />
              </ddsxmlobj>
            </layoutobject>
            <shape groupshapeid="0" groupnode="0" />
          </ddscontrol>
          <ddscontrol controlprogid="DdsShapes.DdsObjectManagedBridge.3" tooltip="DimCurbVehicleWeightPark" left="5625" top="5538" logicalid="53" controlid="16" masterid="0" hint1="0" hint2="0" width="3466" height="3149" noresize="0" nomove="0" nodefaultattachpoints="0" autodrag="1" usedefaultiddshape="1" selectable="1" showselectionhandles="1" allownudging="1" isannotation="0" dontautolayout="0" groupcollapsed="0" tabstop="1" visible="1" snaptogrid="0">
            <control>
              <ddsxmlobjectstreaminitwrapper binary="000800008a0d00004d0c0000" />
            </control>
            <layoutobject>
              <ddsxmlobj>
                <property name="LogicalObject" value="dbo_DimCurbVehicleWeightPark" vartype="8" />
              </ddsxmlobj>
            </layoutobject>
            <shape groupshapeid="0" groupnode="0" />
          </ddscontrol>
          <ddscontrol controlprogid="DdsShapes.DdsObjectManagedBridge.3" tooltip="DimOwnerType" left="15183" top="2724" logicalid="54" controlid="17" masterid="0" hint1="0" hint2="0" width="4339" height="2725" noresize="0" nomove="0" nodefaultattachpoints="0" autodrag="1" usedefaultiddshape="1" selectable="1" showselectionhandles="1" allownudging="1" isannotation="0" dontautolayout="0" groupcollapsed="0" tabstop="1" visible="1" snaptogrid="0">
            <control>
              <ddsxmlobjectstreaminitwrapper binary="00080000f3100000a50a0000" />
            </control>
            <layoutobject>
              <ddsxmlobj>
                <property name="LogicalObject" value="dbo_DimOwnerType" vartype="8" />
              </ddsxmlobj>
            </layoutobject>
            <shape groupshapeid="0" groupnode="0" />
          </ddscontrol>
          <ddscontrol controlprogid="DdsShapes.DdsObjectManagedBridge.3" tooltip="DimBodyType" left="16512" top="6810" logicalid="55" controlid="18" masterid="0" hint1="0" hint2="0" width="4128" height="2725" noresize="0" nomove="0" nodefaultattachpoints="0" autodrag="1" usedefaultiddshape="1" selectable="1" showselectionhandles="1" allownudging="1" isannotation="0" dontautolayout="0" groupcollapsed="0" tabstop="1" visible="1" snaptogrid="0">
            <control>
              <ddsxmlobjectstreaminitwrapper binary="0008000020100000a50a0000" />
            </control>
            <layoutobject>
              <ddsxmlobj>
                <property name="LogicalObject" value="dbo_DimBodyType" vartype="8" />
              </ddsxmlobj>
            </layoutobject>
            <shape groupshapeid="0" groupnode="0" />
          </ddscontrol>
          <ddscontrol controlprogid="DdsShapes.DdsObjectManagedBridge.3" tooltip="DimFuelType" left="16088" top="6810" logicalid="56" controlid="19" masterid="0" hint1="0" hint2="0" width="4022" height="2725" noresize="0" nomove="0" nodefaultattachpoints="0" autodrag="1" usedefaultiddshape="1" selectable="1" showselectionhandles="1" allownudging="1" isannotation="0" dontautolayout="0" groupcollapsed="0" tabstop="1" visible="1" snaptogrid="0">
            <control>
              <ddsxmlobjectstreaminitwrapper binary="00080000b60f0000a50a0000" />
            </control>
            <layoutobject>
              <ddsxmlobj>
                <property name="LogicalObject" value="dbo_DimFuelType" vartype="8" />
              </ddsxmlobj>
            </layoutobject>
            <shape groupshapeid="0" groupnode="0" />
          </ddscontrol>
          <ddscontrol controlprogid="DdsShapes.DdsObjectManagedBridge.3" tooltip="vSlicePark" left="0" top="0" logicalid="57" controlid="20" masterid="0" hint1="0" hint2="0" width="4260" height="5000" noresize="0" nomove="0" nodefaultattachpoints="0" autodrag="1" usedefaultiddshape="1" selectable="1" showselectionhandles="1" allownudging="1" isannotation="0" dontautolayout="0" groupcollapsed="0" tabstop="1" visible="1" snaptogrid="0">
            <control>
              <ddsxmlobjectstreaminitwrapper binary="00080000a410000088130000" />
            </control>
            <layoutobject>
              <ddsxmlobj>
                <property name="LogicalObject" value="dbo_vSlicePark" vartype="8" />
              </ddsxmlobj>
            </layoutobject>
            <shape groupshapeid="0" groupnode="0" />
          </ddscontrol>
          <ddscontrol controlprogid="DdsShapes.DdsObjectManagedBridge.3" tooltip="vFactPark_PC_LCV_012014" left="0" top="0" logicalid="58" controlid="21" masterid="0" hint1="0" hint2="0" width="3731" height="5000" noresize="0" nomove="0" nodefaultattachpoints="0" autodrag="1" usedefaultiddshape="1" selectable="1" showselectionhandles="1" allownudging="1" isannotation="0" dontautolayout="0" groupcollapsed="0" tabstop="1" visible="1" snaptogrid="0">
            <control>
              <ddsxmlobjectstreaminitwrapper binary="00080000930e000088130000" />
            </control>
            <layoutobject>
              <ddsxmlobj>
                <property name="LogicalObject" value="dbo_vFactPark_PC_LCV_012014" vartype="8" />
              </ddsxmlobj>
            </layoutobject>
            <shape groupshapeid="0" groupnode="0" />
          </ddscontrol>
          <ddscontrol controlprogid="MSDDS.Polyline" left="3431" top="1100" logicalid="59" controlid="22" masterid="0" hint1="0" hint2="0" width="13381" height="6372" noresize="0" nomove="0" nodefaultattachpoints="1" autodrag="0" usedefaultiddshape="0" selectable="1" showselectionhandles="0" allownudging="1" isannotation="0" dontautolayout="0" groupcollapsed="0" tabstop="1" visible="1" snaptogrid="0">
            <control>
              <ddsxmlobj>
                <polyline endtypedst="6" endtypesrc="3" usercolor="0" linestyle="0" linerender="1" customendtypedstid="0" customendtypesrcid="0" adornsvisible="1" />
              </ddsxmlobj>
            </control>
            <layoutobject>
              <ddsxmlobj>
                <property name="LogicalObject" value="dataSet.Relations[vFactPark_PC_LCV_012014-DimBodyType]" vartype="8" />
                <property name="Virtual" value="0" vartype="11" />
                <property name="VisibleAP" value="0" vartype="3" />
              </ddsxmlobj>
            </layoutobject>
            <connector lineroutestyle="MSDDS.Rectilinear" sourceid="18" destid="21" sourceattachpoint="14" destattachpoint="19" segmenteditmode="0" bendpointeditmode="0" bendpointvisibility="0" relatedid="0" virtual="0">
              <point x="16512" y="7072" />
              <point x="10122" y="7072" />
              <point x="10122" y="1400" />
              <point x="3731" y="1400" />
            </connector>
          </ddscontrol>
          <ddscontrol controlprogid="MSDDS.Polyline" left="-700" top="0" logicalid="60" controlid="23" masterid="0" hint1="0" hint2="0" width="7644" height="1714" noresize="0" nomove="0" nodefaultattachpoints="1" autodrag="0" usedefaultiddshape="0" selectable="1" showselectionhandles="0" allownudging="1" isannotation="0" dontautolayout="0" groupcollapsed="0" tabstop="1" visible="1" snaptogrid="0">
            <control>
              <ddsxmlobj>
                <polyline endtypedst="6" endtypesrc="3" usercolor="0" linestyle="0" linerender="1" customendtypedstid="0" customendtypesrcid="0" adornsvisible="1" />
              </ddsxmlobj>
            </control>
            <layoutobject>
              <ddsxmlobj>
                <property name="LogicalObject" value="dataSet.Relations[vFactPark_PC_LCV_012014-DimCountry]" vartype="8" />
                <property name="Virtual" value="0" vartype="11" />
                <property name="VisibleAP" value="0" vartype="3" />
              </ddsxmlobj>
            </layoutobject>
            <connector lineroutestyle="MSDDS.Rectilinear" sourceid="6" destid="21" sourceattachpoint="10" destattachpoint="14" segmenteditmode="0" bendpointeditmode="0" bendpointvisibility="0" relatedid="0" virtual="0">
              <point x="6644" y="1314" />
              <point x="283" y="1314" />
              <point x="283" y="700" />
              <point x="-400" y="700" />
              <point x="-400" y="300" />
              <point x="0" y="300" />
            </connector>
          </ddscontrol>
          <ddscontrol controlprogid="MSDDS.Polyline" left="2051" top="4700" logicalid="61" controlid="24" masterid="0" hint1="0" hint2="0" width="799" height="6696" noresize="0" nomove="0" nodefaultattachpoints="1" autodrag="0" usedefaultiddshape="0" selectable="1" showselectionhandles="0" allownudging="1" isannotation="0" dontautolayout="0" groupcollapsed="0" tabstop="1" visible="1" snaptogrid="0">
            <control>
              <ddsxmlobj>
                <polyline endtypedst="6" endtypesrc="3" usercolor="0" linestyle="0" linerender="1" customendtypedstid="0" customendtypesrcid="0" adornsvisible="1" />
              </ddsxmlobj>
            </control>
            <layoutobject>
              <ddsxmlobj>
                <property name="LogicalObject" value="dataSet.Relations[vFactPark_PC_LCV_012014-DimEuroClass]" vartype="8" />
                <property name="Virtual" value="0" vartype="11" />
                <property name="VisibleAP" value="0" vartype="3" />
              </ddsxmlobj>
            </layoutobject>
            <connector lineroutestyle="MSDDS.Rectilinear" sourceid="4" destid="21" sourceattachpoint="0" destattachpoint="9" segmenteditmode="0" bendpointeditmode="0" bendpointvisibility="0" relatedid="0" virtual="0">
              <point x="2450" y="10896" />
              <point x="2450" y="7948" />
              <point x="2415" y="7948" />
              <point x="2415" y="5000" />
            </connector>
          </ddscontrol>
          <ddscontrol controlprogid="MSDDS.Polyline" left="3431" top="1650" logicalid="62" controlid="25" masterid="0" hint1="0" hint2="0" width="12957" height="5822" noresize="0" nomove="0" nodefaultattachpoints="1" autodrag="0" usedefaultiddshape="0" selectable="1" showselectionhandles="0" allownudging="1" isannotation="0" dontautolayout="0" groupcollapsed="0" tabstop="1" visible="1" snaptogrid="0">
            <control>
              <ddsxmlobj>
                <polyline endtypedst="6" endtypesrc="3" usercolor="0" linestyle="0" linerender="1" customendtypedstid="0" customendtypesrcid="0" adornsvisible="1" />
              </ddsxmlobj>
            </control>
            <layoutobject>
              <ddsxmlobj>
                <property name="LogicalObject" value="dataSet.Relations[vFactPark_PC_LCV_012014-DimFuelType]" vartype="8" />
                <property name="Virtual" value="0" vartype="11" />
                <property name="VisibleAP" value="0" vartype="3" />
              </ddsxmlobj>
            </layoutobject>
            <connector lineroutestyle="MSDDS.Rectilinear" sourceid="19" destid="21" sourceattachpoint="14" destattachpoint="21" segmenteditmode="0" bendpointeditmode="0" bendpointvisibility="0" relatedid="0" virtual="0">
              <point x="16088" y="7072" />
              <point x="9910" y="7072" />
              <point x="9910" y="1950" />
              <point x="3731" y="1950" />
            </connector>
          </ddscontrol>
          <ddscontrol controlprogid="MSDDS.Polyline" left="3431" top="3300" logicalid="63" controlid="26" masterid="0" hint1="0" hint2="0" width="3957" height="4900" noresize="0" nomove="0" nodefaultattachpoints="1" autodrag="0" usedefaultiddshape="0" selectable="1" showselectionhandles="0" allownudging="1" isannotation="0" dontautolayout="0" groupcollapsed="0" tabstop="1" visible="1" snaptogrid="0">
            <control>
              <ddsxmlobj>
                <polyline endtypedst="6" endtypesrc="3" usercolor="0" linestyle="0" linerender="1" customendtypedstid="0" customendtypesrcid="0" adornsvisible="1" />
              </ddsxmlobj>
            </control>
            <layoutobject>
              <ddsxmlobj>
                <property name="LogicalObject" value="dataSet.Relations[vFactPark_PC_LCV_012014-DimGeography]" vartype="8" />
                <property name="Virtual" value="0" vartype="11" />
                <property name="VisibleAP" value="0" vartype="3" />
              </ddsxmlobj>
            </layoutobject>
            <connector lineroutestyle="MSDDS.Rectilinear" sourceid="1" destid="21" sourceattachpoint="14" destattachpoint="27" segmenteditmode="0" bendpointeditmode="0" bendpointvisibility="0" relatedid="0" virtual="0">
              <point x="7088" y="7800" />
              <point x="5410" y="7800" />
              <point x="5410" y="3600" />
              <point x="3731" y="3600" />
            </connector>
          </ddscontrol>
          <ddscontrol controlprogid="MSDDS.Polyline" left="3431" top="2200" logicalid="64" controlid="27" masterid="0" hint1="0" hint2="0" width="12052" height="1186" noresize="0" nomove="0" nodefaultattachpoints="1" autodrag="0" usedefaultiddshape="0" selectable="1" showselectionhandles="0" allownudging="1" isannotation="0" dontautolayout="0" groupcollapsed="0" tabstop="1" visible="1" snaptogrid="0">
            <control>
              <ddsxmlobj>
                <polyline endtypedst="6" endtypesrc="3" usercolor="0" linestyle="0" linerender="1" customendtypedstid="0" customendtypesrcid="0" adornsvisible="1" />
              </ddsxmlobj>
            </control>
            <layoutobject>
              <ddsxmlobj>
                <property name="LogicalObject" value="dataSet.Relations[vFactPark_PC_LCV_012014-DimOwnerType]" vartype="8" />
                <property name="Virtual" value="0" vartype="11" />
                <property name="VisibleAP" value="0" vartype="3" />
              </ddsxmlobj>
            </layoutobject>
            <connector lineroutestyle="MSDDS.Rectilinear" sourceid="17" destid="21" sourceattachpoint="14" destattachpoint="23" segmenteditmode="0" bendpointeditmode="0" bendpointvisibility="0" relatedid="0" virtual="0">
              <point x="15183" y="2986" />
              <point x="9457" y="2986" />
              <point x="9457" y="2500" />
              <point x="3731" y="2500" />
            </connector>
          </ddscontrol>
          <ddscontrol controlprogid="MSDDS.Polyline" left="2235" top="4400" logicalid="65" controlid="28" masterid="0" hint1="0" hint2="0" width="1796" height="3747" noresize="0" nomove="0" nodefaultattachpoints="1" autodrag="0" usedefaultiddshape="0" selectable="1" showselectionhandles="0" allownudging="1" isannotation="0" dontautolayout="0" groupcollapsed="0" tabstop="1" visible="1" snaptogrid="0">
            <control>
              <ddsxmlobj>
                <polyline endtypedst="6" endtypesrc="3" usercolor="0" linestyle="0" linerender="1" customendtypedstid="0" customendtypesrcid="0" adornsvisible="1" />
              </ddsxmlobj>
            </control>
            <layoutobject>
              <ddsxmlobj>
                <property name="LogicalObject" value="dataSet.Relations[vFactPark_PC_LCV_012014-DimProdYear]" vartype="8" />
                <property name="Virtual" value="0" vartype="11" />
                <property name="VisibleAP" value="0" vartype="3" />
              </ddsxmlobj>
            </layoutobject>
            <connector lineroutestyle="MSDDS.Rectilinear" sourceid="2" destid="21" sourceattachpoint="14" destattachpoint="31" segmenteditmode="0" bendpointeditmode="0" bendpointvisibility="0" relatedid="0" virtual="0">
              <point x="2935" y="7747" />
              <point x="2535" y="7747" />
              <point x="2535" y="4700" />
              <point x="3731" y="4700" />
            </connector>
          </ddscontrol>
          <ddscontrol controlprogid="MSDDS.Polyline" left="3381" top="-700" logicalid="66" controlid="29" masterid="0" hint1="0" hint2="0" width="1050" height="1300" noresize="0" nomove="0" nodefaultattachpoints="1" autodrag="0" usedefaultiddshape="0" selectable="1" showselectionhandles="0" allownudging="1" isannotation="0" dontautolayout="0" groupcollapsed="0" tabstop="1" visible="1" snaptogrid="0">
            <control>
              <ddsxmlobj>
                <polyline endtypedst="6" endtypesrc="3" usercolor="0" linestyle="0" linerender="1" customendtypedstid="0" customendtypesrcid="0" adornsvisible="1" />
              </ddsxmlobj>
            </control>
            <layoutobject>
              <ddsxmlobj>
                <property name="LogicalObject" value="dataSet.Relations[vFactPark_PC_LCV_012014-vSlicePark]" vartype="8" />
                <property name="Virtual" value="0" vartype="11" />
                <property name="VisibleAP" value="0" vartype="3" />
              </ddsxmlobj>
            </layoutobject>
            <connector lineroutestyle="MSDDS.Rectilinear" sourceid="20" destid="21" sourceattachpoint="12" destattachpoint="15" segmenteditmode="0" bendpointeditmode="0" bendpointvisibility="0" relatedid="0" virtual="0">
              <point x="3780" y="0" />
              <point x="3780" y="-400" />
              <point x="4131" y="-400" />
              <point x="4131" y="300" />
              <point x="3731" y="300" />
            </connector>
          </ddscontrol>
          <ddscontrol controlprogid="MSDDS.Polyline" left="3431" top="550" logicalid="67" controlid="30" masterid="0" hint1="0" hint2="0" width="13354" height="2836" noresize="0" nomove="0" nodefaultattachpoints="1" autodrag="0" usedefaultiddshape="0" selectable="1" showselectionhandles="0" allownudging="1" isannotation="0" dontautolayout="0" groupcollapsed="0" tabstop="1" visible="1" snaptogrid="0">
            <control>
              <ddsxmlobj>
                <polyline endtypedst="6" endtypesrc="3" usercolor="0" linestyle="0" linerender="1" customendtypedstid="0" customendtypesrcid="0" adornsvisible="1" />
              </ddsxmlobj>
            </control>
            <layoutobject>
              <ddsxmlobj>
                <property name="LogicalObject" value="dataSet.Relations[vFactPark_PC_LCV_012014-DimSteeringWheel]" vartype="8" />
                <property name="Virtual" value="0" vartype="11" />
                <property name="VisibleAP" value="0" vartype="3" />
              </ddsxmlobj>
            </layoutobject>
            <connector lineroutestyle="MSDDS.Rectilinear" sourceid="15" destid="21" sourceattachpoint="18" destattachpoint="17" segmenteditmode="0" bendpointeditmode="0" bendpointvisibility="0" relatedid="0" virtual="0">
              <point x="16485" y="2986" />
              <point x="10108" y="2986" />
              <point x="10108" y="850" />
              <point x="3731" y="850" />
            </connector>
          </ddscontrol>
          <ddscontrol controlprogid="MSDDS.Polyline" left="3431" top="2750" logicalid="68" controlid="31" masterid="0" hint1="0" hint2="0" width="7264" height="2331" noresize="0" nomove="0" nodefaultattachpoints="1" autodrag="0" usedefaultiddshape="0" selectable="1" showselectionhandles="0" allownudging="1" isannotation="0" dontautolayout="0" groupcollapsed="0" tabstop="1" visible="1" snaptogrid="0">
            <control>
              <ddsxmlobj>
                <polyline endtypedst="6" endtypesrc="3" usercolor="0" linestyle="0" linerender="1" customendtypedstid="0" customendtypesrcid="0" adornsvisible="1" />
              </ddsxmlobj>
            </control>
            <layoutobject>
              <ddsxmlobj>
                <property name="LogicalObject" value="dataSet.Relations[vFactPark_PC_LCV_012014-vUpdatingDatePark]" vartype="8" />
                <property name="Virtual" value="0" vartype="11" />
                <property name="VisibleAP" value="0" vartype="3" />
              </ddsxmlobj>
            </layoutobject>
            <connector lineroutestyle="MSDDS.Rectilinear" sourceid="3" destid="21" sourceattachpoint="14" destattachpoint="25" segmenteditmode="0" bendpointeditmode="0" bendpointvisibility="0" relatedid="0" virtual="0">
              <point x="10395" y="4681" />
              <point x="7191" y="4681" />
              <point x="7191" y="3050" />
              <point x="3731" y="3050" />
            </connector>
          </ddscontrol>
          <ddscontrol controlprogid="MSDDS.Polyline" left="3431" top="3850" logicalid="69" controlid="32" masterid="0" hint1="0" hint2="0" width="2494" height="2562" noresize="0" nomove="0" nodefaultattachpoints="1" autodrag="0" usedefaultiddshape="0" selectable="1" showselectionhandles="0" allownudging="1" isannotation="0" dontautolayout="0" groupcollapsed="0" tabstop="1" visible="1" snaptogrid="0">
            <control>
              <ddsxmlobj>
                <polyline endtypedst="6" endtypesrc="3" usercolor="0" linestyle="0" linerender="1" customendtypedstid="0" customendtypesrcid="0" adornsvisible="1" />
              </ddsxmlobj>
            </control>
            <layoutobject>
              <ddsxmlobj>
                <property name="LogicalObject" value="dataSet.Relations[vFactPark_PC_LCV_012014-DimCurbVehicleWeightPark]" vartype="8" />
                <property name="Virtual" value="0" vartype="11" />
                <property name="VisibleAP" value="0" vartype="3" />
              </ddsxmlobj>
            </layoutobject>
            <connector lineroutestyle="MSDDS.Rectilinear" sourceid="16" destid="21" sourceattachpoint="10" destattachpoint="29" segmenteditmode="0" bendpointeditmode="0" bendpointvisibility="0" relatedid="0" virtual="0">
              <point x="5625" y="6012" />
              <point x="5225" y="6012" />
              <point x="5225" y="4150" />
              <point x="3731" y="4150" />
            </connector>
          </ddscontrol>
          <ddscontrol controlprogid="MSDDS.Polyline" left="3431" top="1649" logicalid="70" controlid="33" masterid="0" hint1="0" hint2="0" width="13718" height="799" noresize="0" nomove="0" nodefaultattachpoints="1" autodrag="0" usedefaultiddshape="0" selectable="1" showselectionhandles="0" allownudging="1" isannotation="0" dontautolayout="0" groupcollapsed="0" tabstop="1" visible="1" snaptogrid="0">
            <control>
              <ddsxmlobj>
                <polyline endtypedst="6" endtypesrc="3" usercolor="0" linestyle="0" linerender="1" customendtypedstid="0" customendtypesrcid="0" adornsvisible="1" />
              </ddsxmlobj>
            </control>
            <layoutobject>
              <ddsxmlobj>
                <property name="LogicalObject" value="dataSet.Relations[vFactPark_PC_LCV_012014-DimEngineCapacityPark]" vartype="8" />
                <property name="Virtual" value="0" vartype="11" />
                <property name="VisibleAP" value="0" vartype="3" />
              </ddsxmlobj>
            </layoutobject>
            <connector lineroutestyle="MSDDS.Rectilinear" sourceid="11" destid="21" sourceattachpoint="18" destattachpoint="21" segmenteditmode="0" bendpointeditmode="0" bendpointvisibility="0" relatedid="0" virtual="0">
              <point x="16849" y="2048" />
              <point x="10290" y="2048" />
              <point x="10290" y="1950" />
              <point x="3731" y="1950" />
            </connector>
          </ddscontrol>
          <ddscontrol controlprogid="MSDDS.Polyline" left="3431" top="1649" logicalid="71" controlid="34" masterid="0" hint1="0" hint2="0" width="13256" height="799" noresize="0" nomove="0" nodefaultattachpoints="1" autodrag="0" usedefaultiddshape="0" selectable="1" showselectionhandles="0" allownudging="1" isannotation="0" dontautolayout="0" groupcollapsed="0" tabstop="1" visible="1" snaptogrid="0">
            <control>
              <ddsxmlobj>
                <polyline endtypedst="6" endtypesrc="3" usercolor="0" linestyle="0" linerender="1" customendtypedstid="0" customendtypesrcid="0" adornsvisible="1" />
              </ddsxmlobj>
            </control>
            <layoutobject>
              <ddsxmlobj>
                <property name="LogicalObject" value="dataSet.Relations[vFactPark_PC_LCV_012014-DimEnginePowerHPark]" vartype="8" />
                <property name="Virtual" value="0" vartype="11" />
                <property name="VisibleAP" value="0" vartype="3" />
              </ddsxmlobj>
            </layoutobject>
            <connector lineroutestyle="MSDDS.Rectilinear" sourceid="10" destid="21" sourceattachpoint="18" destattachpoint="21" segmenteditmode="0" bendpointeditmode="0" bendpointvisibility="0" relatedid="0" virtual="0">
              <point x="16387" y="2048" />
              <point x="10059" y="2048" />
              <point x="10059" y="1950" />
              <point x="3731" y="1950" />
            </connector>
          </ddscontrol>
          <ddscontrol controlprogid="MSDDS.Polyline" left="3431" top="1649" logicalid="72" controlid="35" masterid="0" hint1="0" hint2="0" width="14089" height="799" noresize="0" nomove="0" nodefaultattachpoints="1" autodrag="0" usedefaultiddshape="0" selectable="1" showselectionhandles="0" allownudging="1" isannotation="0" dontautolayout="0" groupcollapsed="0" tabstop="1" visible="1" snaptogrid="0">
            <control>
              <ddsxmlobj>
                <polyline endtypedst="6" endtypesrc="3" usercolor="0" linestyle="0" linerender="1" customendtypedstid="0" customendtypesrcid="0" adornsvisible="1" />
              </ddsxmlobj>
            </control>
            <layoutobject>
              <ddsxmlobj>
                <property name="LogicalObject" value="dataSet.Relations[vFactPark_PC_LCV_012014-DimEnginePowerKWPark]" vartype="8" />
                <property name="Virtual" value="0" vartype="11" />
                <property name="VisibleAP" value="0" vartype="3" />
              </ddsxmlobj>
            </layoutobject>
            <connector lineroutestyle="MSDDS.Rectilinear" sourceid="9" destid="21" sourceattachpoint="18" destattachpoint="21" segmenteditmode="0" bendpointeditmode="0" bendpointvisibility="0" relatedid="0" virtual="0">
              <point x="17220" y="2048" />
              <point x="10476" y="2048" />
              <point x="10476" y="1950" />
              <point x="3731" y="1950" />
            </connector>
          </ddscontrol>
          <ddscontrol controlprogid="MSDDS.Polyline" left="3215" top="4700" logicalid="73" controlid="36" masterid="0" hint1="0" hint2="0" width="1284" height="9966" noresize="0" nomove="0" nodefaultattachpoints="1" autodrag="0" usedefaultiddshape="0" selectable="1" showselectionhandles="0" allownudging="1" isannotation="0" dontautolayout="0" groupcollapsed="0" tabstop="1" visible="1" snaptogrid="0">
            <control>
              <ddsxmlobj>
                <polyline endtypedst="6" endtypesrc="3" usercolor="0" linestyle="0" linerender="1" customendtypedstid="0" customendtypesrcid="0" adornsvisible="1" />
              </ddsxmlobj>
            </control>
            <layoutobject>
              <ddsxmlobj>
                <property name="LogicalObject" value="dataSet.Relations[vFactPark_PC_LCV_012014-DimGrossVehicleWeightPark]" vartype="8" />
                <property name="Virtual" value="0" vartype="11" />
                <property name="VisibleAP" value="0" vartype="3" />
              </ddsxmlobj>
            </layoutobject>
            <connector lineroutestyle="MSDDS.Rectilinear" sourceid="12" destid="21" sourceattachpoint="0" destattachpoint="13" segmenteditmode="0" bendpointeditmode="0" bendpointvisibility="0" relatedid="0" virtual="0">
              <point x="4099" y="14166" />
              <point x="4099" y="9583" />
              <point x="3515" y="9583" />
              <point x="3515" y="5000" />
            </connector>
          </ddscontrol>
          <ddscontrol controlprogid="MSDDS.Polyline" left="8845" top="3278" logicalid="74" controlid="37" masterid="0" hint1="0" hint2="0" width="2903" height="7022" noresize="0" nomove="0" nodefaultattachpoints="1" autodrag="0" usedefaultiddshape="0" selectable="1" showselectionhandles="0" allownudging="1" isannotation="0" dontautolayout="0" groupcollapsed="0" tabstop="1" visible="1" snaptogrid="0">
            <control>
              <ddsxmlobj>
                <polyline endtypedst="6" endtypesrc="3" usercolor="0" linestyle="0" linerender="1" customendtypedstid="0" customendtypesrcid="0" adornsvisible="1" />
              </ddsxmlobj>
            </control>
            <layoutobject>
              <ddsxmlobj>
                <property name="LogicalObject" value="dataSet.Relations[vDimModels_PC_LCV-DimCountry]" vartype="8" />
                <property name="Virtual" value="0" vartype="11" />
                <property name="VisibleAP" value="0" vartype="3" />
              </ddsxmlobj>
            </layoutobject>
            <connector lineroutestyle="MSDDS.Rectilinear" sourceid="6" destid="5" sourceattachpoint="9" destattachpoint="0" segmenteditmode="0" bendpointeditmode="0" bendpointvisibility="0" relatedid="0" virtual="0">
              <point x="9244" y="3777" />
              <point x="9244" y="6362" />
              <point x="11448" y="6362" />
              <point x="11448" y="10000" />
            </connector>
          </ddscontrol>
        </dds>
      </Value>
    </Annotation>
    <Annotation>
      <Name>http://schemas.microsoft.com/DataWarehouse/Designer/1.0:ShowFriendlyNames</Name>
      <Value>true</Value>
    </Annotation>
    <Annotation>
      <Name>http://schemas.microsoft.com/DataWarehouse/Designer/1.0:ShowRelationshipNames</Name>
      <Value>false</Value>
    </Annotation>
    <Annotation>
      <Name>http://schemas.microsoft.com/DataWarehouse/Designer/1.0:UseDiagramDefaultLayout</Name>
      <Value>true</Value>
    </Annotation>
    <Annotation>
      <Name>http://schemas.microsoft.com/DataWarehouse/Designer/1.0:DiagramViewPortLeft</Name>
      <Value>-4517</Value>
    </Annotation>
    <Annotation>
      <Name>http://schemas.microsoft.com/DataWarehouse/Designer/1.0:DiagramViewPortTop</Name>
      <Value>1116</Value>
    </Annotation>
    <Annotation>
      <Name>http://schemas.microsoft.com/DataWarehouse/Designer/1.0:DiagramBoundingLeft</Name>
      <Value>0</Value>
    </Annotation>
    <Annotation>
      <Name>http://schemas.microsoft.com/DataWarehouse/Designer/1.0:DiagramBoundingTop</Name>
      <Value>0</Value>
    </Annotation>
    <Annotation>
      <Name>http://schemas.microsoft.com/DataWarehouse/Designer/1.0:DiagramZoom</Name>
      <Value>83</Value>
    </Annotation>
  </Annotations>
  <LastProcessed>0001-01-01T00:00:00Z</LastProcessed>
  <State>Unprocessed</State>
  <Dimensions>
    <Dimension dwd:design-time-name="22d7a15e-cfb6-41b3-9deb-2d3f691e104c">
      <ID>Тип ТС PC LCV</ID>
      <Name>Тип ТС</Name>
      <Description>@gОсновныеg@
@tТип Транспортного средстваt@</Description>
      <DimensionID>Тип ТС PC LCV</DimensionID>
      <Attributes>
        <Attribute dwd:design-time-name="a4a22764-e721-4735-9f4d-227cde4748e3">
          <AttributeID>Model Key</AttributeID>
        </Attribute>
        <Attribute dwd:design-time-name="5012e104-4e65-469c-a1cf-b3d5f7d0ccda">
          <AttributeID>Type Vehicle Code</AttributeID>
        </Attribute>
      </Attributes>
    </Dimension>
    <Dimension dwd:design-time-name="03d424b2-c758-47ea-ba6d-001cf38f214c">
      <ID>Тип владельца</ID>
      <Name>Тип владельца</Name>
      <Description>@gОсновныеg@
@tТип владельцаt@</Description>
      <DimensionID>Тип владельца</DimensionID>
      <Attributes>
        <Attribute dwd:design-time-name="69409dd2-ad60-42d5-a799-846acc62ff04">
          <AttributeID>Owner Type Key</AttributeID>
        </Attribute>
      </Attributes>
    </Dimension>
    <Dimension dwd:design-time-name="bdcbb2db-f23c-4c7c-9a69-40ce9ba6e085">
      <ID>География</ID>
      <Name>География</Name>
      <Description>@gОсновныеg@
@tГеографияt@</Description>
      <DimensionID>География</DimensionID>
      <Attributes>
        <Attribute dwd:design-time-name="e003837d-bd77-4849-993c-91a8edf5c487">
          <AttributeID>Geography Key</AttributeID>
        </Attribute>
        <Attribute dwd:design-time-name="f691e5a5-d368-481b-ba1f-c9fa5f089ecf">
          <AttributeID>Area Ru Short Name</AttributeID>
        </Attribute>
        <Attribute dwd:design-time-name="aa64e347-d14d-403f-bf81-17bd25f7c4fe">
          <AttributeID>Region Ru</AttributeID>
        </Attribute>
        <Attribute dwd:design-time-name="123b930e-0c15-4f6b-be54-71bf87ea6733">
          <AttributeID>Province Ru</AttributeID>
        </Attribute>
        <Attribute dwd:design-time-name="c46571a9-7f45-4733-b96e-558d751d859b">
          <AttributeID>Ocato</AttributeID>
        </Attribute>
      </Attributes>
      <Hierarchies>
        <Hierarchy dwd:design-time-name="ce8131a3-e853-4c96-90d6-9f465b1436bf">
          <HierarchyID>Hierarchy 1</HierarchyID>
        </Hierarchy>
      </Hierarchies>
    </Dimension>
    <Dimension dwd:design-time-name="8fca1945-8d6d-41f1-b3f6-5ecade2cd22f">
      <ID>Срез парка</ID>
      <Name>Дата среза парка</Name>
      <Description>@gОсновныеg@
@tДата среза паркаt@</Description>
      <DimensionID>Срез парка</DimensionID>
      <Visible>false</Visible>
      <Attributes>
        <Attribute dwd:design-time-name="46e20a06-7ef0-450b-9260-39e5ac86f03f">
          <AttributeID>Park Date Key</AttributeID>
        </Attribute>
        <Attribute dwd:design-time-name="145517a8-17c4-4bac-9932-08c5d4bba1b2">
          <AttributeID>Calendar Year</AttributeID>
        </Attribute>
        <Attribute dwd:design-time-name="b8fba3da-a35b-436c-a2b7-e681c5cb97ef">
          <AttributeID>Month Of Year</AttributeID>
        </Attribute>
        <Attribute dwd:design-time-name="86225c2b-7c9d-49b8-ac37-427b32c7acd4">
          <AttributeID>Slice Date</AttributeID>
        </Attribute>
      </Attributes>
    </Dimension>
    <Dimension dwd:design-time-name="794e00ec-68e8-4246-91a1-b8e50d9e03b2">
      <ID>Дата обновления парка</ID>
      <Name>Дата обновления парка</Name>
      <Description>@gОсновныеg@</Description>
      <DimensionID>Дата обновления парка</DimensionID>
      <Visible>false</Visible>
      <Attributes>
        <Attribute dwd:design-time-name="4ac7f062-0971-4cc6-af9d-259de78a17e9">
          <AttributeID>Updating Date Key</AttributeID>
        </Attribute>
        <Attribute dwd:design-time-name="df192eb1-da6a-4c88-94f0-0fc1ced0b47e">
          <AttributeID>Updating Date</AttributeID>
        </Attribute>
      </Attributes>
    </Dimension>
    <Dimension dwd:design-time-name="f7c5cd20-821c-492f-a4af-34741dd249d9">
      <ID>Марка Модель PC LCV</ID>
      <Name>Марка Модель</Name>
      <Description>@gХарактеристики ТСg@
@tМарка Модельt@</Description>
      <DimensionID>Марка Модель PC LCV</DimensionID>
      <Attributes>
        <Attribute dwd:design-time-name="2e671ae5-9420-41f8-a9a9-1e73aed016c8">
          <AttributeID>Model Key</AttributeID>
        </Attribute>
        <Attribute dwd:design-time-name="b3609dab-d1e2-43c7-9bf5-8a5d4632c621">
          <AttributeID>Brand</AttributeID>
        </Attribute>
        <Attribute dwd:design-time-name="b1105711-55e5-4ff8-b67d-703959d9e33e">
          <AttributeID>Model</AttributeID>
        </Attribute>
        <Attribute dwd:design-time-name="fdf3de1c-9ff4-4276-8824-6d4d9f9a7551">
          <AttributeID>Brand Model</AttributeID>
        </Attribute>
      </Attributes>
      <Hierarchies>
        <Hierarchy dwd:design-time-name="1e90a3bb-246d-4a9e-9354-2e6bde3057a6">
          <HierarchyID>Hierarchy</HierarchyID>
        </Hierarchy>
      </Hierarchies>
    </Dimension>
    <Dimension dwd:design-time-name="56050805-922a-40b1-aadb-e6e299ba2ea8">
      <ID>Год выпуска</ID>
      <Name>Год выпуска</Name>
      <Description>@gХарактеристики ТСg@
@tГод выпускаt@</Description>
      <DimensionID>Год выпуска</DimensionID>
      <Attributes>
        <Attribute dwd:design-time-name="03b1265e-8eda-4a23-bb6f-95682349cbdb">
          <AttributeID>Prod Year Key</AttributeID>
        </Attribute>
        <Attribute dwd:design-time-name="e8f42f09-f52f-4831-908f-7002ef4b19cb">
          <AttributeID>Prod Year1987</AttributeID>
        </Attribute>
      </Attributes>
    </Dimension>
    <Dimension dwd:design-time-name="22ff8c34-0046-4833-a52b-74a937c84e89">
      <ID>Сегменты</ID>
      <Name>Сегмент</Name>
      <Description>@gХарактеристики ТСg@
@tСегментt@
</Description>
      <DimensionID>Сегменты</DimensionID>
      <Attributes>
        <Attribute dwd:design-time-name="aeed693a-b903-40a9-9285-29ca1f0d95e9">
          <AttributeID>Model Key</AttributeID>
        </Attribute>
        <Attribute dwd:design-time-name="51838f4a-5a00-4ccb-9490-aa418dbd48bd">
          <AttributeID>Segment Autostat</AttributeID>
        </Attribute>
        <Attribute dwd:design-time-name="7d7172d3-61ab-415d-95d6-67bc1c07d9f9">
          <AttributeID>Subsegment Autostat</AttributeID>
        </Attribute>
      </Attributes>
      <Hierarchies>
        <Hierarchy dwd:design-time-name="33b29773-9509-4c3a-879f-44b0cd2d756e">
          <HierarchyID>Hierarchy</HierarchyID>
        </Hierarchy>
      </Hierarchies>
    </Dimension>
    <Dimension dwd:design-time-name="aa368f0d-3f74-4d66-9ddf-051e06161159">
      <ID>Тип кузова</ID>
      <Name>Тип кузова</Name>
      <Description>@gХарактеристики ТСg@
@tТип кузоваt@</Description>
      <DimensionID>Тип кузова</DimensionID>
      <Attributes>
        <Attribute dwd:design-time-name="8dc430ea-eee3-4f76-8ec2-5a61468852c7">
          <AttributeID>Body Type Key</AttributeID>
        </Attribute>
      </Attributes>
    </Dimension>
    <Dimension dwd:design-time-name="f61df954-9f08-45c1-9e9a-242bc5af67a4">
      <ID>Тип топлива</ID>
      <Name>Тип топлива</Name>
      <Description>@gХарактеристики ТСg@
@tТип топливаt@</Description>
      <DimensionID>Тип топлива</DimensionID>
      <Attributes>
        <Attribute dwd:design-time-name="8b03d94e-2a59-4044-8d33-818edd5b3d6f">
          <AttributeID>Fuel Type Key</AttributeID>
        </Attribute>
      </Attributes>
    </Dimension>
    <Dimension dwd:design-time-name="6311181c-88bb-4081-9c76-f25fef1056ba">
      <ID>Еврокласс</ID>
      <Name>Еврокласс</Name>
      <Description>@gХарактеристики ТСg@
@tЕвроклассt@</Description>
      <DimensionID>Еврокласс</DimensionID>
      <Attributes>
        <Attribute dwd:design-time-name="dd5bbea2-1b49-4d5a-8285-9b4517f8e2e4">
          <AttributeID>Euro Class Key</AttributeID>
        </Attribute>
      </Attributes>
    </Dimension>
    <Dimension dwd:design-time-name="a98222ae-0440-49c1-8833-5aff6020d17f">
      <ID>Расположение руля</ID>
      <Name>Расположение руля</Name>
      <Description>@gХарактеристики ТСg@
@tРасположение руляt@</Description>
      <DimensionID>Тип расположения руля</DimensionID>
      <Attributes>
        <Attribute dwd:design-time-name="001ecbc3-6cb8-4be6-8e07-e0e03917f68d">
          <AttributeID>Steering Wheel Key</AttributeID>
        </Attribute>
        <Attribute dwd:design-time-name="91b52275-d30e-4c68-a8ec-dc00a1acc6c4">
          <AttributeID>Steering Wheel Ru</AttributeID>
        </Attribute>
      </Attributes>
    </Dimension>
    <Dimension dwd:design-time-name="56c4f478-4b6f-4cf5-ac97-62a349170a5b">
      <ID>Объем двигателя Парк</ID>
      <Name>Объем двигателя</Name>
      <Description>@gХарактеристики ТСg@
@tДиапазоны объемов двигателяt@</Description>
      <DimensionID>Объем двигателя Парк</DimensionID>
      <Attributes>
        <Attribute dwd:design-time-name="6d97d828-df36-42ec-a444-53a0737ecf2f">
          <AttributeID>Engine Capacity Key</AttributeID>
        </Attribute>
        <Attribute dwd:design-time-name="1228f038-cba1-4046-ab16-794128db8d48">
          <AttributeID>Engine Capacity Range Key</AttributeID>
        </Attribute>
      </Attributes>
    </Dimension>
    <Dimension dwd:design-time-name="48b2de9e-8890-46c3-8469-fb564723c7bd">
      <ID>Мощность двигателя лс Парк</ID>
      <Name>Мощность двигателя лс</Name>
      <Description>@gХарактеристики ТСg@
@tДиапазоны мощностей двигателя лсt@</Description>
      <DimensionID>Мощность двигателя лс Парк</DimensionID>
      <Attributes>
        <Attribute dwd:design-time-name="80de95a1-73dd-402b-8e7d-0f4047b75d1a">
          <AttributeID>Engine Power H Key</AttributeID>
        </Attribute>
        <Attribute dwd:design-time-name="9ed8f136-3452-4c54-9903-c91101d507a2">
          <AttributeID>Engine Power H Range Key</AttributeID>
        </Attribute>
      </Attributes>
    </Dimension>
    <Dimension dwd:design-time-name="7bb9e515-4a94-4f9c-be98-6ba324eb29a9">
      <ID>Мощность двигателя квт Парк</ID>
      <Name>Мощность двигателя квт</Name>
      <Description>@gХарактеристики ТСg@
@tДиапазоны мощностей двигателя квтt@</Description>
      <DimensionID>Мощность двигателя квт Парк</DimensionID>
      <Attributes>
        <Attribute dwd:design-time-name="6ce848c3-7c1e-426b-962f-ac7b950d7c8a">
          <AttributeID>Engine Power KW Key</AttributeID>
        </Attribute>
        <Attribute dwd:design-time-name="a9e607ec-c708-4dcd-b432-8a61344285a5">
          <AttributeID>Engine Power KW Range Key</AttributeID>
        </Attribute>
      </Attributes>
    </Dimension>
    <Dimension dwd:design-time-name="6f012293-dfed-4db2-adc6-b1631420fafd">
      <ID>Снаряженная масса Парк 1</ID>
      <Name>Снаряженная масса</Name>
      <Description>@gХарактеристики ТСg@
@tДиапазоны снаряженных массt@</Description>
      <DimensionID>Снаряженная масса Парк</DimensionID>
      <Attributes>
        <Attribute dwd:design-time-name="e183b414-277b-48a6-be8d-4367f29a9ccb">
          <AttributeID>CVW Key</AttributeID>
        </Attribute>
        <Attribute dwd:design-time-name="8fb9ddba-fbac-466b-96cf-1ba9100d54ef">
          <AttributeID>CVW Range Key</AttributeID>
        </Attribute>
      </Attributes>
    </Dimension>
    <Dimension dwd:design-time-name="17999bc1-43a1-4c39-aea1-16b6ee755c80">
      <ID>Полная масса Парк</ID>
      <Name>Полная масса</Name>
      <Description>@gХарактеристики ТСg@
@tДиапазоны полных массt@</Description>
      <DimensionID>Полная масса Парк</DimensionID>
      <Attributes>
        <Attribute dwd:design-time-name="f01d2b64-5bb5-45d7-85e0-52966e34233d">
          <AttributeID>GVW Key</AttributeID>
        </Attribute>
        <Attribute dwd:design-time-name="ed7bdf06-0b90-4a7d-a005-abba25a9eb8e">
          <AttributeID>GVW Range Key</AttributeID>
        </Attribute>
      </Attributes>
    </Dimension>
    <Dimension dwd:design-time-name="36dac2de-b28e-417a-a1a0-401b68db60b0">
      <ID>Место производства</ID>
      <Name>Место производства</Name>
      <Description>@gДополнительныеg@
@tМесто производстваt@</Description>
      <DimensionID>Производство</DimensionID>
      <Attributes>
        <Attribute dwd:design-time-name="c3b93a52-42f7-4485-81a7-fa6ca6e81564">
          <AttributeID>Country Key</AttributeID>
        </Attribute>
        <Attribute dwd:design-time-name="d9437868-ad09-49ba-be48-bb4cf37689a3">
          <AttributeID>Country Ru</AttributeID>
        </Attribute>
        <Attribute dwd:design-time-name="33fb21cf-dad7-4229-8d8b-126748d44ac2">
          <AttributeID>Origin Key</AttributeID>
        </Attribute>
      </Attributes>
    </Dimension>
    <Dimension dwd:design-time-name="e805f23f-b007-4ac9-836b-5e023229aa9a">
      <ID>Происхождение марки</ID>
      <Name>Происхождение марки</Name>
      <Description>@gДополнительныеg@
@tПроисхождение маркиt@</Description>
      <DimensionID>Местота</DimensionID>
      <Attributes>
        <Attribute dwd:design-time-name="7d1f485f-7066-4109-8d79-09949eddb50a">
          <AttributeID>Model Key</AttributeID>
        </Attribute>
        <Attribute dwd:design-time-name="cd57da7c-663f-4933-b9fd-c6e3bd50c7cf">
          <AttributeID>Country Key</AttributeID>
        </Attribute>
        <Attribute dwd:design-time-name="0cb5f400-73a0-47f6-8e81-8709d5e4ede0">
          <AttributeID>Origin Key</AttributeID>
        </Attribute>
      </Attributes>
    </Dimension>
  </Dimensions>
  <CubePermissions>
    <CubePermission dwd:design-time-name="ff95de6a-bfe1-4e19-9297-fb08e579b457">
      <ID>CubePermission</ID>
      <Name>CubePermission</Name>
      <CreatedTimestamp>0001-01-01T00:00:00Z</CreatedTimestamp>
      <LastSchemaUpdate>0001-01-01T00:00:00Z</LastSchemaUpdate>
      <RoleID>Role</RoleID>
      <Read>Allowed</Read>
      <ReadSourceData>None</ReadSourceData>
    </CubePermission>
  </CubePermissions>
  <MeasureGroups>
    <MeasureGroup dwd:design-time-name="c3916e98-1d46-4b46-8e4a-8ad8851b46c0">
      <ID>v Fact Park PC LCV 012014</ID>
      <Name>Парк</Name>
      <CreatedTimestamp>0001-01-01T00:00:00Z</CreatedTimestamp>
      <LastSchemaUpdate>0001-01-01T00:00:00Z</LastSchemaUpdate>
      <LastProcessed>0001-01-01T00:00:00Z</LastProcessed>
      <State>Unprocessed</State>
      <Measures>
        <Measure dwd:design-time-name="69f40e88-1de5-41e1-bf8b-0065cbf1d0f1">
          <ID>Quantity</ID>
          <Name>Количество</Name>
          <Source dwd:design-time-name="4c9f2d91-126c-43a2-a4fe-c1aaf1d93d15">
            <DataType>Integer</DataType>
            <Source xsi:type="ColumnBinding" dwd:design-time-name="0dd70785-ea07-42d3-b697-d5527ef2fb6c">
              <TableID>dbo_vFactPark_PC_LCV_012014</TableID>
              <ColumnID>Quantity</ColumnID>
            </Source>
          </Source>
        </Measure>
      </Measures>
      <StorageMode>Molap</StorageMode>
      <ProcessingMode>Regular</ProcessingMode>
      <Dimensions>
        <Dimension xsi:type="RegularMeasureGroupDimension" dwd:design-time-name="fd863b95-5596-4d60-ad10-a9d65d6ab719">
          <CubeDimensionID>Тип кузова</CubeDimensionID>
          <Attributes>
            <Attribute dwd:design-time-name="e77e69c3-1577-41c4-a739-5b0c157e0202">
              <AttributeID>Body Type Key</AttributeID>
              <KeyColumns>
                <KeyColumn dwd:design-time-name="6da5cc3b-d66a-4c51-94a8-786476c06af4">
                  <DataType>SmallInt</DataType>
                  <Source xsi:type="ColumnBinding" dwd:design-time-name="13b3706b-f270-4b0a-ac04-ece76dd011c6">
                    <TableID>dbo_vFactPark_PC_LCV_012014</TableID>
                    <ColumnID>BodyTypeKey</ColumnID>
                  </Source>
                </KeyColumn>
              </KeyColumns>
              <Type>Granularity</Type>
            </Attribute>
          </Attributes>
        </Dimension>
        <Dimension xsi:type="RegularMeasureGroupDimension" dwd:design-time-name="85de5cd9-cd19-4ea3-86ae-fa4a75722e90">
          <CubeDimensionID>Место производства</CubeDimensionID>
          <Attributes>
            <Attribute dwd:design-time-name="f88e7ee0-57c3-4091-a41e-4e627015bb5e">
              <AttributeID>Country Key</AttributeID>
              <KeyColumns>
                <KeyColumn dwd:design-time-name="60666421-44ea-4e56-8dcf-fe5fb09b86e0">
                  <DataType>SmallInt</DataType>
                  <Source xsi:type="ColumnBinding" dwd:design-time-name="f470fb4e-e1ff-452f-a5df-82bfc66ad356">
                    <TableID>dbo_vFactPark_PC_LCV_012014</TableID>
                    <ColumnID>CountryKey</ColumnID>
                  </Source>
                </KeyColumn>
              </KeyColumns>
              <Type>Granularity</Type>
            </Attribute>
          </Attributes>
        </Dimension>
        <Dimension xsi:type="RegularMeasureGroupDimension" dwd:design-time-name="ccfb1768-4108-4ec8-9ebc-eae060ac4bb0">
          <CubeDimensionID>Еврокласс</CubeDimensionID>
          <Attributes>
            <Attribute dwd:design-time-name="08164e68-f08f-45ec-8e46-8ec2f0b172c3">
              <AttributeID>Euro Class Key</AttributeID>
              <KeyColumns>
                <KeyColumn dwd:design-time-name="e9e8d2d1-00ef-47e1-a20a-4b2b62c40d92">
                  <DataType>SmallInt</DataType>
                  <Source xsi:type="ColumnBinding" dwd:design-time-name="99005a15-eb7d-42aa-86a7-fcb91962169e">
                    <TableID>dbo_vFactPark_PC_LCV_012014</TableID>
                    <ColumnID>EuroClassKey</ColumnID>
                  </Source>
                </KeyColumn>
              </KeyColumns>
              <Type>Granularity</Type>
            </Attribute>
          </Attributes>
        </Dimension>
        <Dimension xsi:type="RegularMeasureGroupDimension" dwd:design-time-name="b3b394aa-d159-46f7-8396-1761adadd204">
          <CubeDimensionID>Тип топлива</CubeDimensionID>
          <Attributes>
            <Attribute dwd:design-time-name="ad42d057-67d2-40dd-bd5e-13232732a222">
              <AttributeID>Fuel Type Key</AttributeID>
              <KeyColumns>
                <KeyColumn dwd:design-time-name="01c3a387-0ecf-4336-8a0a-44b6cd19e9ef">
                  <DataType>SmallInt</DataType>
                  <Source xsi:type="ColumnBinding" dwd:design-time-name="3af2155e-4f0a-477d-8857-a94a90f0276e">
                    <TableID>dbo_vFactPark_PC_LCV_012014</TableID>
                    <ColumnID>FuelTypeKey</ColumnID>
                  </Source>
                </KeyColumn>
              </KeyColumns>
              <Type>Granularity</Type>
            </Attribute>
          </Attributes>
        </Dimension>
        <Dimension xsi:type="RegularMeasureGroupDimension" dwd:design-time-name="42426fec-213a-4065-97c1-46a0ebe31e22">
          <CubeDimensionID>География</CubeDimensionID>
          <Attributes>
            <Attribute dwd:design-time-name="551f1798-88f1-434b-86ab-c7caf949ae23">
              <AttributeID>Geography Key</AttributeID>
              <KeyColumns>
                <KeyColumn dwd:design-time-name="113416fc-cbbe-48ff-a219-7aa2eb7f460d">
                  <DataType>Integer</DataType>
                  <Source xsi:type="ColumnBinding" dwd:design-time-name="d6d1ea8f-0626-476f-95cc-cad901052f4f">
                    <TableID>dbo_vFactPark_PC_LCV_012014</TableID>
                    <ColumnID>GeographyKey</ColumnID>
                  </Source>
                </KeyColumn>
              </KeyColumns>
              <Type>Granularity</Type>
            </Attribute>
          </Attributes>
        </Dimension>
        <Dimension xsi:type="RegularMeasureGroupDimension" dwd:design-time-name="3f185b0d-a422-4f8e-b6d5-b827dca376c2">
          <CubeDimensionID>Тип владельца</CubeDimensionID>
          <Attributes>
            <Attribute dwd:design-time-name="34fa78a5-f9bf-4ad2-8bd7-142bb10b5dbe">
              <AttributeID>Owner Type Key</AttributeID>
              <KeyColumns>
                <KeyColumn dwd:design-time-name="e35e2acd-d18b-483d-86be-561315ac8d7a">
                  <DataType>SmallInt</DataType>
                  <Source xsi:type="ColumnBinding" dwd:design-time-name="d8fb9645-13b9-4359-b703-e3c0f2fb11e9">
                    <TableID>dbo_vFactPark_PC_LCV_012014</TableID>
                    <ColumnID>OwnerTypeKey</ColumnID>
                  </Source>
                </KeyColumn>
              </KeyColumns>
              <Type>Granularity</Type>
            </Attribute>
          </Attributes>
        </Dimension>
        <Dimension xsi:type="RegularMeasureGroupDimension" dwd:design-time-name="84d00333-8f2e-4fb3-b4b6-6eef0a0af7ff">
          <CubeDimensionID>Год выпуска</CubeDimensionID>
          <Attributes>
            <Attribute dwd:design-time-name="f8d6fcf8-fbb7-4c39-a2d6-634d6198c838">
              <AttributeID>Prod Year Key</AttributeID>
              <KeyColumns>
                <KeyColumn dwd:design-time-name="ce924e0c-a7b7-410f-a16d-f9ab37ca2470">
                  <DataType>Integer</DataType>
                  <Source xsi:type="ColumnBinding" dwd:design-time-name="eab6fcc9-0b27-43c0-acd0-2af50f65fad2">
                    <TableID>dbo_vFactPark_PC_LCV_012014</TableID>
                    <ColumnID>ProdYearKey</ColumnID>
                  </Source>
                </KeyColumn>
              </KeyColumns>
              <Type>Granularity</Type>
            </Attribute>
          </Attributes>
        </Dimension>
        <Dimension xsi:type="RegularMeasureGroupDimension" dwd:design-time-name="f96fae9b-7729-4f46-bd0a-fe42372b498a">
          <CubeDimensionID>Срез парка</CubeDimensionID>
          <Attributes>
            <Attribute dwd:design-time-name="041b441a-8c1b-4c08-a407-44226a093c41">
              <AttributeID>Park Date Key</AttributeID>
              <KeyColumns>
                <KeyColumn dwd:design-time-name="4322015a-55b4-448e-b6fa-ad36c58d17bc">
                  <DataType>Integer</DataType>
                  <Source xsi:type="ColumnBinding" dwd:design-time-name="46f09f71-d279-47ae-b93e-c68cc8c17321">
                    <TableID>dbo_vFactPark_PC_LCV_012014</TableID>
                    <ColumnID>ParkDateKey</ColumnID>
                  </Source>
                </KeyColumn>
              </KeyColumns>
              <Type>Granularity</Type>
            </Attribute>
          </Attributes>
        </Dimension>
        <Dimension xsi:type="RegularMeasureGroupDimension" dwd:design-time-name="e7f0c504-214e-428c-880e-ef6db260ed78">
          <CubeDimensionID>Расположение руля</CubeDimensionID>
          <Attributes>
            <Attribute dwd:design-time-name="871ca13b-8982-431a-9e26-30e52fa41346">
              <AttributeID>Steering Wheel Key</AttributeID>
              <KeyColumns>
                <KeyColumn dwd:design-time-name="5e3ff79f-b047-4129-aa3a-ea59543f5452">
                  <DataType>SmallInt</DataType>
                  <Source xsi:type="ColumnBinding" dwd:design-time-name="eb08b8ae-4c4d-4b41-b4b2-cfdbb3e16799">
                    <TableID>dbo_vFactPark_PC_LCV_012014</TableID>
                    <ColumnID>SteeringWheelKey</ColumnID>
                  </Source>
                </KeyColumn>
              </KeyColumns>
              <Type>Granularity</Type>
            </Attribute>
          </Attributes>
        </Dimension>
        <Dimension xsi:type="RegularMeasureGroupDimension" dwd:design-time-name="f532fed0-65d7-4bc2-baac-8312ae3bda9d">
          <CubeDimensionID>Объем двигателя Парк</CubeDimensionID>
          <Attributes>
            <Attribute dwd:design-time-name="b48bd425-af4a-40de-b01d-1d96aae5b8f8">
              <AttributeID>Engine Capacity Key</AttributeID>
              <KeyColumns>
                <KeyColumn dwd:design-time-name="4f3964ef-25f5-478d-9327-1126e6f9d3dc">
                  <DataType>Integer</DataType>
                  <Source xsi:type="ColumnBinding" dwd:design-time-name="b93651fa-2f1f-4e51-83df-803e2f32a0a6">
                    <TableID>dbo_vFactPark_PC_LCV_012014</TableID>
                    <ColumnID>EngineCapacityKey</ColumnID>
                  </Source>
                </KeyColumn>
              </KeyColumns>
              <Type>Granularity</Type>
            </Attribute>
          </Attributes>
        </Dimension>
        <Dimension xsi:type="RegularMeasureGroupDimension" dwd:design-time-name="3e7183d0-36d5-4359-8c2d-d2ad8aa69bc9">
          <CubeDimensionID>Мощность двигателя лс Парк</CubeDimensionID>
          <Attributes>
            <Attribute dwd:design-time-name="db39c608-6bbe-4175-99bf-f7a68bf57dd8">
              <AttributeID>Engine Power H Key</AttributeID>
              <KeyColumns>
                <KeyColumn dwd:design-time-name="9f9209ec-8660-4e9e-9f71-03d965def8fc">
                  <DataType>Integer</DataType>
                  <Source xsi:type="ColumnBinding" dwd:design-time-name="d0053487-eb10-4655-834c-94f57bb0c9e3">
                    <TableID>dbo_vFactPark_PC_LCV_012014</TableID>
                    <ColumnID>EnginePowerHKey</ColumnID>
                  </Source>
                </KeyColumn>
              </KeyColumns>
              <Type>Granularity</Type>
            </Attribute>
          </Attributes>
        </Dimension>
        <Dimension xsi:type="RegularMeasureGroupDimension" dwd:design-time-name="284f4e53-6a3f-4b36-b8ca-a103148e999d">
          <CubeDimensionID>Мощность двигателя квт Парк</CubeDimensionID>
          <Attributes>
            <Attribute dwd:design-time-name="2ef45a8a-5cbf-4b69-a425-a125092dac52">
              <AttributeID>Engine Power KW Key</AttributeID>
              <KeyColumns>
                <KeyColumn dwd:design-time-name="f7477164-9c6f-47c4-88c6-e01e06ca8655">
                  <DataType>Integer</DataType>
                  <Source xsi:type="ColumnBinding" dwd:design-time-name="b2900a97-551e-4436-aabd-e8d793c499a5">
                    <TableID>dbo_vFactPark_PC_LCV_012014</TableID>
                    <ColumnID>EnginePowerKWKey</ColumnID>
                  </Source>
                </KeyColumn>
              </KeyColumns>
              <Type>Granularity</Type>
            </Attribute>
          </Attributes>
        </Dimension>
        <Dimension xsi:type="RegularMeasureGroupDimension" dwd:design-time-name="7b691377-f2ce-4039-b906-c8a7076c8789">
          <CubeDimensionID>Полная масса Парк</CubeDimensionID>
          <Attributes>
            <Attribute dwd:design-time-name="93c7abed-3ded-45f3-8c83-314238ff165c">
              <AttributeID>GVW Key</AttributeID>
              <KeyColumns>
                <KeyColumn dwd:design-time-name="44aaf5b6-cd78-47ef-86e7-38208e09b8e8">
                  <DataType>Integer</DataType>
                  <Source xsi:type="ColumnBinding" dwd:design-time-name="0e580fba-3d3f-44de-92ec-01d90e65504e">
                    <TableID>dbo_vFactPark_PC_LCV_012014</TableID>
                    <ColumnID>GVWKey</ColumnID>
                  </Source>
                </KeyColumn>
              </KeyColumns>
              <Type>Granularity</Type>
            </Attribute>
          </Attributes>
        </Dimension>
        <Dimension xsi:type="RegularMeasureGroupDimension" dwd:design-time-name="f9dca5b2-30ee-43e6-8254-8f6667b67f06">
          <CubeDimensionID>Марка Модель PC LCV</CubeDimensionID>
          <Attributes>
            <Attribute dwd:design-time-name="124cb73f-71a9-412f-960b-be1bb0fb8498">
              <AttributeID>Model Key</AttributeID>
              <KeyColumns>
                <KeyColumn dwd:design-time-name="207c3237-72f1-44bb-adac-14a4067a3dfd">
                  <DataType>Integer</DataType>
                  <Source xsi:type="ColumnBinding" dwd:design-time-name="214f0452-bbc4-4f78-a820-7fd7fda208b3">
                    <TableID>dbo_vFactPark_PC_LCV_012014</TableID>
                    <ColumnID>ModelKey</ColumnID>
                  </Source>
                </KeyColumn>
              </KeyColumns>
              <Type>Granularity</Type>
            </Attribute>
          </Attributes>
        </Dimension>
        <Dimension xsi:type="RegularMeasureGroupDimension" dwd:design-time-name="803a6b4c-42c2-4323-83bd-de8ae64234b5">
          <CubeDimensionID>Сегменты</CubeDimensionID>
          <Attributes>
            <Attribute dwd:design-time-name="ba3f92b1-c76c-4f8a-9a9b-62b801a6e071">
              <AttributeID>Model Key</AttributeID>
              <KeyColumns>
                <KeyColumn dwd:design-time-name="18b673b3-183e-4db3-a140-938020cd827e">
                  <DataType>Integer</DataType>
                  <Source xsi:type="ColumnBinding" dwd:design-time-name="b16bc3b7-ad72-493b-bf55-575fa4b7b597">
                    <TableID>dbo_vFactPark_PC_LCV_012014</TableID>
                    <ColumnID>ModelKey</ColumnID>
                  </Source>
                </KeyColumn>
              </KeyColumns>
              <Type>Granularity</Type>
            </Attribute>
          </Attributes>
        </Dimension>
        <Dimension xsi:type="RegularMeasureGroupDimension" dwd:design-time-name="e1720b62-e056-43b7-8d72-aa4d44323866">
          <CubeDimensionID>Тип ТС PC LCV</CubeDimensionID>
          <Attributes>
            <Attribute dwd:design-time-name="ee4453f0-9845-44bd-bbd5-d8d18dcc0897">
              <AttributeID>Model Key</AttributeID>
              <KeyColumns>
                <KeyColumn dwd:design-time-name="0e1d8c16-75b2-4a85-acb4-e3d6ebd059e2">
                  <DataType>Integer</DataType>
                  <Source xsi:type="ColumnBinding" dwd:design-time-name="c5f1c345-6aff-4d7d-96a9-9ab71b07f4e8">
                    <TableID>dbo_vFactPark_PC_LCV_012014</TableID>
                    <ColumnID>ModelKey</ColumnID>
                  </Source>
                </KeyColumn>
              </KeyColumns>
              <Type>Granularity</Type>
            </Attribute>
          </Attributes>
        </Dimension>
        <Dimension xsi:type="RegularMeasureGroupDimension" dwd:design-time-name="406a887b-9aaf-4ed2-be89-b4e9f51f6ed8">
          <CubeDimensionID>Происхождение марки</CubeDimensionID>
          <Attributes>
            <Attribute dwd:design-time-name="367efd79-95ca-4863-9bb7-7e47bbdf80b6">
              <AttributeID>Model Key</AttributeID>
              <KeyColumns>
                <KeyColumn dwd:design-time-name="ea4d9d75-1bfd-477b-bad9-720a57c042f4">
                  <DataType>Integer</DataType>
                  <Source xsi:type="ColumnBinding" dwd:design-time-name="d4b4982d-86b7-43bf-9393-6f5bdf74f4d4">
                    <TableID>dbo_vFactPark_PC_LCV_012014</TableID>
                    <ColumnID>ModelKey</ColumnID>
                  </Source>
                </KeyColumn>
              </KeyColumns>
              <Type>Granularity</Type>
            </Attribute>
          </Attributes>
        </Dimension>
        <Dimension xsi:type="RegularMeasureGroupDimension" dwd:design-time-name="66e4cff9-d0f8-49c2-809c-bdc3305b8722">
          <CubeDimensionID>Снаряженная масса Парк 1</CubeDimensionID>
          <Attributes>
            <Attribute dwd:design-time-name="9b71a31f-c056-43c9-940b-ef0da79e4e6a">
              <AttributeID>CVW Key</AttributeID>
              <KeyColumns>
                <KeyColumn dwd:design-time-name="030cf525-d9d4-4039-9df9-3fc162bc6a3a">
                  <DataType>Integer</DataType>
                  <NullProcessing>UnknownMember</NullProcessing>
                  <Source xsi:type="ColumnBinding" dwd:design-time-name="e0efca2c-a17f-46fe-b7c8-4f46fa6f4896">
                    <TableID>dbo_vFactPark_PC_LCV_012014</TableID>
                    <ColumnID>CVWKey</ColumnID>
                  </Source>
                </KeyColumn>
              </KeyColumns>
              <Type>Granularity</Type>
            </Attribute>
          </Attributes>
        </Dimension>
        <Dimension xsi:type="RegularMeasureGroupDimension" dwd:design-time-name="fd2a280e-8a96-4bdf-8363-d9260f501397">
          <CubeDimensionID>Дата обновления парка</CubeDimensionID>
          <Attributes>
            <Attribute dwd:design-time-name="43166f9d-27c9-4477-a8c7-b821df694aa8">
              <AttributeID>Updating Date Key</AttributeID>
              <KeyColumns>
                <KeyColumn dwd:design-time-name="d064d0b5-33a2-456b-9333-4f6f7a4db222">
                  <DataType>Integer</DataType>
                  <Source xsi:type="ColumnBinding" dwd:design-time-name="cf9fd475-cb91-433e-bab5-dd5c0785cb5f">
                    <TableID>dbo_vFactPark_PC_LCV_012014</TableID>
                    <ColumnID>UpdatingDateKey</ColumnID>
                  </Source>
                </KeyColumn>
              </KeyColumns>
              <Type>Granularity</Type>
            </Attribute>
          </Attributes>
        </Dimension>
      </Dimensions>
    </MeasureGroup>
  </MeasureGroups>
  <Source dwd:design-time-name="6c63b191-9dfd-4c45-bf96-af4f46b730e8">
    <DataSourceViewID>Autostat DW New</DataSourceViewID>
  </Source>
  <StorageLocation>F:\OLAP\</StorageLocation>
</Cube>