﻿<Cube xmlns:xsd="http://www.w3.org/2001/XMLSchema" xmlns:xsi="http://www.w3.org/2001/XMLSchema-instance" xmlns:ddl2="http://schemas.microsoft.com/analysisservices/2003/engine/2" xmlns:ddl2_2="http://schemas.microsoft.com/analysisservices/2003/engine/2/2" xmlns:ddl100_100="http://schemas.microsoft.com/analysisservices/2008/engine/100/100" xmlns:ddl200="http://schemas.microsoft.com/analysisservices/2010/engine/200" xmlns:ddl200_200="http://schemas.microsoft.com/analysisservices/2010/engine/200/200" xmlns:ddl300="http://schemas.microsoft.com/analysisservices/2011/engine/300" xmlns:ddl300_300="http://schemas.microsoft.com/analysisservices/2011/engine/300/300" xmlns:dwd="http://schemas.microsoft.com/DataWarehouse/Designer/1.0" dwd:design-time-name="a07a58da-26eb-49e8-a58a-0b7aadf213a5" xmlns="http://schemas.microsoft.com/analysisservices/2003/engine">
  <ID>Парк KZ</ID>
  <Name>Парки KZ</Name>
  <CreatedTimestamp>0001-01-01T00:00:00Z</CreatedTimestamp>
  <LastSchemaUpdate>0001-01-01T00:00:00Z</LastSchemaUpdate>
  <Annotations>
    <Annotation>
      <Name>http://schemas.microsoft.com/DataWarehouse/Designer/1.0:DiagramLayout</Name>
      <Value>
        <dds xmlns="">
          <diagram fontclsid="{0BE35203-8F91-11CE-9DE3-00AA004BB851}" mouseiconclsid="{0BE35204-8F91-11CE-9DE3-00AA004BB851}" defaultlayout="MSDDS.Rectilinear" defaultlineroute="MSDDS.Rectilinear" version="7" nextobject="24" scale="100" pagebreakanchorx="0" pagebreakanchory="0" pagebreaksizex="0" pagebreaksizey="0" scrollleft="-1275" scrolltop="-202" gridx="150" gridy="150" marginx="5000" marginy="5000" zoom="95" x="18494" y="17304" backcolor="15334399" defaultpersistence="2" PrintPageNumbersMode="3" PrintMarginTop="0" PrintMarginBottom="635" PrintMarginLeft="0" PrintMarginRight="0" marqueeselectionmode="0" mousepointer="0" snaptogrid="0" autotypeannotation="1" showscrollbars="0" viewpagebreaks="0" donotforceconnectorsbehindshapes="1" backpictureclsid="{00000000-0000-0000-0000-000000000000}">
            <font>
              <ddsxmlobjectstreamwrapper binary="01cc0000900144420100065461686f6d61" />
            </font>
            <mouseicon>
              <ddsxmlobjectstreamwrapper binary="6c74000000000000" />
            </mouseicon>
          </diagram>
          <layoutmanager>
            <ddsxmlobj />
          </layoutmanager>
          <ddscontrol controlprogid="DdsShapes.DdsObjectManagedBridge.3" tooltip="DimGeographyKZ" left="8256" top="7263" logicalid="12" controlid="1" masterid="0" hint1="0" hint2="0" width="4128" height="4842" noresize="0" nomove="0" nodefaultattachpoints="0" autodrag="1" usedefaultiddshape="1" selectable="1" showselectionhandles="1" allownudging="1" isannotation="0" dontautolayout="0" groupcollapsed="0" tabstop="1" visible="1" snaptogrid="0">
            <control>
              <ddsxmlobjectstreaminitwrapper binary="0008000020100000ea120000" />
            </control>
            <layoutobject>
              <ddsxmlobj>
                <property name="LogicalObject" value="dbo_DimGeographyKZ" vartype="8" />
              </ddsxmlobj>
            </layoutobject>
            <shape groupshapeid="0" groupnode="0" />
          </ddscontrol>
          <ddscontrol controlprogid="DdsShapes.DdsObjectManagedBridge.3" tooltip="vUpdatingDateParkKZ" left="12858" top="2500" logicalid="13" controlid="2" masterid="0" hint1="0" hint2="0" width="4286" height="5000" noresize="0" nomove="0" nodefaultattachpoints="0" autodrag="1" usedefaultiddshape="1" selectable="1" showselectionhandles="1" allownudging="1" isannotation="0" dontautolayout="0" groupcollapsed="0" tabstop="1" visible="1" snaptogrid="0">
            <control>
              <ddsxmlobjectstreaminitwrapper binary="00080000be10000088130000" />
            </control>
            <layoutobject>
              <ddsxmlobj>
                <property name="LogicalObject" value="dbo_vUpdatingDateParkKZ" vartype="8" />
              </ddsxmlobj>
            </layoutobject>
            <shape groupshapeid="0" groupnode="0" />
          </ddscontrol>
          <ddscontrol controlprogid="DdsShapes.DdsObjectManagedBridge.3" tooltip="vSliceParkKZ" left="12858" top="10000" logicalid="14" controlid="3" masterid="0" hint1="0" hint2="0" width="4286" height="5000" noresize="0" nomove="0" nodefaultattachpoints="0" autodrag="1" usedefaultiddshape="1" selectable="1" showselectionhandles="1" allownudging="1" isannotation="0" dontautolayout="0" groupcollapsed="0" tabstop="1" visible="1" snaptogrid="0">
            <control>
              <ddsxmlobjectstreaminitwrapper binary="00080000be10000088130000" />
            </control>
            <layoutobject>
              <ddsxmlobj>
                <property name="LogicalObject" value="dbo_vSliceParkKZ" vartype="8" />
              </ddsxmlobj>
            </layoutobject>
            <shape groupshapeid="0" groupnode="0" />
          </ddscontrol>
          <ddscontrol controlprogid="DdsShapes.DdsObjectManagedBridge.3" tooltip="DimModel" left="6588" top="12500" logicalid="15" controlid="4" masterid="0" hint1="0" hint2="0" width="4392" height="5000" noresize="0" nomove="0" nodefaultattachpoints="0" autodrag="1" usedefaultiddshape="1" selectable="1" showselectionhandles="1" allownudging="1" isannotation="0" dontautolayout="0" groupcollapsed="0" tabstop="1" visible="1" snaptogrid="0">
            <control>
              <ddsxmlobjectstreaminitwrapper binary="000800002811000088130000" />
            </control>
            <layoutobject>
              <ddsxmlobj>
                <property name="LogicalObject" value="dbo_DimModel" vartype="8" />
              </ddsxmlobj>
            </layoutobject>
            <shape groupshapeid="0" groupnode="0" />
          </ddscontrol>
          <ddscontrol controlprogid="DdsShapes.DdsObjectManagedBridge.3" tooltip="FactParkKZ" left="0" top="0" logicalid="16" controlid="5" masterid="0" hint1="0" hint2="0" width="3440" height="3572" noresize="0" nomove="0" nodefaultattachpoints="0" autodrag="1" usedefaultiddshape="1" selectable="1" showselectionhandles="1" allownudging="1" isannotation="0" dontautolayout="0" groupcollapsed="0" tabstop="1" visible="1" snaptogrid="0">
            <control>
              <ddsxmlobjectstreaminitwrapper binary="00080000700d0000f40d0000" />
            </control>
            <layoutobject>
              <ddsxmlobj>
                <property name="LogicalObject" value="dbo_FactParkKZ" vartype="8" />
              </ddsxmlobj>
            </layoutobject>
            <shape groupshapeid="0" groupnode="0" />
          </ddscontrol>
          <ddscontrol controlprogid="MSDDS.Polyline" left="3140" top="3136" logicalid="17" controlid="6" masterid="0" hint1="0" hint2="0" width="5416" height="4748" noresize="0" nomove="0" nodefaultattachpoints="1" autodrag="0" usedefaultiddshape="0" selectable="1" showselectionhandles="0" allownudging="1" isannotation="0" dontautolayout="0" groupcollapsed="0" tabstop="1" visible="1" snaptogrid="0">
            <control>
              <ddsxmlobj>
                <polyline endtypedst="6" endtypesrc="3" usercolor="0" linestyle="0" linerender="1" customendtypedstid="0" customendtypesrcid="0" adornsvisible="1" />
              </ddsxmlobj>
            </control>
            <layoutobject>
              <ddsxmlobj>
                <property name="LogicalObject" value="dataSet.Relations[FK_FactParkKZ_DimGeographyKZ]" vartype="8" />
                <property name="Virtual" value="0" vartype="11" />
                <property name="VisibleAP" value="0" vartype="3" />
              </ddsxmlobj>
            </layoutobject>
            <connector lineroutestyle="MSDDS.Rectilinear" sourceid="1" destid="5" sourceattachpoint="14" destattachpoint="23" segmenteditmode="0" bendpointeditmode="0" bendpointvisibility="0" relatedid="0" virtual="0">
              <point x="8256" y="7484" />
              <point x="5848" y="7484" />
              <point x="5848" y="3436" />
              <point x="3440" y="3436" />
            </connector>
          </ddscontrol>
          <ddscontrol controlprogid="MSDDS.Polyline" left="2520" top="3272" logicalid="18" controlid="7" masterid="0" hint1="0" hint2="0" width="5014" height="9728" noresize="0" nomove="0" nodefaultattachpoints="1" autodrag="0" usedefaultiddshape="0" selectable="1" showselectionhandles="0" allownudging="1" isannotation="0" dontautolayout="0" groupcollapsed="0" tabstop="1" visible="1" snaptogrid="0">
            <control>
              <ddsxmlobj>
                <polyline endtypedst="6" endtypesrc="3" usercolor="0" linestyle="0" linerender="1" customendtypedstid="0" customendtypesrcid="0" adornsvisible="1" />
              </ddsxmlobj>
            </control>
            <layoutobject>
              <ddsxmlobj>
                <property name="LogicalObject" value="dataSet.Relations[FK_FactParkKZ_DimModel]" vartype="8" />
                <property name="Virtual" value="0" vartype="11" />
                <property name="VisibleAP" value="0" vartype="3" />
              </ddsxmlobj>
            </layoutobject>
            <connector lineroutestyle="MSDDS.Rectilinear" sourceid="4" destid="5" sourceattachpoint="0" destattachpoint="9" segmenteditmode="0" bendpointeditmode="0" bendpointvisibility="0" relatedid="0" virtual="0">
              <point x="7134" y="12500" />
              <point x="7134" y="8036" />
              <point x="2820" y="8036" />
              <point x="2820" y="3572" />
            </connector>
          </ddscontrol>
          <ddscontrol controlprogid="MSDDS.Polyline" left="3140" top="2487" logicalid="19" controlid="8" masterid="0" hint1="0" hint2="0" width="10018" height="8113" noresize="0" nomove="0" nodefaultattachpoints="1" autodrag="0" usedefaultiddshape="0" selectable="1" showselectionhandles="0" allownudging="1" isannotation="0" dontautolayout="0" groupcollapsed="0" tabstop="1" visible="1" snaptogrid="0">
            <control>
              <ddsxmlobj>
                <polyline endtypedst="6" endtypesrc="3" usercolor="0" linestyle="0" linerender="1" customendtypedstid="0" customendtypesrcid="0" adornsvisible="1" />
              </ddsxmlobj>
            </control>
            <layoutobject>
              <ddsxmlobj>
                <property name="LogicalObject" value="dataSet.Relations[vSliceParkKZ-FactParkKZ]" vartype="8" />
                <property name="Virtual" value="0" vartype="11" />
                <property name="VisibleAP" value="0" vartype="3" />
              </ddsxmlobj>
            </layoutobject>
            <connector lineroutestyle="MSDDS.Rectilinear" sourceid="5" destid="3" sourceattachpoint="21" destattachpoint="14" segmenteditmode="0" bendpointeditmode="0" bendpointvisibility="0" relatedid="0" virtual="0">
              <point x="3440" y="2886" />
              <point x="8149" y="2886" />
              <point x="8149" y="10300" />
              <point x="12858" y="10300" />
            </connector>
          </ddscontrol>
          <ddscontrol controlprogid="MSDDS.Polyline" left="3140" top="1937" logicalid="20" controlid="9" masterid="0" hint1="0" hint2="0" width="10018" height="1163" noresize="0" nomove="0" nodefaultattachpoints="1" autodrag="0" usedefaultiddshape="0" selectable="1" showselectionhandles="0" allownudging="1" isannotation="0" dontautolayout="0" groupcollapsed="0" tabstop="1" visible="1" snaptogrid="0">
            <control>
              <ddsxmlobj>
                <polyline endtypedst="6" endtypesrc="3" usercolor="0" linestyle="0" linerender="1" customendtypedstid="0" customendtypesrcid="0" adornsvisible="1" />
              </ddsxmlobj>
            </control>
            <layoutobject>
              <ddsxmlobj>
                <property name="LogicalObject" value="dataSet.Relations[vUpdatingDateParkKZ-FactParkKZ]" vartype="8" />
                <property name="Virtual" value="0" vartype="11" />
                <property name="VisibleAP" value="0" vartype="3" />
              </ddsxmlobj>
            </layoutobject>
            <connector lineroutestyle="MSDDS.Rectilinear" sourceid="5" destid="2" sourceattachpoint="19" destattachpoint="14" segmenteditmode="0" bendpointeditmode="0" bendpointvisibility="0" relatedid="0" virtual="0">
              <point x="3440" y="2336" />
              <point x="8149" y="2336" />
              <point x="8149" y="2800" />
              <point x="12858" y="2800" />
            </connector>
          </ddscontrol>
          <ddscontrol controlprogid="DdsShapes.DdsObjectManagedBridge.3" tooltip="DimProdYear" left="4048" top="4722" logicalid="21" controlid="10" masterid="0" hint1="0" hint2="0" width="4048" height="3149" noresize="0" nomove="0" nodefaultattachpoints="0" autodrag="1" usedefaultiddshape="1" selectable="1" showselectionhandles="1" allownudging="1" isannotation="0" dontautolayout="0" groupcollapsed="0" tabstop="1" visible="1" snaptogrid="0">
            <control>
              <ddsxmlobjectstreaminitwrapper binary="00080000d00f00004d0c0000" />
            </control>
            <layoutobject>
              <ddsxmlobj>
                <property name="LogicalObject" value="dbo_DimProdYear" vartype="8" />
              </ddsxmlobj>
            </layoutobject>
            <shape groupshapeid="0" groupnode="0" />
          </ddscontrol>
          <ddscontrol controlprogid="MSDDS.Polyline" left="-700" top="-164" logicalid="22" controlid="11" masterid="0" hint1="0" hint2="0" width="5048" height="5760" noresize="0" nomove="0" nodefaultattachpoints="1" autodrag="0" usedefaultiddshape="0" selectable="1" showselectionhandles="0" allownudging="1" isannotation="0" dontautolayout="0" groupcollapsed="0" tabstop="1" visible="1" snaptogrid="0">
            <control>
              <ddsxmlobj>
                <polyline endtypedst="6" endtypesrc="3" usercolor="0" linestyle="0" linerender="1" customendtypedstid="0" customendtypesrcid="0" adornsvisible="1" />
              </ddsxmlobj>
            </control>
            <layoutobject>
              <ddsxmlobj>
                <property name="LogicalObject" value="dataSet.Relations[FK_FactParkKZ_DimProdYear]" vartype="8" />
                <property name="Virtual" value="0" vartype="11" />
                <property name="VisibleAP" value="0" vartype="3" />
              </ddsxmlobj>
            </layoutobject>
            <connector lineroutestyle="MSDDS.Rectilinear" sourceid="10" destid="5" sourceattachpoint="14" destattachpoint="10" segmenteditmode="0" bendpointeditmode="0" bendpointvisibility="0" relatedid="0" virtual="0">
              <point x="4048" y="5196" />
              <point x="-400" y="5196" />
              <point x="-400" y="136" />
              <point x="0" y="136" />
            </connector>
          </ddscontrol>
        </dds>
      </Value>
    </Annotation>
    <Annotation>
      <Name>http://schemas.microsoft.com/DataWarehouse/Designer/1.0:ShowFriendlyNames</Name>
      <Value>true</Value>
    </Annotation>
    <Annotation>
      <Name>http://schemas.microsoft.com/DataWarehouse/Designer/1.0:ShowRelationshipNames</Name>
      <Value>false</Value>
    </Annotation>
    <Annotation>
      <Name>http://schemas.microsoft.com/DataWarehouse/Designer/1.0:UseDiagramDefaultLayout</Name>
      <Value>true</Value>
    </Annotation>
    <Annotation>
      <Name>http://schemas.microsoft.com/DataWarehouse/Designer/1.0:DiagramViewPortLeft</Name>
      <Value>-1275</Value>
    </Annotation>
    <Annotation>
      <Name>http://schemas.microsoft.com/DataWarehouse/Designer/1.0:DiagramViewPortTop</Name>
      <Value>-202</Value>
    </Annotation>
    <Annotation>
      <Name>http://schemas.microsoft.com/DataWarehouse/Designer/1.0:DiagramBoundingLeft</Name>
      <Value>0</Value>
    </Annotation>
    <Annotation>
      <Name>http://schemas.microsoft.com/DataWarehouse/Designer/1.0:DiagramBoundingTop</Name>
      <Value>0</Value>
    </Annotation>
    <Annotation>
      <Name>http://schemas.microsoft.com/DataWarehouse/Designer/1.0:DiagramZoom</Name>
      <Value>95</Value>
    </Annotation>
  </Annotations>
  <LastProcessed>0001-01-01T00:00:00Z</LastProcessed>
  <State>Unprocessed</State>
  <Dimensions>
    <Dimension dwd:design-time-name="184b401e-a705-4d22-8fc5-da8ddac9a4fd">
      <ID>География KZ</ID>
      <Name>География</Name>
      <DimensionID>География KZ</DimensionID>
      <Attributes>
        <Attribute dwd:design-time-name="88095604-6fce-494d-92b8-8e03651ef2b1">
          <AttributeID>Geography Key</AttributeID>
        </Attribute>
        <Attribute dwd:design-time-name="bf5912bb-93e6-4b95-9738-66819a820182">
          <AttributeID>Country</AttributeID>
        </Attribute>
        <Attribute dwd:design-time-name="747698d6-aa10-4fc2-ab70-dab0d803deb1">
          <AttributeID>Region</AttributeID>
        </Attribute>
        <Attribute dwd:design-time-name="88c62d42-cc15-4f55-bce5-bb16cdf8a881">
          <AttributeID>Province</AttributeID>
        </Attribute>
      </Attributes>
      <Hierarchies>
        <Hierarchy dwd:design-time-name="293c79a3-d6db-41e6-832d-b347d5902df4">
          <HierarchyID>Hierarchy</HierarchyID>
        </Hierarchy>
      </Hierarchies>
    </Dimension>
    <Dimension dwd:design-time-name="b8dc7002-78b6-4870-86d6-7252f9f6d920">
      <ID>Дата обновления парка KZ</ID>
      <Name>Дата обновления парка</Name>
      <DimensionID>Дата обновления парка KZ</DimensionID>
      <Attributes>
        <Attribute dwd:design-time-name="91216c12-33f6-43b3-9cb0-ba3ae77592da">
          <AttributeID>Updating Date Key</AttributeID>
        </Attribute>
        <Attribute dwd:design-time-name="5e1bec29-0b3b-48ce-83c9-262f7c813d1d">
          <AttributeID>Updating Date</AttributeID>
        </Attribute>
      </Attributes>
    </Dimension>
    <Dimension dwd:design-time-name="7b05cda9-7677-4c6f-9aa8-5af002a20798">
      <ID>Дата Среза KZ</ID>
      <Name>Дата среза парка</Name>
      <DimensionID>Дата Среза KZ</DimensionID>
      <Attributes>
        <Attribute dwd:design-time-name="c0c16a52-ebc3-46fa-a680-a665e9d307c0">
          <AttributeID>Park Date Key</AttributeID>
        </Attribute>
        <Attribute dwd:design-time-name="9bfa6063-b391-4eea-ad96-92f735818747">
          <AttributeID>Slice Date</AttributeID>
        </Attribute>
      </Attributes>
    </Dimension>
    <Dimension dwd:design-time-name="69688249-f672-4de6-a829-56b539a505b5">
      <ID>Модель</ID>
      <Name>Марка Модель</Name>
      <DimensionID>Марка Модель</DimensionID>
      <Attributes>
        <Attribute dwd:design-time-name="479480ee-1b3f-4192-83df-fd3064d6d725">
          <AttributeID>Model Key</AttributeID>
        </Attribute>
        <Attribute dwd:design-time-name="4d51319d-0251-47c6-9fc4-b965b64d300a">
          <AttributeID>Brand Alternate Key</AttributeID>
        </Attribute>
        <Attribute dwd:design-time-name="6fc0dbce-4e7f-490a-8d1b-fc11e7bd307d">
          <AttributeID>Model</AttributeID>
        </Attribute>
        <Attribute dwd:design-time-name="7f35a4ce-822d-4800-9658-11f0038f22f7">
          <AttributeID>Type Vehicle Code</AttributeID>
        </Attribute>
        <Attribute dwd:design-time-name="84936d23-b2ff-4800-b41d-0dcfe85bbe5c">
          <AttributeID>Segment Autostat</AttributeID>
        </Attribute>
        <Attribute dwd:design-time-name="17ab9208-c8fc-4c06-bb43-5e8df7afa2bc">
          <AttributeID>Subsegment Autostat</AttributeID>
        </Attribute>
      </Attributes>
      <Hierarchies>
        <Hierarchy dwd:design-time-name="95146255-a40e-4d16-b99c-09f24911d05e">
          <HierarchyID>Hierarchy</HierarchyID>
        </Hierarchy>
        <Hierarchy dwd:design-time-name="56af5761-b6ff-4883-ad52-1a62a81df66d">
          <HierarchyID>Hierarchy 1</HierarchyID>
        </Hierarchy>
        <Hierarchy dwd:design-time-name="7b8c7102-dea1-4a43-b9c8-e111f8854617">
          <HierarchyID>Hierarchy 1 1</HierarchyID>
        </Hierarchy>
      </Hierarchies>
    </Dimension>
    <Dimension dwd:design-time-name="a64209c8-0ab2-4893-b296-8732439b68ee">
      <ID>Год выпуска</ID>
      <Name>Год выпуска</Name>
      <DimensionID>Год выпуска</DimensionID>
      <Attributes>
        <Attribute dwd:design-time-name="e94c8a3f-071e-4f4a-893a-22fc24ec23c2">
          <AttributeID>Prod Year Key</AttributeID>
        </Attribute>
        <Attribute dwd:design-time-name="41a6b73b-f496-43f5-a799-7e788c4c9a1e">
          <AttributeID>Prod Year2000</AttributeID>
        </Attribute>
        <Attribute dwd:design-time-name="70627ccc-c396-48b0-8428-51b162bd5a0c">
          <AttributeID>Prod Year1987</AttributeID>
        </Attribute>
      </Attributes>
      <Hierarchies>
        <Hierarchy dwd:design-time-name="540adc7a-a1be-4337-9709-465c1a7ad88d">
          <HierarchyID>Hierarchy</HierarchyID>
        </Hierarchy>
      </Hierarchies>
    </Dimension>
  </Dimensions>
  <CubePermissions>
    <CubePermission dwd:design-time-name="4383cd4b-b717-40dd-87e6-413e0a252988">
      <ID>CubePermission</ID>
      <Name>CubePermission</Name>
      <CreatedTimestamp>0001-01-01T00:00:00Z</CreatedTimestamp>
      <LastSchemaUpdate>0001-01-01T00:00:00Z</LastSchemaUpdate>
      <RoleID>Role</RoleID>
      <Read>Allowed</Read>
      <ReadSourceData>None</ReadSourceData>
    </CubePermission>
  </CubePermissions>
  <MeasureGroups>
    <MeasureGroup dwd:design-time-name="50d881e1-d2f4-48b8-ad08-143801cf2588">
      <ID>Fact Park KZ</ID>
      <Name>Парк</Name>
      <CreatedTimestamp>0001-01-01T00:00:00Z</CreatedTimestamp>
      <LastSchemaUpdate>0001-01-01T00:00:00Z</LastSchemaUpdate>
      <LastProcessed>0001-01-01T00:00:00Z</LastProcessed>
      <State>Unprocessed</State>
      <Measures>
        <Measure dwd:design-time-name="b4251968-d94b-4e5a-ae86-f8a74c5953da">
          <ID>Quantity</ID>
          <Name>Количество</Name>
          <Source dwd:design-time-name="f000a472-53dd-4347-b325-b06671d19058">
            <DataType>Integer</DataType>
            <Source xsi:type="ColumnBinding" dwd:design-time-name="00ead570-53c9-4233-a310-019aa848f4c7">
              <TableID>dbo_FactParkKZ</TableID>
              <ColumnID>Quantity</ColumnID>
            </Source>
          </Source>
        </Measure>
      </Measures>
      <StorageMode>Molap</StorageMode>
      <StorageLocation>F:\OLAP\</StorageLocation>
      <ProcessingMode>Regular</ProcessingMode>
      <Dimensions>
        <Dimension xsi:type="RegularMeasureGroupDimension" dwd:design-time-name="6b0ce0ba-6f42-4b85-bf91-647313a3db8f">
          <CubeDimensionID>География KZ</CubeDimensionID>
          <Attributes>
            <Attribute dwd:design-time-name="1a39c1c7-4cef-434a-aeb8-dfda7d5a56cb">
              <AttributeID>Geography Key</AttributeID>
              <KeyColumns>
                <KeyColumn dwd:design-time-name="aa00e8e7-95b9-4f4f-8380-e2e352285ba5">
                  <DataType>SmallInt</DataType>
                  <Source xsi:type="ColumnBinding" dwd:design-time-name="64563dae-a813-459c-954b-8c57e9dcf0e2">
                    <TableID>dbo_FactParkKZ</TableID>
                    <ColumnID>GeographyKey</ColumnID>
                  </Source>
                </KeyColumn>
              </KeyColumns>
              <Type>Granularity</Type>
            </Attribute>
          </Attributes>
        </Dimension>
        <Dimension xsi:type="RegularMeasureGroupDimension" dwd:design-time-name="84118990-c6d2-4985-86ee-e75365697474">
          <CubeDimensionID>Модель</CubeDimensionID>
          <Attributes>
            <Attribute dwd:design-time-name="75b8e01c-ba08-4562-9614-343a9069f0ee">
              <AttributeID>Model Key</AttributeID>
              <KeyColumns>
                <KeyColumn dwd:design-time-name="6f09842a-1f06-4eff-8d85-5a6473521033">
                  <DataType>Integer</DataType>
                  <Source xsi:type="ColumnBinding" dwd:design-time-name="beaff340-837d-47af-9074-74ef77f526d4">
                    <TableID>dbo_FactParkKZ</TableID>
                    <ColumnID>ModelKey</ColumnID>
                  </Source>
                </KeyColumn>
              </KeyColumns>
              <Type>Granularity</Type>
            </Attribute>
          </Attributes>
        </Dimension>
        <Dimension xsi:type="RegularMeasureGroupDimension" dwd:design-time-name="cffa1307-2267-4ed2-8ffb-0c3838cefc7d">
          <CubeDimensionID>Дата обновления парка KZ</CubeDimensionID>
          <Attributes>
            <Attribute dwd:design-time-name="5c0f83f6-0fba-4422-b5b5-58eac1f4d804">
              <AttributeID>Updating Date Key</AttributeID>
              <KeyColumns>
                <KeyColumn dwd:design-time-name="64ebe9b6-55f2-40ca-b802-089768a544a8">
                  <DataType>Integer</DataType>
                  <Source xsi:type="ColumnBinding" dwd:design-time-name="18f03e6b-6f66-42c5-8426-7b747270c7ed">
                    <TableID>dbo_FactParkKZ</TableID>
                    <ColumnID>UpdatingDateKey</ColumnID>
                  </Source>
                </KeyColumn>
              </KeyColumns>
              <Type>Granularity</Type>
            </Attribute>
          </Attributes>
        </Dimension>
        <Dimension xsi:type="RegularMeasureGroupDimension" dwd:design-time-name="b35cb7ad-a58a-4ffd-a13e-56a0c8b7bfd6">
          <CubeDimensionID>Дата Среза KZ</CubeDimensionID>
          <Attributes>
            <Attribute dwd:design-time-name="91021eeb-bbf7-4ece-b741-e7e19274e8b6">
              <AttributeID>Park Date Key</AttributeID>
              <KeyColumns>
                <KeyColumn dwd:design-time-name="a70db6a0-e4a3-428a-b921-5b166529f2a5">
                  <DataType>Integer</DataType>
                  <Source xsi:type="ColumnBinding" dwd:design-time-name="30f8caa9-ea92-4264-94a9-a083ecff9cec">
                    <TableID>dbo_FactParkKZ</TableID>
                    <ColumnID>ParkDateKey</ColumnID>
                  </Source>
                </KeyColumn>
              </KeyColumns>
              <Type>Granularity</Type>
            </Attribute>
          </Attributes>
        </Dimension>
        <Dimension xsi:type="RegularMeasureGroupDimension" dwd:design-time-name="7cb11124-b9b5-4c4c-9446-2193b1987ea1">
          <CubeDimensionID>Год выпуска</CubeDimensionID>
          <Attributes>
            <Attribute dwd:design-time-name="0ddb01b6-5747-4c6f-a66c-e8e525f93636">
              <AttributeID>Prod Year Key</AttributeID>
              <KeyColumns>
                <KeyColumn dwd:design-time-name="59f59ec1-4a6f-4339-be71-7de29395179e">
                  <DataType>SmallInt</DataType>
                  <Source xsi:type="ColumnBinding" dwd:design-time-name="8003c183-f6c1-44ba-9947-674598d36d74">
                    <TableID>dbo_FactParkKZ</TableID>
                    <ColumnID>ProdYearKey</ColumnID>
                  </Source>
                </KeyColumn>
              </KeyColumns>
              <Type>Granularity</Type>
            </Attribute>
          </Attributes>
        </Dimension>
      </Dimensions>
    </MeasureGroup>
  </MeasureGroups>
  <Source dwd:design-time-name="05f419b7-7077-4555-a785-beb7c88e615a">
    <DataSourceViewID>Autostat DW New</DataSourceViewID>
  </Source>
  <StorageLocation>F:\OLAP\</StorageLocation>
</Cube>